# WaveFront *.obj file (generated by Cinema 4D)

v 0.000000 52.573195 -85.065216
v 0.000000 -52.573195 -85.065216
v 85.065216 0.000000 -52.573195
v 85.065216 0.000000 52.573195
v 0.000000 52.573195 85.065216
v 0.000000 -52.573195 85.065216
v -85.065216 0.000000 52.573195
v -85.065216 0.000000 -52.573195
v 52.573195 85.065216 0.000000
v -52.573195 85.065216 0.000000
v -52.573195 -85.065216 0.000000
v 52.573195 -85.065216 0.000000
# 12 vertices

vn 0.000000 0.934172 -0.356822
vn 0.577350 0.577350 -0.577350
vn 0.934172 0.356822 0.000000
vn 0.577350 0.577350 0.577350
vn 0.000000 0.934172 0.356822
vn -0.577350 0.577350 0.577350
vn -0.934172 0.356822 0.000000
vn -0.577350 0.577350 -0.577350
vn 0.000000 -0.934172 -0.356822
vn 0.577350 -0.577350 -0.577350
vn 0.934172 -0.356822 0.000000
vn 0.577350 -0.577350 0.577350
vn 0.000000 -0.934172 0.356822
vn -0.577350 -0.577350 0.577350
vn -0.934172 -0.356822 0.000000
vn -0.577350 -0.577350 -0.577350
vn -0.356822 0.000000 -0.934172
vn 0.356822 0.000000 -0.934172
vn 0.356822 0.000000 0.934172
vn -0.356822 0.000000 0.934172
# 20 normals

vt 0.700000 0.307000 0.000000
vt 0.600000 0.134000 0.000000
vt 0.500000 0.307000 0.000000
vt 0.000000 1.000000 0.000000
vt 0.400000 0.134000 0.000000
vt 0.100000 1.000000 0.000000
vt 0.200000 0.827000 0.000000
vt 0.000000 0.827000 0.000000
vt 0.300000 1.000000 0.000000
vt 1.000000 0.480000 0.000000
vt 0.800000 0.480000 0.000000
vt 0.900000 0.653000 0.000000
vt 0.700000 0.653000 0.000000
vt 0.600000 0.480000 0.000000
vt 0.300000 0.653000 0.000000
vt 0.500000 0.653000 0.000000
vt 0.400000 0.480000 0.000000
vt 0.300000 0.307000 0.000000
vt 0.200000 0.480000 0.000000
vt 0.100000 0.654000 0.000000
vt 0.400000 0.827000 0.000000
vt 0.500000 1.000000 0.000000
vt 0.600000 0.827000 0.000000
# 23 texture coordinates

o Platonic
usemtl default
f 10/1/1 9/2/1 1/3/1
f 9/2/2 3/5/2 1/3/2
f 9/6/3 4/7/3 3/8/3
f 9/6/4 5/9/4 4/7/4
f 9/10/5 10/11/5 5/12/5
f 5/12/6 10/11/6 7/13/6
f 7/13/7 10/11/7 8/14/7
f 10/1/8 1/3/8 8/14/8
f 12/15/9 11/16/9 2/17/9
f 3/18/10 12/19/10 2/17/10
f 3/20/11 4/7/11 12/15/11
f 4/7/12 6/21/12 12/15/12
f 6/21/13 11/16/13 12/15/13
f 6/21/14 7/22/14 11/23/14
f 7/13/15 8/14/15 11/16/15
f 8/14/16 2/17/16 11/16/16
f 2/17/17 8/14/17 1/3/17
f 3/18/18 2/17/18 1/3/18
f 5/9/19 6/21/19 4/7/19
f 5/9/20 7/22/20 6/21/20

