﻿
o default
v -28.01873 31.02763 0.7226487
v -51.86306 41.92303 -0.8908976
v -48.02614 39.20386 3.860437
v -3.290128 27.68987 -0.3595745
v 17.28298 24.49121 1.739979
v 35.44372 21.05826 -0.7425807
v 35.44372 21.05826 -0.7425807
v 17.28298 24.49121 1.739979
v 38.97606 20.45217 1.909469
v 43.03666 20.20566 0.06649875
v 55.46045 26.15062 0.928219
v 60.42062 27.68378 -1.108477
v -49.76074 39.04811 -2.91254
v -51.86306 41.92303 -0.8908976
v -28.01873 31.02763 0.7226487
v -48.62519 41.8814 -3.211001
v -19.30668 35.98062 -2.181357
v -51.86306 41.92303 -0.8908976
v 43.03666 20.20566 0.06649875
v 60.42062 27.68378 -1.108477
v 57.68529 27.25131 -2.934272
v -56.24672 -12.55096 -0.0239823
v -52.18394 -21.18381 2.297164
v -50.97256 -25.2087 -0.5107029
v -56.24672 -12.55096 -0.0239823
v -50.97256 -25.2087 -0.5107029
v -53.35477 -11.46551 -3.262997
v -45.78307 26.68928 2.2534
v -45.82817 26.91767 0.6597703
v -29.53266 3.212758 2.108297
v -3.464384 -12.51738 -0.475506
v -2.762658 -10.47358 1.190408
v -2.001614 -8.997912 -0.7523248
v -3.445577 -12.04596 -2.165617
v -8.463744 -8.61046 -2.556361
v -3.464384 -12.51738 -0.475506
v 3.771554 -5.588753 0.7808726
v 1.975055 19.28335 -4.302
v -2.531988 19.35658 -0.8393524
v 1.975055 19.28335 -4.302
v 8.874804 -4.103366 -1.593838
v 11.61539 -3.239692 -0.7935605
v 16.02038 -46.91942 2.262575
v 12.93779 -37.5555 1.955435
v 8.938145 -39.51734 3.552866
v 16.02038 -46.91942 2.262575
v 12.45023 -46.80424 2.333179
v 10.3461 -51.13061 3.234257
v 12.63553 -14.80189 2.057796
v 12.29404 -17.30497 5.152357
v 11.19564 -13.17153 5.513595
v 3.095728 -1.081369 2.612163
v 10.38055 -27.31227 6.165285
v 7.216003 -32.06104 4.289619
v -2.531988 19.35658 -0.8393524
v 3.095728 -1.081369 2.612163
v 7.216003 -32.06104 4.289619
v 10.38055 -27.31227 6.165285
v 9.182828 -43.85462 6.338803
v 13.96706 -44.72164 8.044401
v 15.81179 -46.00104 7.796795
v 12.29404 -17.30497 5.152357
v 12.63553 -14.80189 2.057796
v 17.03875 -45.51529 4.014581
v 15.18107 -48.57573 3.818458
v 12.61138 -54.2726 4.609776
v 10.86349 -52.73805 6.954384
v 8.647412 -46.61436 5.070666
v 9.430676 -15.44533 5.630041
v 11.19564 -13.17153 5.513595
v 11.78213 -1.801081 1.279476
v 6.814919 -10.07192 4.264262
v 3.095728 -1.081369 2.612163
v 0.3163519 18.14513 1.675965
v -2.135284 17.28819 0.5395558
v 3.69927 20.44026 1.380336
v -2.531988 19.35658 -0.8393524
v 4.392776 22.35479 -1.855786
v 10.72 0.02032105 2.828587
v -65.85389 -30.04807 2.340214
v -65.07893 -31.38552 2.219539
v -66.78971 -30.33588 -0.2506432
v 38.63897 -26.66236 2.611762
v 28.98904 -24.41259 2.75162
v 63.20901 -27.73244 2.182685
v -29.76002 39.88748 0.7813076
v -48.02614 39.20386 3.860437
v -51.86306 41.92303 -0.8908976
v -18.62329 36.138 2.910725
v 3.060158 33.21061 -0.4188105
v 2.410004 32.15621 1.908953
v 32.2577 27.27171 -0.7203147
v 55.46045 26.15062 0.928219
v 60.42062 27.68378 -1.108477
v 17.28298 24.49121 1.739979
v 38.97606 20.45217 1.909469
v 43.03666 20.20566 0.06649875
v 35.44372 21.05826 -0.7425807
v -34.06764 37.06321 4.082019
v -25.9259 34.05178 3.59963
v -28.01873 31.02763 0.7226487
v -16.01976 33.22546 3.692005
v 2.993878 29.76408 3.241407
v -3.290128 27.68987 -0.3595745
v -18.62329 36.138 2.910725
v 2.410004 32.15621 1.908953
v 2.993878 29.76408 3.241407
v 17.28298 24.49121 1.739979
v -3.290128 27.68987 -0.3595745
v -49.76074 39.04811 -2.91254
v -48.62519 41.8814 -3.211001
v -51.86306 41.92303 -0.8908976
v -19.30668 35.98062 -2.181357
v -17.83346 33.16595 -2.865143
v -28.01873 31.02763 0.7226487
v -3.691317 30.57679 -3.840647
v -3.290128 27.68987 -0.3595745
v 14.16264 25.16808 -2.837978
v 35.44372 21.05826 -0.7425807
v 38.23265 20.82273 -2.421397
v 43.03666 20.20566 0.06649875
v 57.68529 27.25131 -2.934272
v 37.13407 22.24143 -3.459011
v 35.74675 25.49334 -2.899133
v 60.42062 27.68378 -1.108477
v 32.2577 27.27171 -0.7203147
v 9.125323 30.46027 -2.437059
v 3.060158 33.21061 -0.4188105
v -3.147303 32.65348 -3.636533
v -29.76002 39.88748 0.7813076
v -51.86306 41.92303 -0.8908976
v -49.16443 -4.130254 0.01593964
v -50.94376 -6.352792 2.525356
v -56.24672 -12.55096 -0.0239823
v -52.18394 -21.18381 2.297164
v -50.97256 -25.2087 -0.5107029
v -50.97256 -25.2087 -0.5107029
v -50.94376 -6.352792 2.525356
v -49.16443 -4.130254 0.01593964
v -50.02144 -6.683355 -2.394032
v -53.35477 -11.46551 -3.262997
v -56.24672 -12.55096 -0.0239823
v -29.46766 4.46487 -0.1401005
v -2.001614 -8.997912 -0.7523248
v -29.53266 3.212758 2.108297
v -45.82817 26.91767 0.6597703
v -36.80094 13.91559 -1.791001
v -46.73644 25.50345 -0.9591876
v -31.65371 2.63628 2.636766
v -45.78307 26.68928 2.2534
v -45.82817 26.91767 0.6597703
v -36.32599 3.191509 -1.062211
v -3.464384 -12.51738 -0.475506
v -31.18766 2.701117 -2.657491
v -35.81429 2.919838 -2.219887
v -31.65371 2.63628 2.636766
v -29.53266 3.212758 2.108297
v -2.001614 -8.997912 -0.7523248
v -2.762658 -10.47358 1.190408
v -3.464384 -12.51738 -0.475506
v -3.464384 -12.51738 -0.475506
v -2.001614 -8.997912 -0.7523248
v -3.445577 -12.04596 -2.165617
v -8.463744 -8.61046 -2.556361
v -31.18766 2.701117 -2.657491
v -3.464384 -12.51738 -0.475506
v -29.46766 4.46487 -0.1401005
v -36.80094 13.91559 -1.791001
v -36.32599 3.191509 -1.062211
v -35.81429 2.919838 -2.219887
v -45.82817 26.91767 0.6597703
v -46.73644 25.50345 -0.9591876
v 3.771554 -5.588753 0.7808726
v -2.531988 19.35658 -0.8393524
v 7.216003 -32.06104 4.289619
v 8.938145 -39.51734 3.552866
v 8.647412 -46.61436 5.070666
v 9.182828 -43.85462 6.338803
v 15.81179 -46.00104 7.796795
v 10.3461 -51.13061 3.234257
v 12.61138 -54.2726 4.609776
v 12.45023 -46.80424 2.333179
v 16.02038 -46.91942 2.262575
v 16.02038 -46.91942 2.262575
v 15.18107 -48.57573 3.818458
v 17.03875 -45.51529 4.014581
v 12.63553 -14.80189 2.057796
v 11.81882 -16.96888 -0.2389847
v 12.93779 -37.5555 1.955435
v 9.974607 -17.42952 -0.5347839
v 8.874804 -4.103366 -1.593838
v 1.975055 19.28335 -4.302
v 11.61539 -3.239692 -0.7935605
v 11.78213 -1.801081 1.279476
v 1.975055 19.28335 -4.302
v 4.392776 22.35479 -1.855786
v -2.531988 19.35658 -0.8393524
v -2.135284 17.28819 0.5395558
v 3.095728 -1.081369 2.612163
v -2.531988 19.35658 -0.8393524
v 0.3163519 18.14513 1.675965
v -37.99969 -27.84032 -0.4216762
v -65.85389 -30.04807 2.340214
v -66.78971 -30.33588 -0.2506432
v -25.08703 -29.72494 2.479602
v -20.44533 -27.35308 -0.398792
v -32.27556 -32.09332 1.922897
v -65.07893 -31.38552 2.219539
v -37.30272 -32.66472 -0.2556659
v -66.78971 -30.33588 -0.2506432
v -16.58198 -32.00935 -0.2520468
v -5.805345 -27.98051 1.905573
v 27.14077 -24.1602 -0.229149
v -2.131357 -29.16303 2.043991
v 11.72931 -30.46531 0.1768172
v 18.40738 -27.27962 2.586035
v 28.98904 -24.41259 2.75162
v 34.76391 -24.574 0.07423794
v 63.20901 -27.73244 2.182685
v 67.9775 -24.18822 0.7270607
v 67.32236 -24.84233 2.328718
v 71.42804 -29.18093 2.845316
v 72.46103 -31.73198 0.5999936
v 34.14464 -28.31213 2.126198
v 38.63897 -26.66236 2.611762
v 37.58529 -29.61416 0.06611207
v 52.39768 -29.95276 2.269496
v 71.42804 -29.18093 2.845316
v 67.32236 -24.84233 2.328718
v 67.9775 -24.18822 0.7270607
v 72.46103 -31.73198 0.5999936
v 68.93727 -25.85053 -2.178264
v 34.76391 -24.574 0.07423794
v 58.7111 -27.54136 -1.512437
v 28.80602 -23.72444 -2.014761
v 27.14077 -24.1602 -0.229149
v 46.29939 -29.68321 -1.470076
v 66.66907 -29.97587 -1.532894
v 72.46103 -31.73198 0.5999936
v 37.58529 -29.61416 0.06611207
v 30.83403 -27.69509 -2.409851
v 11.72931 -30.46531 0.1768172
v 27.53919 -26.0014 -2.07299
v 1.516276 -27.77817 -3.018699
v -20.44533 -27.35308 -0.398792
v 18.54332 -28.66356 -2.602703
v 7.042287 -28.81608 -2.881595
v -17.05952 -30.71759 -2.583221
v -16.58198 -32.00935 -0.2520468
v -28.11765 -29.35895 -2.678674
v -37.99969 -27.84032 -0.4216762
v -31.16817 -31.38568 -2.80338
v -37.30272 -32.66472 -0.2556659
v -33.66617 -31.3839 -2.79753
v -54.01202 -29.82987 -2.523899
v -66.78971 -30.33588 -0.2506432
v -65.13551 -31.45894 -2.260615
v 66.66907 -29.97587 -1.532894
v 72.46103 -31.73198 0.5999936
v 68.93727 -25.85053 -2.178264
v 58.7111 -27.54136 -1.512437

vn -0.07527003 -0.8238636 0.5617679
vn -0.7425205 0.5336545 -0.4048163
vn -0.1725845 -0.4380028 0.8822517
vn -0.1717153 -0.9851466 0
vn -0.1706972 -0.849447 0.4993018
vn -0.1511094 -0.9874228 0.04649896
vn -0.1511094 -0.9874228 0.04649896
vn -0.1706972 -0.849447 0.4993018
vn 0.08250021 -0.3718536 0.9246181
vn 0.3366346 -0.8667799 -0.3679263
vn 0.3750926 -0.6856227 0.6238808
vn 0.1073466 0.9905885 0.08491777
vn -0.741004 -0.1122155 -0.6620581
vn -0.7425205 0.5336545 -0.4048163
vn -0.07527003 -0.8238636 0.5617679
vn -0.2156282 0.7312422 -0.6471394
vn 0.01493814 0.1602369 -0.9869655
vn -0.7425205 0.5336545 -0.4048163
vn 0.3366346 -0.8667799 -0.3679263
vn 0.1073466 0.9905885 0.08491777
vn 0.5203667 -0.1180805 -0.8457396
vn -0.9134954 -0.4049802 -0.03895092
vn -0.517835 -0.3035044 0.7998325
vn 0.999453 0.029551 -0.01484339
vn -0.9134954 -0.4049802 -0.03895092
vn 0.999453 0.029551 -0.01484339
vn 0.01736856 0.01566296 -0.9997265
vn 0.03256137 0.007840744 0.9994389
vn -0.9930423 0.04169624 0.1101289
vn -0.001302113 -0.08524968 0.9963588
vn 0.8560178 -0.515099 0.04366416
vn 0.3566534 -0.5518605 0.7538224
vn 0.4241839 0.9050201 0.03172774
vn 0.2751293 -0.55678 -0.7837728
vn 0.01938671 0.08809412 -0.9959235
vn 0.8560178 -0.515099 0.04366416
vn -0.3754944 -0.120046 -0.9190174
vn -0.6526515 -0.2628538 -0.710601
vn -0.3574514 0.89474 0.2677103
vn -0.6526515 -0.2628538 -0.710601
vn 0.2642473 -0.02958462 -0.9640012
vn 0.6988553 0.2007459 -0.6865147
vn 0.6823866 0.007256233 -0.7309555
vn -0.3191037 -0.0835246 -0.944032
vn -0.2887008 -0.1594075 -0.9440557
vn 0.6823866 0.007256233 -0.7309555
vn -0.2857903 -0.1880777 -0.9396545
vn -0.7069454 -0.05871933 -0.7048264
vn 0.9912339 0.1317493 -0.009878297
vn 0.2471219 0.1241438 0.960999
vn -0.3361942 0.004713611 0.9417809
vn -0.6094393 -0.02260883 0.7925103
vn 0.003800923 0.07118855 0.9974557
vn -0.9894154 -0.144545 -0.01280462
vn -0.3574514 0.89474 0.2677103
vn -0.6094393 -0.02260883 0.7925103
vn -0.9894154 -0.144545 -0.01280462
vn 0.003800923 0.07118855 0.9974557
vn -0.6715331 -0.08139317 0.7364907
vn -0.3319081 0.05269653 0.9418387
vn 0.4510877 -0.3905699 0.8024805
vn 0.2471219 0.1241438 0.960999
vn 0.9912339 0.1317493 -0.009878297
vn 0.9702565 -0.09447662 -0.2228821
vn 0.8951367 -0.4408008 0.06651996
vn -0.6975902 -0.688809 -0.1972564
vn -0.4934278 0.06331186 0.8674794
vn -0.9952961 0.08851628 -0.03937827
vn -0.1361546 0.04899741 0.9894753
vn -0.3361942 0.004713611 0.9417809
vn 0.9728407 0.2244914 -0.05643334
vn -0.3344584 0.02858661 0.9419768
vn -0.6094393 -0.02260883 0.7925103
vn -0.4386204 0.4218106 0.7935288
vn -0.6051509 -0.05996764 0.7938491
vn 0.3368859 0.2070796 0.9184911
vn -0.3574514 0.89474 0.2677103
vn 0.9790719 0.2033026 -0.0092868
vn 0.7287807 0.2751722 0.6270239
vn 0 0.7682018 0.6402077
vn -0.2633443 -0.6477312 0.7149085
vn 0.08023895 -0.9966998 0.01229945
vn 0.03206022 0.1569279 0.9870896
vn -0.07804988 0.02080475 0.9967324
vn -0.01521232 -0.1809282 0.9833786
vn 0.2402543 0.970619 -0.01329212
vn -0.1725845 -0.4380028 0.8822517
vn -0.7425205 0.5336545 -0.4048163
vn 0.1617997 0.7533376 0.6374192
vn 0.2330353 0.9724672 -0.001496365
vn 0.03802498 0.2534032 0.9666131
vn 0.1446739 0.9887803 -0.03719145
vn 0.3750926 -0.6856227 0.6238808
vn 0.1073466 0.9905885 0.08491777
vn -0.1706972 -0.849447 0.4993018
vn 0.08250021 -0.3718536 0.9246181
vn 0.3366346 -0.8667799 -0.3679263
vn -0.1511094 -0.9874228 0.04649896
vn -0.03276797 -0.1729264 0.9843895
vn -0.007358307 -0.194908 0.980794
vn -0.07527003 -0.8238636 0.5617679
vn 0.05276526 0.167026 0.9845396
vn 0.1532557 0.1005198 0.9830608
vn -0.1717153 -0.9851466 0
vn 0.1617997 0.7533376 0.6374192
vn 0.03802498 0.2534032 0.9666131
vn 0.1532557 0.1005198 0.9830608
vn -0.1706972 -0.849447 0.4993018
vn -0.1717153 -0.9851466 0
vn -0.741004 -0.1122155 -0.6620581
vn -0.2156282 0.7312422 -0.6471394
vn -0.7425205 0.5336545 -0.4048163
vn 0.01493814 0.1602369 -0.9869655
vn -0.1201944 -0.4625633 -0.8784012
vn -0.07527003 -0.8238636 0.5617679
vn -0.09498867 -0.5557278 -0.82592
vn -0.1717153 -0.9851466 0
vn 0.1222608 0.3218587 -0.9388607
vn -0.1511094 -0.9874228 0.04649896
vn -0.06616268 -0.1808961 -0.9812742
vn 0.3366346 -0.8667799 -0.3679263
vn 0.5203667 -0.1180805 -0.8457396
vn 0.002576239 -0.3633628 -0.9316442
vn -0.04079519 0.221161 -0.9743837
vn 0.1073466 0.9905885 0.08491777
vn 0.1446739 0.9887803 -0.03719145
vn 0.1700572 0.1398349 -0.9754623
vn 0.2330353 0.9724672 -0.001496365
vn -0.1138835 0.08310261 -0.9900123
vn 0.2402543 0.970619 -0.01329212
vn -0.7425205 0.5336545 -0.4048163
vn 0.551395 0.8231055 -0.1358708
vn 0.6982017 -0.02897334 0.7153146
vn -0.9134954 -0.4049802 -0.03895092
vn -0.517835 -0.3035044 0.7998325
vn 0.999453 0.029551 -0.01484339
vn 0.999453 0.029551 -0.01484339
vn 0.6982017 -0.02897334 0.7153146
vn 0.551395 0.8231055 -0.1358708
vn 0.5837229 0.3663433 -0.7246104
vn 0.01736856 0.01566296 -0.9997265
vn -0.9134954 -0.4049802 -0.03895092
vn 0.5159714 0.8562383 -0.02508878
vn 0.4241839 0.9050201 0.03172774
vn -0.001302113 -0.08524968 0.9963588
vn -0.9930423 0.04169624 0.1101289
vn 0.08824559 0.09242485 -0.9918016
vn -0.3206713 -0.1261062 -0.9387583
vn -0.5737377 -0.4424051 0.6892769
vn 0.03256137 0.007840744 0.9994389
vn -0.9930423 0.04169624 0.1101289
vn -0.4975352 0.8575444 -0.1306765
vn 0.8560178 -0.515099 0.04366416
vn -0.2368772 -0.6455844 -0.7260234
vn -0.4138108 -0.5803155 -0.7014232
vn -0.5737377 -0.4424051 0.6892769
vn -0.001302113 -0.08524968 0.9963588
vn 0.4241839 0.9050201 0.03172774
vn 0.3566534 -0.5518605 0.7538224
vn 0.8560178 -0.515099 0.04366416
vn 0.8560178 -0.515099 0.04366416
vn 0.4241839 0.9050201 0.03172774
vn 0.2751293 -0.55678 -0.7837728
vn 0.01938671 0.08809412 -0.9959235
vn -0.2368772 -0.6455844 -0.7260234
vn 0.8560178 -0.515099 0.04366416
vn 0.5159714 0.8562383 -0.02508878
vn 0.08824559 0.09242485 -0.9918016
vn -0.4975352 0.8575444 -0.1306765
vn -0.4138108 -0.5803155 -0.7014232
vn -0.9930423 0.04169624 0.1101289
vn -0.3206713 -0.1261062 -0.9387583
vn -0.3754944 -0.120046 -0.9190174
vn -0.3574514 0.89474 0.2677103
vn -0.9894154 -0.144545 -0.01280462
vn -0.2887008 -0.1594075 -0.9440557
vn -0.9952961 0.08851628 -0.03937827
vn -0.6715331 -0.08139317 0.7364907
vn 0.4510877 -0.3905699 0.8024805
vn -0.7069454 -0.05871933 -0.7048264
vn -0.6975902 -0.688809 -0.1972564
vn -0.2857903 -0.1880777 -0.9396545
vn 0.6823866 0.007256233 -0.7309555
vn 0.6823866 0.007256233 -0.7309555
vn 0.8951367 -0.4408008 0.06651996
vn 0.9702565 -0.09447662 -0.2228821
vn 0.9912339 0.1317493 -0.009878297
vn 0.7324093 -0.04069772 -0.6796471
vn -0.3191037 -0.0835246 -0.944032
vn -0.1637288 -0.1248171 -0.9785774
vn 0.2642473 -0.02958462 -0.9640012
vn -0.6526515 -0.2628538 -0.710601
vn 0.6988553 0.2007459 -0.6865147
vn 0.9728407 0.2244914 -0.05643334
vn -0.6526515 -0.2628538 -0.710601
vn 0.9790719 0.2033026 -0.0092868
vn -0.3574514 0.89474 0.2677103
vn -0.6051509 -0.05996764 0.7938491
vn -0.6094393 -0.02260883 0.7925103
vn -0.3574514 0.89474 0.2677103
vn -0.4386204 0.4218106 0.7935288
vn -0.01520709 0.9996756 0.02042705
vn 0 0.7682018 0.6402077
vn 0.08023895 -0.9966998 0.01229945
vn -0.0402317 0.07830736 0.9961171
vn -0.05783561 0.9979168 -0.02858591
vn -0.004121813 -0.219177 0.9756764
vn -0.2633443 -0.6477312 0.7149085
vn -0.02073357 -0.9997843 -0.001198409
vn 0.08023895 -0.9966998 0.01229945
vn -0.01064231 -0.99963 -0.02503392
vn -0.04047627 0.7845207 0.6187802
vn -0.05043362 0.9986217 -0.01452555
vn 0.03416687 -0.7277539 0.6849868
vn 0.08400183 -0.9964274 -0.008725706
vn 0.03942256 -0.6468889 0.7615646
vn -0.07804988 0.02080475 0.9967324
vn 0.2765002 0.9609668 -0.009515152
vn -0.01521232 -0.1809282 0.9833786
vn -0.3444663 0.9384146 -0.02684945
vn 0.3202251 0.6957609 0.6429407
vn -0.04098593 -0.3077377 0.950588
vn -0.05100188 -0.9347966 0.3515026
vn 0.03325328 -0.3836274 0.922889
vn 0.03206022 0.1569279 0.9870896
vn -0.08994796 -0.9959114 -0.008365409
vn -0.0127128 -0.5899822 0.8073161
vn -0.04098593 -0.3077377 0.950588
vn 0.3202251 0.6957609 0.6429407
vn -0.3444663 0.9384146 -0.02684945
vn -0.05100188 -0.9347966 0.3515026
vn -0.2715498 0.3058868 -0.9125206
vn 0.2765002 0.9609668 -0.009515152
vn 0.04419279 0.5179164 -0.854289
vn 0.2774979 0.6699103 -0.6886328
vn -0.05043362 0.9986217 -0.01452555
vn -0.02136085 -0.7233891 -0.69011
vn -0.007218117 0.244404 -0.9696466
vn -0.05100188 -0.9347966 0.3515026
vn -0.08994796 -0.9959114 -0.008365409
vn -0.04257285 0.08044164 -0.9958497
vn 0.08400183 -0.9964274 -0.008725706
vn -0.3533355 0.4390146 -0.8260872
vn -0.0177434 0.7844083 -0.619991
vn -0.05783561 0.9979168 -0.02858591
vn 0.04438283 -0.6984288 -0.7143021
vn -0.009560606 0.05389671 -0.9985007
vn 0.02558494 -0.7421312 -0.6697662
vn -0.01064231 -0.99963 -0.02503392
vn 0 0.07424656 -0.9972399
vn -0.01520709 0.9996756 0.02042705
vn 0.01930578 -0.2562005 -0.9664308
vn -0.02073357 -0.9997843 -0.001198409
vn -0.02664924 -0.2885768 -0.9570859
vn -0.01026157 0.7845876 -0.6199331
vn 0.08023895 -0.9966998 0.01229945
vn 0.00229078 -0.7391767 -0.6735077
vn -0.007218117 0.244404 -0.9696466
vn -0.05100188 -0.9347966 0.3515026
vn -0.2715498 0.3058868 -0.9125206
vn 0.04419279 0.5179164 -0.854289

vt 0.8796874 0.4965062
vt 0.9654236 0.484632
vt 0.9463401 0.4957294
vt 0.7839733 0.4912494
vt 0.8051154 0.4908963
vt 0.7699879 0.4902447
vt 0.7699879 0.4902447
vt 0.8051154 0.4908963
vt 0.719148 0.49898
vt 0.7162902 0.5010966
vt 0.7082685 0.4718461
vt 0.7070646 0.4562003
vt 0.9655132 0.4947917
vt 0.9654236 0.484632
vt 0.8796874 0.4965062
vt 0.9633036 0.4817516
vt 0.8899913 0.487188
vt 0.9654236 0.484632
vt 0.7162902 0.5010966
vt 0.7070646 0.4562003
vt 0.6871604 0.4594615
vt 0.6401238 0.4450742
vt 0.6462507 0.4449895
vt 0.652711 0.456454
vt 0.6401238 0.4450742
vt 0.652711 0.456454
vt 0.650297 0.4502636
vt 0.07893907 0.4294734
vt 0.09258936 0.4560597
vt 0.05051725 0.3898008
vt 0.04122099 0.3187174
vt 0.04045404 0.3207498
vt 0.05389446 0.3690683
vt 0.0397192 0.3210167
vt 0.04723692 0.3618816
vt 0.04122099 0.3187174
vt 0.8518601 0.3441387
vt 0.9328203 0.3656767
vt 0.9412622 0.3564416
vt 0.9328203 0.3656767
vt 0.9095166 0.345353
vt 0.8876898 0.3357012
vt 0.8125808 0.3325191
vt 0.7966844 0.343411
vt 0.8307294 0.3409637
vt 0.8125808 0.3325191
vt 0.7711049 0.3403531
vt 0.7689211 0.3460958
vt 0.8105423 0.3308889
vt 0.8524479 0.3381771
vt 0.8886692 0.3474106
vt 0.8329344 0.3511908
vt 0.8061351 0.3374085
vt 0.85313 0.3539037
vt 0.9412622 0.3564416
vt 0.8329344 0.3511908
vt 0.85313 0.3539037
vt 0.8061351 0.3374085
vt 0.7744665 0.3499083
vt 0.7804364 0.3422871
vt 0.76674 0.3352433
vt 0.8524479 0.3381771
vt 0.8105423 0.3308889
vt 0.7730484 0.3281583
vt 0.7659485 0.3342702
vt 0.7560701 0.348289
vt 0.7671571 0.3458742
vt 0.7803307 0.3485867
vt 0.8466754 0.3419853
vt 0.8886692 0.3474106
vt 0.8831349 0.33243
vt 0.8676772 0.3458
vt 0.8329344 0.3511908
vt 0.9366325 0.3629324
vt 0.9125814 0.3609388
vt 0.909054 0.345134
vt 0.9412622 0.3564416
vt 0.9300824 0.3456304
vt 0.8842536 0.3344029
vt 0.6194575 0.658455
vt 0.5773858 0.6470031
vt 0.5831934 0.6458228
vt 0.8348264 0.675112
vt 0.8026367 0.6716797
vt 0.8979459 0.6698685
vt 0.9276622 0.4808544
vt 0.9463401 0.4957294
vt 0.9654236 0.484632
vt 0.8716664 0.4809529
vt 0.7973456 0.4769326
vt 0.8534696 0.4847972
vt 0.7736745 0.4755951
vt 0.7082685 0.4718461
vt 0.7070646 0.4562003
vt 0.8051154 0.4908963
vt 0.719148 0.49898
vt 0.7162902 0.5010966
vt 0.7699879 0.4902447
vt 0.9158751 0.4900077
vt 0.8863837 0.4903156
vt 0.8796874 0.4965062
vt 0.8781088 0.4868239
vt 0.8427569 0.4846691
vt 0.7839733 0.4912494
vt 0.8716664 0.4809529
vt 0.8534696 0.4847972
vt 0.8427569 0.4846691
vt 0.8051154 0.4908963
vt 0.7839733 0.4912494
vt 0.9655132 0.4947917
vt 0.9633036 0.4817516
vt 0.9654236 0.484632
vt 0.8899913 0.487188
vt 0.8782293 0.4914308
vt 0.8796874 0.4965062
vt 0.8459065 0.4890333
vt 0.7839733 0.4912494
vt 0.7851325 0.4838254
vt 0.7699879 0.4902447
vt 0.7279319 0.4937218
vt 0.7162902 0.5010966
vt 0.6871604 0.4594615
vt 0.7418975 0.4830642
vt 0.7444735 0.4785366
vt 0.7070646 0.4562003
vt 0.7736745 0.4755951
vt 0.8170149 0.4841146
vt 0.7973456 0.4769326
vt 0.8542958 0.4860569
vt 0.9276622 0.4808544
vt 0.9654236 0.484632
vt 0.6415581 0.4909861
vt 0.6488585 0.4747049
vt 0.6401238 0.4450742
vt 0.6462507 0.4449895
vt 0.652711 0.456454
vt 0.652711 0.456454
vt 0.6488585 0.4747049
vt 0.6415581 0.4909861
vt 0.6443425 0.4808705
vt 0.650297 0.4502636
vt 0.6401238 0.4450742
vt 0.05581922 0.3888258
vt 0.05389446 0.3690683
vt 0.05051725 0.3898008
vt 0.09258936 0.4560597
vt 0.07925028 0.4307866
vt 0.08635356 0.443608
vt 0.08408242 0.4409855
vt 0.07893907 0.4294734
vt 0.09258936 0.4560597
vt 0.05286063 0.4132774
vt 0.04122099 0.3187174
vt 0.04447764 0.374513
vt 0.0458077 0.4044073
vt 0.08408242 0.4409855
vt 0.05051725 0.3898008
vt 0.05389446 0.3690683
vt 0.04045404 0.3207498
vt 0.04122099 0.3187174
vt 0.04122099 0.3187174
vt 0.05389446 0.3690683
vt 0.0397192 0.3210167
vt 0.04723692 0.3618816
vt 0.04447764 0.374513
vt 0.04122099 0.3187174
vt 0.05581922 0.3888258
vt 0.07925028 0.4307866
vt 0.05286063 0.4132774
vt 0.0458077 0.4044073
vt 0.09258936 0.4560597
vt 0.08635356 0.443608
vt 0.8518601 0.3441387
vt 0.9412622 0.3564416
vt 0.85313 0.3539037
vt 0.8307294 0.3409637
vt 0.7803307 0.3485867
vt 0.7744665 0.3499083
vt 0.76674 0.3352433
vt 0.7689211 0.3460958
vt 0.7560701 0.348289
vt 0.7711049 0.3403531
vt 0.8125808 0.3325191
vt 0.8125808 0.3325191
vt 0.7659485 0.3342702
vt 0.7730484 0.3281583
vt 0.8105423 0.3308889
vt 0.8567527 0.3359336
vt 0.7966844 0.343411
vt 0.845063 0.3413188
vt 0.9095166 0.345353
vt 0.9328203 0.3656767
vt 0.8876898 0.3357012
vt 0.8831349 0.33243
vt 0.9328203 0.3656767
vt 0.9300824 0.3456304
vt 0.9412622 0.3564416
vt 0.9125814 0.3609388
vt 0.8329344 0.3511908
vt 0.9412622 0.3564416
vt 0.9366325 0.3629324
vt 0.617425 0.659613
vt 0.6194575 0.658455
vt 0.5831934 0.6458228
vt 0.6946386 0.6603161
vt 0.7163247 0.6684563
vt 0.6592494 0.6536602
vt 0.5773858 0.6470031
vt 0.6534666 0.6492448
vt 0.5831934 0.6458228
vt 0.6931071 0.6537746
vt 0.7414528 0.6699337
vt 0.7397796 0.6711558
vt 0.7352911 0.6602414
vt 0.7822971 0.6638442
vt 0.7704827 0.6639374
vt 0.8026367 0.6716797
vt 0.8190518 0.6814693
vt 0.8979459 0.6698685
vt 0.8961018 0.678827
vt 0.9137415 0.68279
vt 0.9072012 0.672727
vt 0.9074781 0.6658232
vt 0.8099663 0.6703236
vt 0.8348264 0.675112
vt 0.8476794 0.6657447
vt 0.8882915 0.6678702
vt 0.9072012 0.672727
vt 0.9137415 0.68279
vt 0.8961018 0.678827
vt 0.9074781 0.6658232
vt 0.897112 0.6772285
vt 0.8190518 0.6814693
vt 0.8758574 0.6769108
vt 0.8163378 0.6805826
vt 0.7397796 0.6711558
vt 0.8585075 0.6683939
vt 0.9047956 0.6793979
vt 0.9074781 0.6658232
vt 0.8476794 0.6657447
vt 0.8128006 0.6767931
vt 0.7822971 0.6638442
vt 0.8061282 0.6775344
vt 0.7659311 0.6723554
vt 0.7163247 0.6684563
vt 0.7865309 0.6664456
vt 0.7588694 0.6672194
vt 0.6896726 0.6551275
vt 0.6931071 0.6537746
vt 0.7037308 0.6615223
vt 0.617425 0.659613
vt 0.6744235 0.6567966
vt 0.6534666 0.6492448
vt 0.6390114 0.6538082
vt 0.620007 0.6587753
vt 0.5831934 0.6458228
vt 0.6084778 0.6487951
vt 0.9047956 0.6793979
vt 0.9074781 0.6658232
vt 0.897112 0.6772285
vt 0.8758574 0.6769108

f 3/3/3 2/2/2 1/1/1
f 6/6/6 5/5/5 4/4/4
f 9/9/9 8/8/8 7/7/7
f 12/12/12 11/11/11 10/10/10
f 15/15/15 14/14/14 13/13/13
f 18/18/18 17/17/17 16/16/16
f 21/21/21 20/20/20 19/19/19
f 24/24/24 23/23/23 22/22/22
f 27/27/27 26/26/26 25/25/25
f 30/30/30 29/29/29 28/28/28
f 33/33/33 32/32/32 31/31/31
f 36/36/36 35/35/35 34/34/34
f 39/39/39 38/38/38 37/37/37
f 42/42/42 41/41/41 40/40/40
f 45/45/45 44/44/44 43/43/43
f 48/48/48 47/47/47 46/46/46
f 51/51/51 50/50/50 49/49/49
f 54/54/54 53/53/53 52/52/52
f 57/57/57 56/56/56 55/55/55
f 57/57/57 59/59/59 58/58/58
f 58/58/58 59/59/59 60/60/60
f 59/59/59 61/61/61 60/60/60
f 58/58/58 60/60/60 61/61/61
f 58/58/58 61/61/61 62/62/62
f 62/62/62 61/61/61 63/63/63
f 61/61/61 64/64/64 63/63/63
f 64/64/64 61/61/61 65/65/65
f 61/61/61 66/66/66 65/65/65
f 61/61/61 67/67/67 66/66/66
f 67/67/67 68/68/68 66/66/66
f 68/68/68 67/67/67 61/61/61
f 69/69/69 58/58/58 62/62/62
f 70/70/70 69/69/69 62/62/62
f 71/71/71 70/70/70 63/63/63
f 72/72/72 58/58/58 69/69/69
f 72/72/72 69/69/69 70/70/70
f 73/73/73 58/58/58 72/72/72
f 72/72/72 70/70/70 73/73/73
f 73/73/73 70/70/70 74/74/74
f 74/74/74 75/75/75 73/73/73
f 76/76/76 74/74/74 70/70/70
f 76/76/76 77/77/77 74/74/74
f 78/78/78 77/77/77 76/76/76
f 78/78/78 76/76/76 71/71/71
f 70/70/70 71/71/71 79/79/79
f 76/76/76 79/79/79 71/71/71
f 79/79/79 76/76/76 70/70/70
f 82/82/82 81/81/81 80/80/80
f 85/85/85 84/84/84 83/83/83
f 88/88/88 87/87/87 86/86/86
f 87/87/87 89/89/89 86/86/86
f 90/90/90 86/86/86 89/89/89
f 89/89/89 91/91/91 90/90/90
f 92/92/92 90/90/90 91/91/91
f 92/92/92 91/91/91 93/93/93
f 92/92/92 93/93/93 94/94/94
f 95/95/95 93/93/93 91/91/91
f 96/96/96 93/93/93 95/95/95
f 97/97/97 93/93/93 96/96/96
f 98/98/98 97/97/97 96/96/96
f 99/99/99 89/89/89 87/87/87
f 87/87/87 100/100/100 99/99/99
f 99/99/99 100/100/100 89/89/89
f 87/87/87 101/101/101 100/100/100
f 102/102/102 89/89/89 100/100/100
f 101/101/101 102/102/102 100/100/100
f 102/102/102 103/103/103 89/89/89
f 101/101/101 103/103/103 102/102/102
f 103/103/103 101/101/101 104/104/104
f 107/107/107 106/106/106 105/105/105
f 108/108/108 106/106/106 107/107/107
f 108/108/108 107/107/107 109/109/109
f 112/112/112 111/111/111 110/110/110
f 110/110/110 111/111/111 113/113/113
f 113/113/113 114/114/114 110/110/110
f 115/115/115 110/110/110 114/114/114
f 116/116/116 115/115/115 114/114/114
f 114/114/114 113/113/113 116/116/116
f 117/117/117 115/115/115 116/116/116
f 117/117/117 116/116/116 118/118/118
f 119/119/119 117/117/117 118/118/118
f 119/119/119 118/118/118 120/120/120
f 121/121/121 119/119/119 120/120/120
f 121/121/121 120/120/120 122/122/122
f 120/120/120 123/123/123 122/122/122
f 120/120/120 118/118/118 123/123/123
f 122/122/122 123/123/123 124/124/124
f 123/123/123 118/118/118 124/124/124
f 122/122/122 124/124/124 125/125/125
f 125/125/125 124/124/124 126/126/126
f 124/124/124 118/118/118 127/127/127
f 127/127/127 126/126/126 124/124/124
f 118/118/118 116/116/116 127/127/127
f 128/128/128 126/126/126 127/127/127
f 129/129/129 127/127/127 116/116/116
f 127/127/127 129/129/129 128/128/128
f 113/113/113 129/129/129 116/116/116
f 128/128/128 129/129/129 113/113/113
f 130/130/130 128/128/128 113/113/113
f 131/131/131 130/130/130 113/113/113
f 134/134/134 133/133/133 132/132/132
f 135/135/135 133/133/133 134/134/134
f 136/136/136 133/133/133 135/135/135
f 139/139/139 138/138/138 137/137/137
f 139/139/139 137/137/137 140/140/140
f 141/141/141 140/140/140 137/137/137
f 139/139/139 140/140/140 141/141/141
f 142/142/142 139/139/139 141/141/141
f 145/145/145 144/144/144 143/143/143
f 145/145/145 143/143/143 146/146/146
f 143/143/143 147/147/147 146/146/146
f 146/146/146 147/147/147 148/148/148
f 150/150/150 149/149/149 145/145/145
f 151/151/151 149/149/149 150/150/150
f 152/152/152 149/149/149 151/151/151
f 153/153/153 149/149/149 152/152/152
f 153/153/153 152/152/152 154/154/154
f 152/152/152 155/155/155 154/154/154
f 158/158/158 157/157/157 156/156/156
f 156/156/156 159/159/159 158/158/158
f 160/160/160 159/159/159 156/156/156
f 163/163/163 162/162/162 161/161/161
f 163/163/163 164/164/164 162/162/162
f 165/165/165 162/162/162 164/164/164
f 166/166/166 165/165/165 164/164/164
f 167/167/167 162/162/162 165/165/165
f 167/167/167 165/165/165 168/168/168
f 165/165/165 169/169/169 168/168/168
f 170/170/170 169/169/169 165/165/165
f 168/168/168 169/169/169 171/171/171
f 168/168/168 171/171/171 172/172/172
f 175/175/175 174/174/174 173/173/173
f 176/176/176 175/175/175 173/173/173
f 175/175/175 176/176/176 177/177/177
f 175/175/175 177/177/177 178/178/178
f 178/178/178 177/177/177 179/179/179
f 177/177/177 176/176/176 180/180/180
f 180/180/180 181/181/181 177/177/177
f 180/180/180 176/176/176 182/182/182
f 176/176/176 183/183/183 182/182/182
f 181/181/181 180/180/180 184/184/184
f 185/185/185 181/181/181 184/184/184
f 186/186/186 185/185/185 184/184/184
f 186/186/186 184/184/184 187/187/187
f 187/187/187 184/184/184 188/188/188
f 188/188/188 184/184/184 189/189/189
f 189/189/189 176/176/176 188/188/188
f 173/173/173 190/190/190 176/176/176
f 176/176/176 190/190/190 188/188/188
f 173/173/173 188/188/188 190/190/190
f 173/173/173 191/191/191 188/188/188
f 191/191/191 173/173/173 192/192/192
f 193/193/193 188/188/188 191/191/191
f 187/187/187 188/188/188 193/193/193
f 194/194/194 187/187/187 193/193/193
f 193/193/193 195/195/195 194/194/194
f 196/196/196 194/194/194 195/195/195
f 195/195/195 197/197/197 196/196/196
f 200/200/200 199/199/199 198/198/198
f 200/200/200 198/198/198 201/201/201
f 204/204/204 203/203/203 202/202/202
f 203/203/203 205/205/205 202/202/202
f 206/206/206 202/202/202 205/205/205
f 207/207/207 205/205/205 203/203/203
f 203/203/203 208/208/208 207/207/207
f 207/207/207 208/208/208 209/209/209
f 208/208/208 210/210/210 209/209/209
f 207/207/207 209/209/209 211/211/211
f 211/211/211 205/205/205 207/207/207
f 205/205/205 212/212/212 206/206/206
f 206/206/206 212/212/212 213/213/213
f 214/214/214 205/205/205 211/211/211
f 212/212/212 205/205/205 214/214/214
f 215/215/215 214/214/214 211/211/211
f 216/216/216 212/212/212 214/214/214
f 212/212/212 216/216/216 213/213/213
f 216/216/216 214/214/214 215/215/215
f 216/216/216 217/217/217 213/213/213
f 218/218/218 213/213/213 217/217/217
f 217/217/217 219/219/219 218/218/218
f 219/219/219 220/220/220 218/218/218
f 219/219/219 221/221/221 220/220/220
f 222/222/222 221/221/221 219/219/219
f 219/219/219 223/223/223 222/222/222
f 224/224/224 216/216/216 215/215/215
f 216/216/216 224/224/224 217/217/217
f 225/225/225 217/217/217 224/224/224
f 219/219/219 225/225/225 224/224/224
f 226/226/226 224/224/224 215/215/215
f 223/223/223 227/227/227 226/226/226
f 219/219/219 227/227/227 223/223/223
f 227/227/227 224/224/224 226/226/226
f 219/219/219 224/224/224 227/227/227
f 230/230/230 229/229/229 228/228/228
f 230/230/230 228/228/228 231/231/231
f 232/232/232 230/230/230 231/231/231
f 233/233/233 230/230/230 232/232/232
f 232/232/232 234/234/234 233/233/233
f 233/233/233 234/234/234 235/235/235
f 235/235/235 236/236/236 233/233/233
f 235/235/235 234/234/234 237/237/237
f 234/234/234 238/238/238 237/237/237
f 238/238/238 239/239/239 237/237/237
f 239/239/239 240/240/240 237/237/237
f 237/237/237 240/240/240 241/241/241
f 237/237/237 241/241/241 235/235/235
f 240/240/240 242/242/242 241/241/241
f 235/235/235 243/243/243 236/236/236
f 235/235/235 241/241/241 243/243/243
f 244/244/244 236/236/236 243/243/243
f 245/245/245 236/236/236 244/244/244
f 241/241/241 246/246/246 243/243/243
f 242/242/242 246/246/246 241/241/241
f 244/244/244 243/243/243 246/246/246
f 242/242/242 247/247/247 246/246/246
f 244/244/244 246/246/246 247/247/247
f 248/248/248 247/247/247 242/242/242
f 247/247/247 248/248/248 244/244/244
f 242/242/242 249/249/249 248/248/248
f 245/245/245 244/244/244 250/250/250
f 248/248/248 250/250/250 244/244/244
f 251/251/251 245/245/245 250/250/250
f 248/248/248 249/249/249 252/252/252
f 250/250/250 248/248/248 252/252/252
f 253/253/253 252/252/252 249/249/249
f 254/254/254 250/250/250 252/252/252
f 250/250/250 254/254/254 251/251/251
f 254/254/254 252/252/252 253/253/253
f 255/255/255 251/251/251 254/254/254
f 256/256/256 251/251/251 255/255/255
f 257/257/257 254/254/254 253/253/253
f 255/255/255 254/254/254 257/257/257
f 253/253/253 256/256/256 257/257/257
f 257/257/257 256/256/256 255/255/255
f 260/260/260 259/259/259 258/258/258
f 258/258/258 261/261/261 260/260/260
