﻿
o default
v -6.748367 -15.2844 -1.534521
v 7.334949 -30.32489 -1.71053
v -6.791864 -14.12754 -0.5314173
v -6.748367 -15.2844 -1.534521
v -6.791864 -14.12754 -0.5314173
v 7.334949 -30.32489 -1.71053
v 63.02288 -14.09865 0.7226526
v 61.29497 -40.25751 -0.8908828
v 62.47614 -35.70552 3.860438
v 57.37107 10.2055 -0.359576
v 53.06334 30.57526 1.739981
v 49.83046 48.77268 -0.7425787
v 49.83046 48.77268 -0.7425787
v 53.06334 30.57526 1.739981
v 49.14402 52.2903 1.909468
v 47.93399 56.17424 0.06649712
v 37.96833 65.68098 0.9282234
v 34.77525 69.7747 -1.108479
v 63.2371 -37.27205 -2.912541
v 61.29497 -40.25751 -0.8908828
v 63.02288 -14.09865 0.7226526
v 60.18525 -37.21545 -3.210999
v 55.30146 -7.710541 -2.181354
v 61.29497 -40.25751 -0.8908828
v 47.93399 56.17424 0.06649712
v 34.77525 69.7747 -1.108479
v 36.14995 67.37067 -2.934271
v -60.01862 -0.008553581 -2.595433
v -63.07398 -1.091527 -0.1787287
v -59.82587 -15.48665 -2.964264
v -59.82587 -15.48665 -2.964264
v -38.6325 -40.6225 -1.595258
v -56.35239 -18.34196 -0.07629561
v -68.37898 -16.07811 -1.99803
v -66.92358 -15.81161 0.0525342
v -42.44008 -43.05775 -0.7919236
v -45.34392 56.76308 -1.058238
v -53.05644 30.08622 1.333847
v -45.90281 55.40994 0.7779318
v -45.34392 56.76308 -1.058238
v -45.90281 55.40994 0.7779318
v -53.05644 30.08622 1.333847
v -58.76906 11.27222 0.9547485
v -58.50173 6.107765 -0.3459113
v -59.3506 -1.011312 1.897175
v -66.92358 -15.81161 0.0525342
v -67.19974 -16.43272 1.805178
v -61.06461 -18.05695 3.383011
v 12.76766 -16.03122 -2.654869
v 11.96291 -16.55562 -1.811304
v 23.5497 2.481161 -1.307938
v 11.96291 -16.55562 -1.811304
v 12.76766 -16.03122 -2.654869
v 23.5497 2.481161 -1.307938
v 10.82781 50.862 -2.423127
v 10.97113 52.50465 -1.163591
v 7.890562 52.20916 -0.1768478
v 12.30475 -16.10351 0.4876922
v 11.96291 -16.55562 -1.811304
v 17.73336 -4.581739 0.8341877
v 39.23832 -29.05436 1.710463
v 32.54963 -44.95909 1.31304
v 36.15624 -39.71613 0.3071618
v 32.54963 -44.95909 1.31304
v 39.23832 -29.05436 1.710463
v 36.15624 -39.71613 0.3071618
v 46.43318 -56.61307 0.4860304
v 47.22188 -56.29783 1.530375
v 61.24825 -52.7131 0.8176588
v 46.43318 -56.61307 0.4860304
v 61.24825 -52.7131 0.8176588
v 47.22188 -56.29783 1.530375
v 46.43318 -56.61307 0.4860304
v 33.77286 -58.12251 0.4478146
v 47.22188 -56.29783 1.530375
v 33.77286 -58.12251 0.4478146
v 46.43318 -56.61307 0.4860304
v 47.22188 -56.29783 1.530375
v -67.87457 -61.82652 0.05855355
v -74.91912 -60.18302 -1.189751
v -72.38506 -60.95296 0.5929788
v -73.97376 -60.43317 -1.772301
v -74.91912 -60.18302 -1.189751
v -67.87457 -61.82652 0.05855355
v 33.0539 -42.68458 -1.614357
v 39.87914 -34.0504 -1.611575
v 36.15624 -39.71613 0.3071618
v -5.512063 40.76004 -0.8213117
v -7.096266 37.92874 2.636769
v -36.22152 51.1949 -0.4755077
v 8.585015 14.85747 2.2534
v 8.130867 13.80128 0.8528718
v -9.17478 37.21396 2.108297
v -36.22152 51.1949 -0.4755077
v -36.78725 49.10934 1.190409
v -37.44956 47.58681 -0.7523238
v -36.20927 50.72325 -2.165617
v -30.97596 47.62537 -2.556361
v -36.22152 51.1949 -0.4755077
v -23.00547 -14.63485 -0.6259101
v -17.96068 -39.23379 -2.231898
v -16.35028 -39.53486 -0.05448787
v -35.8117 26.49544 -2.806099
v -32.60351 17.18374 -2.277733
v -28.66302 19.32836 -0.7707613
v -35.8117 26.49544 -2.806099
v -32.24258 26.43824 -2.656955
v -30.2131 30.85419 -2.076191
v -32.01135 -5.47718 -0.2876917
v -31.76562 -2.7228 2.595249
v -30.6219 -6.796049 3.318409
v -22.30958 -18.96561 1.584724
v -30.00196 7.360597 2.813832
v -26.86079 11.98391 0.6135271
v -16.35028 -39.53486 -0.05448787
v -22.30958 -18.96561 1.584724
v -26.86079 11.98391 0.6135271
v -30.00196 7.360597 2.813832
v -29.02051 23.87655 1.641572
v -33.84949 24.81183 3.17646
v -35.70502 26.03961 2.788124
v -31.76562 -2.7228 2.595249
v -32.01135 -5.47718 -0.2876917
v -36.84773 25.22594 -0.9640344
v -35.02586 28.28638 -1.376575
v -32.54629 34.06574 -1.009495
v -30.82736 32.75521 1.487479
v -28.49464 26.52981 0.1601227
v -28.88903 -4.495045 3.280589
v -30.6219 -6.796049 3.318409
v -30.9753 -18.48417 0.02878614
v -26.17701 -9.924375 2.414989
v -22.30958 -18.96561 1.584724
v -19.26498 -38.16155 2.296257
v -16.80173 -37.36578 1.140638
v -22.61137 -40.52201 2.125916
v -16.35028 -39.53486 -0.05448787
v -23.21365 -42.70668 -0.9535882
v -29.92192 -20.15607 1.743572
v 9.679319 -41.83153 -0.2568776
v 8.725611 -41.22768 0.8696709
v 9.114884 -31.26123 0.7312269
v 7.334949 -30.32489 -1.71053
v 8.147788 -42.09847 -0.3096275
v 5.17597 -28.98196 -0.06113655
v -6.791864 -14.12754 -0.5314173
v 6.413313 -27.00971 -0.3903617
v 14.64744 -31.48984 -1.376584
v 23.03567 -33.71797 0.003439636
v 18.83728 -32.94003 1.21344
v 8.147788 -42.09847 -0.3096275
v 8.725611 -41.22768 0.8696709
v 9.679319 -41.83153 -0.2568776
v 2.917154 -24.41976 1.92181
v 5.17597 -28.98196 -0.06113655
v 9.114884 -31.26123 0.7312269
v -6.791864 -14.12754 -0.5314173
v 18.83728 -32.94003 1.21344
v 6.413313 -27.00971 -0.3903617
v 55.35706 -18.87005 0.7813125
v 62.47614 -35.70552 3.860438
v 61.29497 -40.25751 -0.8908828
v 54.91187 -7.127389 2.910723
v 49.95661 14.18434 -0.418816
v 51.17308 13.95044 1.908952
v 45.15138 43.58962 -0.7203149
v 37.96833 65.68098 0.9282234
v 34.77525 69.7747 -1.108479
v 53.06334 30.57526 1.739981
v 49.14402 52.2903 1.909468
v 47.93399 56.17424 0.06649712
v 49.83046 48.77268 -0.7425787
v 59.52577 -21.89553 4.082019
v 59.45301 -13.21488 3.59963
v 63.02288 -14.09865 0.7226526
v 56.71137 -3.659964 3.692004
v 53.20249 15.345 3.241405
v 57.37107 10.2055 -0.359576
v 54.91187 -7.127389 2.910723
v 51.17308 13.95044 1.908952
v 53.20249 15.345 3.241405
v 53.06334 30.57526 1.739981
v 57.37107 10.2055 -0.359576
v 63.2371 -37.27205 -2.912541
v 60.18525 -37.21545 -3.210999
v 61.29497 -40.25751 -0.8908828
v 55.30146 -7.710541 -2.181354
v 57.41042 -5.334538 -2.865145
v 63.02288 -14.09865 0.7226526
v 54.81424 8.806274 -3.840645
v 57.37107 10.2055 -0.359576
v 53.53745 27.41776 -2.837977
v 49.83046 48.77268 -0.7425787
v 49.06128 51.46378 -2.421397
v 47.93399 56.17424 0.06649712
v 36.14995 67.37067 -2.934271
v 48.12458 49.93337 -3.459011
v 45.57634 47.48264 -2.899133
v 34.77525 69.7747 -1.108479
v 45.15138 43.58962 -0.7203149
v 50.37644 20.83064 -2.437059
v 49.95661 14.18434 -0.418816
v 52.67964 8.578169 -3.636535
v 55.35706 -18.87005 0.7813125
v 61.29497 -40.25751 -0.8908828
v -57.22977 17.8406 -2.37095
v -63.07398 -1.091527 -0.1787287
v -60.01862 -0.008553581 -2.595433
v -58.50173 6.107765 -0.3459113
v -45.34392 56.76308 -1.058238
v -46.29229 54.76797 -2.538939
v -55.08134 29.02851 -0.3724913
v -57.47306 -2.787197 -0.2409448
v -59.82587 -15.48665 -2.964264
v -56.35239 -18.34196 -0.07629561
v -57.22977 17.8406 -2.37095
v -55.08134 29.02851 -0.3724913
v -63.07398 -1.091527 -0.1787287
v -53.05644 30.08622 1.333847
v -45.34392 56.76308 -1.058238
v -46.29229 54.76797 -2.538939
v -58.50173 6.107765 -0.3459113
v -58.76906 11.27222 0.9547485
v -59.3506 -1.011312 1.897175
v -60.56462 -13.84943 2.603649
v -56.35239 -18.34196 -0.07629561
v -57.47306 -2.787197 -0.2409448
v -58.50173 6.107765 -0.3459113
v -67.19974 -16.43272 1.805178
v -66.92358 -15.81161 0.0525342
v -61.06461 -18.05695 3.383011
v -48.11245 -32.70882 2.807028
v -40.07731 -40.18236 2.749768
v -38.30644 -50.7532 0.9904059
v -66.92358 -15.81161 0.0525342
v -32.75242 -45.24698 2.909127
v -38.05188 -53.27173 -0.2588884
v -36.39943 -48.9609 0.202541
v -38.11882 -49.51199 -1.300633
v -32.79636 -45.4426 -3.21158
v -32.9278 -39.45367 -0.09915008
v -38.6325 -40.6225 -1.595258
v -66.92358 -15.81161 0.0525342
v -59.82587 -15.48665 -2.964264
v -63.07398 -1.091527 -0.1787287
v -68.37898 -16.07811 -1.99803
v -58.9836 -19.48493 -3.196418
v -38.6325 -40.6225 -1.595258
v -42.44008 -43.05775 -0.7919236
v -32.79636 -45.4426 -3.21158
v -38.11882 -49.51199 -1.300633
v -38.05188 -53.27173 -0.2588884
v -66.92358 -15.81161 0.0525342
v -32.9278 -39.45367 -0.09915008
v -56.35239 -18.34196 -0.07629561
v -38.6325 -40.6225 -1.595258
v -40.07731 -40.18236 2.749768
v -60.56462 -13.84943 2.603649
v -32.75242 -45.24698 2.909127
v -36.39943 -48.9609 0.202541
v 11.96291 -16.55562 -1.811304
v 21.50145 9.966447 -1.112841
v 17.73336 -4.581739 0.8341877
v 23.5497 2.481161 -1.307938
v 24.67835 1.267266 -0.07991252
v 32.89303 -12.91647 -0.8777531
v 36.15624 -39.71613 0.3071618
v 30.00523 -4.443434 -1.152975
v 39.87914 -34.0504 -1.611575
v 42.04796 -32.45486 0.656972
v 25.03767 5.938985 1.392246
v 36.15624 -39.71613 0.3071618
v 33.0539 -42.68458 -1.614357
v 30.00523 -4.443434 -1.152975
v 25.03767 5.938985 1.392246
v 23.5497 2.481161 -1.307938
v 21.50145 9.966447 -1.112841
v 23.33002 4.669714 2.59363
v 11.96291 -16.55562 -1.811304
v 12.30475 -16.10351 0.4876922
v 17.73336 -4.581739 0.8341877
v 23.33002 4.669714 2.59363
v 24.67835 1.267266 -0.07991252
v 11.96291 -16.55562 -1.811304
v 26.58337 0.3474257 2.300532
v 30.51528 -8.040597 2.164258
v 25.03767 5.938985 1.392246
v 42.04796 -32.45486 0.656972
v 39.23832 -29.05436 1.710463
v 36.15624 -39.71613 0.3071618
v 24.28125 3.905445 2.487006
v 26.58337 0.3474257 2.300532
v 23.33002 4.669714 2.59363
v 25.03767 5.938985 1.392246
v 24.28125 3.905445 2.487006
v 23.33002 4.669714 2.59363
v 25.03767 5.938985 1.392246
v 10.97113 52.50465 -1.163591
v 14.96802 27.62515 1.027684
v 13.72464 23.71103 -0.4217673
v 9.562657 51.48978 2.400145
v 7.890562 52.20916 -0.1768478
v 8.318487 51.86103 1.407078
v 19.5853 9.764404 0.7947148
v 21.50145 9.966447 -1.112841
v 17.73336 -4.581739 0.8341877
v 10.97113 52.50465 -1.163591
v 14.96802 27.62515 1.027684
v 9.562657 51.48978 2.400145
v 8.318487 51.86103 1.407078
v 7.890562 52.20916 -0.1768478
v -72.38506 -60.95296 0.5929788
v -45.34505 -61.78345 1.166135
v -67.87457 -61.82652 0.05855355
v -46.38362 -60.99757 2.140757
v -62.9291 -60.2742 0.337418
v -74.91912 -60.18302 -1.189751
v -41.16379 -60.34923 1.293386
v -27.75848 -61.05141 2.02626
v -28.68309 -62.03633 0.8884947
v -9.91079 -59.18706 1.285606
v -39.2113 -61.17769 0.7171959
v -9.485002 -59.86303 1.737972
v 2.253205 -60.67496 -0.9568042
v 4.718277 -59.36913 -1.202858
v 8.487355 -59.8415 -0.7668879
v 30.61436 -59.44327 0.1384332
v 22.39197 -58.62983 -0.7808205
v 33.77286 -58.12251 0.4478146
v 46.43318 -56.61307 0.4860304
v -39.2113 -61.17769 0.7171959
v -41.16379 -60.34923 1.293386
v -62.9291 -60.2742 0.337418
v -73.97376 -60.43317 -1.772301
v -74.91912 -60.18302 -1.189751
v -67.87457 -61.82652 0.05855355
v -45.34505 -61.78345 1.166135
v -28.68309 -62.03633 0.8884947
v -6.503822 -60.01186 -0.4829871
v -9.91079 -59.18706 1.285606
v 2.253205 -60.67496 -0.9568042
v 4.718277 -59.36913 -1.202858
v 7.269687 -59.78327 -2.023937
v 30.61436 -59.44327 0.1384332
v 22.39197 -58.62983 -0.7808205
v 30.60019 -58.67706 -1.019214
v 46.43318 -56.61307 0.4860304
v -3.071028 35.62802 -0.622098
v -7.096266 37.92874 2.636769
v -5.512063 40.76004 -0.8213117
v -2.926035 37.91954 -2.219887
v -7.55703 37.83339 -2.657491
v -36.22152 51.1949 -0.4755077
v -30.97596 47.62537 -2.556361
v -1.218079 27.01252 -1.791001
v -0.9065577 29.36762 -0.1183841
v 9.45831 16.10346 -0.9591876
v 8.130867 13.80128 0.8528718
v -9.157272 35.96028 -0.1400995
v -37.44956 47.58681 -0.7523238
v -36.20927 50.72325 -2.165617
v -36.22152 51.1949 -0.4755077
v -0.9065577 29.36762 -0.1183841
v -7.096266 37.92874 2.636769
v -3.071028 35.62802 -0.622098
v 8.130867 13.80128 0.8528718
v 8.585015 14.85747 2.2534
v -9.17478 37.21396 2.108297
v -9.157272 35.96028 -0.1400995
v -37.44956 47.58681 -0.7523238
v 8.130867 13.80128 0.8528718
v -1.218079 27.01252 -1.791001
v 9.45831 16.10346 -0.9591876
v -7.096266 37.92874 2.636769
v -9.17478 37.21396 2.108297
v -37.44956 47.58681 -0.7523238
v -36.78725 49.10934 1.190409
v -36.22152 51.1949 -0.4755077
v -23.00547 -14.63485 -0.6259101
v -16.35028 -39.53486 -0.05448787
v -26.86079 11.98391 0.6135271
v -28.66302 19.32836 -0.7707613
v -28.49464 26.52981 0.1601227
v -29.02051 23.87655 1.641572
v -35.70502 26.03961 2.788124
v -30.2131 30.85419 -2.076191
v -32.54629 34.06574 -1.009495
v -32.24258 26.43824 -2.656955
v -35.8117 26.49544 -2.806099
v -35.8117 26.49544 -2.806099
v -35.02586 28.28638 -1.376575
v -36.84773 25.22594 -0.9640344
v -32.01135 -5.47718 -0.2876917
v -31.17552 -3.495345 -2.739578
v -32.60351 17.18374 -2.277733
v -29.3317 -3.033969 -3.036631
v -30.78453 -17.21908 -2.152521
v -30.9753 -18.48417 0.02878614
v -28.0394 -16.3847 -2.968174
v -17.96068 -39.23379 -2.231898
v -22.44498 -41.00599 -2.855417
v -23.21365 -42.70668 -0.9535882
v -16.35028 -39.53486 -0.05448787
v -16.80173 -37.36578 1.140638
v -22.30958 -18.96561 1.584724
v -16.35028 -39.53486 -0.05448787
v -19.26498 -38.16155 2.296257
v 21.50145 9.966447 -1.112841
v 14.5597 27.79433 -2.675107
v 13.72464 23.71103 -0.4217673
v 25.03767 5.938985 1.392246
v 7.890562 52.20916 -0.1768478
v 10.97113 52.50465 -1.163591
v 10.82781 50.862 -2.423127

vn -0.2956738 -0.03833662 -0.9545195
vn -0.2853838 -0.003570512 -0.9584067
vn 0.3915766 0.8947811 -0.2145565
vn -0.2956738 -0.03833662 -0.9545195
vn 0.3915766 0.8947811 -0.2145565
vn -0.2853838 -0.003570512 -0.9584067
vn 0.7969813 0.2218928 0.561769
vn -0.2355344 -0.8835429 -0.4048155
vn 0.4707401 -0.005977177 0.8822516
vn 0.9819895 0.1889354 0
vn 0.8547554 0.1417482 0.4993001
vn 0.9768075 0.2090093 0.04649878
vn 0.9768075 0.2090093 0.04649878
vn 0.8547554 0.1417482 0.4993001
vn 0.3184028 0.2090496 0.9246177
vn 0.6909841 0.6222333 -0.3679222
vn 0.5079594 0.593927 0.6238814
vn -0.9642423 -0.251049 0.08491896
vn 0.3677895 -0.6530014 -0.6620575
vn -0.2355344 -0.8835429 -0.4048155
vn 0.7969813 0.2218928 0.561769
vn -0.6071869 -0.4610133 -0.6471406
vn -0.1551149 -0.04287795 -0.9869655
vn -0.2355344 -0.8835429 -0.4048155
vn 0.6909841 0.6222333 -0.3679222
vn -0.9642423 -0.251049 0.08491896
vn -0.07420259 0.5284106 -0.84574
vn -0.1040046 0.1572247 -0.982071
vn -0.554832 0.0723485 0.8288106
vn 0.5601352 -0.1553419 -0.813706
vn 0.5601352 -0.1553419 -0.813706
vn 0.5537884 0.4929242 -0.6710768
vn 0.3194329 0.9474484 0.01743616
vn -0.4521797 -0.5199651 -0.724686
vn 0.09413148 0.878346 -0.4686657
vn -0.3222822 -0.2008965 -0.925081
vn 0.9068857 0.3104673 0.2849009
vn 0.4768294 -0.09824499 0.8734882
vn 0.524419 -0.1282497 0.8417463
vn 0.9068857 0.3104673 0.2849009
vn 0.524419 -0.1282497 0.8417463
vn 0.4768294 -0.09824499 0.8734882
vn 0.6140062 -0.2454271 0.7501746
vn 0.9692069 0.2461315 0.007564168
vn 0.6871991 0.08884557 0.7210158
vn 0.09413148 0.878346 -0.4686657
vn -0.2984105 -0.08270162 0.9508479
vn -0.341708 -0.3037684 0.8893595
vn -0.04055274 0.02707197 -0.9988105
vn -0.9247552 -0.2702821 0.2679094
vn 0.3791745 0.2308254 -0.8960727
vn -0.9247552 -0.2702821 0.2679094
vn -0.04055274 0.02707197 -0.9988105
vn 0.3791745 0.2308254 -0.8960727
vn -0.4431381 0.3113047 -0.8406652
vn 0.9183528 0.3844635 0.09389342
vn -0.9275356 0.3724445 -0.0310299
vn -0.518213 0.1264239 0.845856
vn -0.9247552 -0.2702821 0.2679094
vn -0.9927887 0.1189159 -0.01515366
vn 0.4043945 0.07303153 0.9116641
vn 0.3819696 -0.1674669 0.9088752
vn 0.7244877 -0.6731014 -0.148499
vn 0.3819696 -0.1674669 0.9088752
vn 0.4043945 0.07303153 0.9116641
vn 0.7244877 -0.6731014 -0.148499
vn -0.08177774 0.988069 -0.1305072
vn 0.003260057 0.008177311 0.9999613
vn -0.2628186 0.9613482 0.08207276
vn -0.08177774 0.988069 -0.1305072
vn -0.2628186 0.9613482 0.08207276
vn 0.003260057 0.008177311 0.9999613
vn -0.08177774 0.988069 -0.1305072
vn 0.09088305 0.1438212 0.9854215
vn 0.003260057 0.008177311 0.9999613
vn 0.09088305 0.1438212 0.9854215
vn -0.08177774 0.988069 -0.1305072
vn 0.003260057 0.008177311 0.9999613
vn -0.1596003 -0.9868559 0.02536031
vn -0.1912532 0.964422 -0.182517
vn -0.4992878 0.1780479 0.8479449
vn -0.02183845 -0.02740839 -0.9993857
vn -0.1912532 0.964422 -0.182517
vn -0.1596003 -0.9868559 0.02536031
vn -0.3992385 0.3902674 -0.8296385
vn -0.4783588 -0.01945304 -0.877949
vn 0.7244877 -0.6731014 -0.148499
vn 0.6574938 0.7533993 -0.009559381
vn 0.5433872 0.4791948 0.689277
vn -0.8880527 0.4576634 0.04366596
vn -0.03197486 -0.009966131 0.9994389
vn 0.9936333 0.02372679 0.110136
vn -0.004309941 0.0851498 0.9963588
vn -0.8880527 0.4576634 0.04366596
vn -0.3921871 0.5272008 0.7538227
vn -0.3637201 -0.9309679 0.03172659
vn -0.3111651 0.5374746 -0.7837713
vn -0.01354846 -0.08917812 -0.9959235
vn -0.8880527 0.4576634 0.04366596
vn 0.3927129 0.04929527 -0.918339
vn 0.6636753 0.2128005 -0.717113
vn 0.3633349 -0.8643485 0.3476917
vn -0.6670849 -0.0773837 -0.7409517
vn 0.3373213 0.01002261 -0.9413363
vn 0.3059535 0.08519657 -0.9482267
vn -0.6670849 -0.0773837 -0.7409517
vn 0.3025847 0.1140869 -0.9462699
vn 0.7204555 0.01064508 -0.6934195
vn -0.989049 -0.1464642 -0.01817563
vn -0.2651869 -0.04805708 0.9629986
vn 0.3168192 0.07782117 0.9452881
vn 0.5926968 0.0966999 0.7995996
vn -0.02336589 0.01124344 0.9996637
vn 0.9875327 0.1573179 -0.005517791
vn 0.3633349 -0.8643485 0.3476917
vn 0.5926968 0.0966999 0.7995996
vn 0.9875327 0.1573179 -0.005517791
vn -0.02336589 0.01124344 0.9996637
vn 0.6551691 0.1515588 0.7401239
vn 0.3131491 0.02994983 0.9492316
vn -0.4724434 0.4488268 0.7585194
vn -0.2651869 -0.04805708 0.9629986
vn -0.989049 -0.1464642 -0.01817563
vn -0.9666086 0.06170921 -0.2487158
vn -0.901898 0.4317696 0.01245005
vn 0.6925924 0.6802365 -0.2399876
vn 0.4762857 0.01557989 0.8791525
vn 0.996949 -0.07703085 -0.01260412
vn 0.1164275 0.03472674 0.992592
vn 0.3168192 0.07782117 0.9452881
vn -0.9685147 -0.2424523 -0.05653486
vn 0.3153861 0.05402287 0.9474245
vn 0.5926968 0.0966999 0.7995996
vn 0.427614 -0.348551 0.8340614
vn 0.5879046 0.133976 0.7977585
vn -0.3529877 -0.1355073 0.9257632
vn 0.3633349 -0.8643485 0.3476917
vn -0.9759842 -0.2175413 -0.01143168
vn -0.7379091 -0.2330699 0.6333787
vn 0.960955 0.1381365 -0.2397574
vn -0.01155574 -0.03108582 0.9994499
vn -0.2241773 -0.9638299 0.1441404
vn -0.2853838 -0.003570512 -0.9584067
vn -0.5713606 -0.7948781 -0.2042441
vn -0.7903427 -0.6126294 -0.006602858
vn 0.3915766 0.8947811 -0.2145565
vn 0.7854567 0.6145282 0.07357147
vn 0.02225088 0.06115774 -0.9978801
vn 0.2823893 0.9589288 -0.02668187
vn 0.411574 -0.1228716 0.9030556
vn -0.5713606 -0.7948781 -0.2042441
vn -0.01155574 -0.03108582 0.9994499
vn 0.960955 0.1381365 -0.2397574
vn -0.5072839 -0.3860983 0.7704487
vn -0.7903427 -0.6126294 -0.006602858
vn -0.2241773 -0.9638299 0.1441404
vn 0.3915766 0.8947811 -0.2145565
vn 0.411574 -0.1228716 0.9030556
vn 0.7854567 0.6145282 0.07357147
vn -0.9927211 -0.1196997 -0.01329064
vn 0.4707401 -0.005977177 0.8822516
vn -0.2355344 -0.8835429 -0.4048155
vn -0.76174 -0.1159724 0.6374187
vn -0.9918881 -0.1271058 -0.001493412
vn -0.2504111 -0.05434336 0.9666132
vn -0.9757937 -0.2155072 -0.03719293
vn 0.5079594 0.593927 0.6238814
vn -0.9642423 -0.251049 0.08491896
vn 0.8547554 0.1417482 0.4993001
vn 0.3184028 0.2090496 0.9246177
vn 0.6909841 0.6222333 -0.3679222
vn 0.9768075 0.2090093 0.04649878
vn 0.1733039 0.0307096 0.9843895
vn 0.1848407 0.06226429 0.9807941
vn 0.7969813 0.2218928 0.561769
vn -0.1748792 -0.00991894 0.9845399
vn -0.1483522 0.1076299 0.9830602
vn 0.9819895 0.1889354 0
vn -0.76174 -0.1159724 0.6374187
vn -0.2504111 -0.05434336 0.9666132
vn -0.1483522 0.1076299 0.9830602
vn 0.8547554 0.1417482 0.4993001
vn 0.9819895 0.1889354 0
vn 0.3677895 -0.6530014 -0.6620575
vn -0.6071869 -0.4610133 -0.6471406
vn -0.2355344 -0.8835429 -0.4048155
vn -0.1551149 -0.04287795 -0.9869655
vn 0.4751181 0.05171865 -0.8784008
vn 0.7969813 0.2218928 0.561769
vn 0.5532801 0.1083349 -0.8259205
vn 0.9819895 0.1889354 0
vn -0.3442976 0 -0.9388605
vn 0.9768075 0.2090093 0.04649878
vn 0.1926028 0.002312584 -0.9812741
vn 0.6909841 0.6222333 -0.3679222
vn -0.07420259 0.5284106 -0.84574
vn 0.3388169 0.1313124 -0.9316438
vn -0.1923037 -0.1165987 -0.9743838
vn -0.9642423 -0.251049 0.08491896
vn -0.9757937 -0.2155072 -0.03719293
vn -0.1910682 0.1093906 -0.9754623
vn -0.9918881 -0.1271058 -0.001493412
vn -0.0372963 -0.1359575 -0.9900124
vn -0.9927211 -0.1196997 -0.01329064
vn -0.2355344 -0.8835429 -0.4048155
vn -0.5557284 0.09949096 -0.8253893
vn -0.554832 0.0723485 0.8288106
vn -0.1040046 0.1572247 -0.982071
vn 0.9692069 0.2461315 0.007564168
vn 0.9068857 0.3104673 0.2849009
vn -0.5013757 0.382916 -0.7758852
vn -0.8058435 0.3304043 -0.4913749
vn 0.9984749 -0.0470685 -0.02885297
vn 0.5601352 -0.1553419 -0.813706
vn 0.3194329 0.9474484 0.01743616
vn -0.5557284 0.09949096 -0.8253893
vn -0.8058435 0.3304043 -0.4913749
vn -0.554832 0.0723485 0.8288106
vn 0.4768294 -0.09824499 0.8734882
vn 0.9068857 0.3104673 0.2849009
vn -0.5013757 0.382916 -0.7758852
vn 0.9692069 0.2461315 0.007564168
vn 0.6140062 -0.2454271 0.7501746
vn 0.6871991 0.08884557 0.7210158
vn 0.2980968 0.1919175 0.9350433
vn 0.3194329 0.9474484 0.01743616
vn 0.9984749 -0.0470685 -0.02885297
vn 0.9692069 0.2461315 0.007564168
vn -0.2984105 -0.08270162 0.9508479
vn 0.09413148 0.878346 -0.4686657
vn -0.341708 -0.3037684 0.8893595
vn -0.07967072 -0.06949272 0.994396
vn -0.1706475 0.7377715 0.6531253
vn -0.5233449 -0.3293055 0.7859186
vn 0.09413148 0.878346 -0.4686657
vn 0.4327295 -0.4666752 0.7713361
vn 0.6863094 -0.7072663 -0.1695694
vn 0.9663464 0.1679188 0.1948787
vn -0.1620214 -0.4983057 -0.851728
vn 0.430829 0.4506288 -0.7818696
vn -0.1025888 0.9910817 0.08504485
vn 0.5537884 0.4929242 -0.6710768
vn 0.09413148 0.878346 -0.4686657
vn 0.5601352 -0.1553419 -0.813706
vn -0.554832 0.0723485 0.8288106
vn -0.4521797 -0.5199651 -0.724686
vn -0.3235649 -0.3460249 -0.8806659
vn 0.5537884 0.4929242 -0.6710768
vn -0.3222822 -0.2008965 -0.925081
vn 0.430829 0.4506288 -0.7818696
vn -0.1620214 -0.4983057 -0.851728
vn 0.6863094 -0.7072663 -0.1695694
vn 0.09413148 0.878346 -0.4686657
vn -0.1025888 0.9910817 0.08504485
vn 0.3194329 0.9474484 0.01743616
vn 0.5537884 0.4929242 -0.6710768
vn -0.1706475 0.7377715 0.6531253
vn 0.2980968 0.1919175 0.9350433
vn 0.4327295 -0.4666752 0.7713361
vn 0.9663464 0.1679188 0.1948787
vn -0.9247552 -0.2702821 0.2679094
vn -0.4949427 0.1900517 -0.8478868
vn -0.9927887 0.1189159 -0.01515366
vn 0.3791745 0.2308254 -0.8960727
vn 0.870069 -0.4886203 -0.06503873
vn -0.4445812 -0.1380617 -0.8850347
vn 0.7244877 -0.6731014 -0.148499
vn 0.5150383 0.3464968 -0.7840124
vn -0.4783588 -0.01945304 -0.877949
vn 0.9372789 -0.3485802 0
vn 0.9202254 0.389587 0.03751376
vn 0.7244877 -0.6731014 -0.148499
vn -0.3992385 0.3902674 -0.8296385
vn 0.5150383 0.3464968 -0.7840124
vn 0.9202254 0.389587 0.03751376
vn 0.3791745 0.2308254 -0.8960727
vn -0.4949427 0.1900517 -0.8478868
vn 0.5283489 0.2694869 0.8051237
vn -0.9247552 -0.2702821 0.2679094
vn -0.518213 0.1264239 0.845856
vn -0.9927887 0.1189159 -0.01515366
vn 0.5283489 0.2694869 0.8051237
vn 0.870069 -0.4886203 -0.06503873
vn -0.9247552 -0.2702821 0.2679094
vn 0.4379306 0.3030879 0.8463772
vn 0.4983988 0.2080933 0.8416032
vn 0.9202254 0.389587 0.03751376
vn 0.9372789 -0.3485802 0
vn 0.4043945 0.07303153 0.9116641
vn 0.7244877 -0.6731014 -0.148499
vn 0.3896434 0.2350405 0.8904684
vn 0.4379306 0.3030879 0.8463772
vn 0.5283489 0.2694869 0.8051237
vn 0.9202254 0.389587 0.03751376
vn 0.3896434 0.2350405 0.8904684
vn 0.5283489 0.2694869 0.8051237
vn 0.9202254 0.389587 0.03751376
vn 0.9183528 0.3844635 0.09389342
vn 0.6150057 0.1134695 0.7803158
vn -0.9797873 -0.1994804 -0.01498039
vn -0.5172475 -0.1682224 0.8391402
vn -0.9275356 0.3724445 -0.0310299
vn -0.6126199 0.2581181 0.7470421
vn -0.9288928 -0.3683725 -0.03820919
vn -0.4949427 0.1900517 -0.8478868
vn -0.9927887 0.1189159 -0.01515366
vn 0.9183528 0.3844635 0.09389342
vn 0.6150057 0.1134695 0.7803158
vn -0.5172475 -0.1682224 0.8391402
vn -0.6126199 0.2581181 0.7470421
vn -0.9275356 0.3724445 -0.0310299
vn -0.4992878 0.1780479 0.8479449
vn -0.005614326 -0.9988399 0.0478275
vn -0.1596003 -0.9868559 0.02536031
vn -0.01246667 0.03358129 0.9993582
vn -0.001491451 0.9964656 0.08398904
vn -0.1912532 0.964422 -0.182517
vn -0.002513786 0.9995421 -0.03015451
vn 0.005400858 -0.04069116 0.9991572
vn 0.06269141 -0.989754 -0.1282844
vn 0.140746 0.9874688 0.07138544
vn 0.102991 0.1164596 -0.9878411
vn 0.20538 -0.1550672 0.9663194
vn 0.03863055 -0.9987046 -0.03312103
vn -0.008486734 0.9998029 0.01795142
vn -0.03872554 -0.01532859 0.9991323
vn 0.2255438 -0.9729568 0.04985034
vn -0.0568152 0.9958335 -0.07132699
vn 0.09088305 0.1438212 0.9854215
vn -0.08177774 0.988069 -0.1305072
vn 0.102991 0.1164596 -0.9878411
vn -0.002513786 0.9995421 -0.03015451
vn -0.001491451 0.9964656 0.08398904
vn -0.02183845 -0.02740839 -0.9993857
vn -0.1912532 0.964422 -0.182517
vn -0.1596003 -0.9868559 0.02536031
vn -0.005614326 -0.9988399 0.0478275
vn 0.06269141 -0.989754 -0.1282844
vn -0.01226334 0.1584179 -0.987296
vn 0.140746 0.9874688 0.07138544
vn 0.03863055 -0.9987046 -0.03312103
vn -0.008486734 0.9998029 0.01795142
vn -0.009152299 0.1508718 -0.988511
vn 0.2255438 -0.9729568 0.04985034
vn -0.0568152 0.9958335 -0.07132699
vn 0.06729881 0.0278435 -0.9973443
vn -0.08177774 0.988069 -0.1305072
vn 0.5528769 -0.8229526 -0.1306758
vn 0.5433872 0.4791948 0.689277
vn 0.6574938 0.7533993 -0.009559381
vn 0.3747332 0.6062853 -0.7014222
vn 0.193889 0.6597707 -0.7260231
vn -0.8880527 0.4576634 0.04366596
vn -0.01354846 -0.08917812 -0.9959235
vn -0.08197265 -0.09802987 -0.9918017
vn 0.7621052 0.646732 -0.03055344
vn 0.3116792 0.1469305 -0.9387585
vn 0.9936333 0.02372679 0.110136
vn -0.4585188 -0.8883305 -0.02508911
vn -0.3637201 -0.9309679 0.03172659
vn -0.3111651 0.5374746 -0.7837713
vn -0.8880527 0.4576634 0.04366596
vn 0.7621052 0.646732 -0.03055344
vn 0.5433872 0.4791948 0.689277
vn 0.5528769 -0.8229526 -0.1306758
vn 0.9936333 0.02372679 0.110136
vn -0.03197486 -0.009966131 0.9994389
vn -0.004309941 0.0851498 0.9963588
vn -0.4585188 -0.8883305 -0.02508911
vn -0.3637201 -0.9309679 0.03172659
vn 0.9936333 0.02372679 0.110136
vn -0.08197265 -0.09802987 -0.9918017
vn 0.3116792 0.1469305 -0.9387585
vn 0.5433872 0.4791948 0.689277
vn -0.004309941 0.0851498 0.9963588
vn -0.3637201 -0.9309679 0.03172659
vn -0.3921871 0.5272008 0.7538227
vn -0.8880527 0.4576634 0.04366596
vn 0.3927129 0.04929527 -0.918339
vn 0.3633349 -0.8643485 0.3476917
vn 0.9875327 0.1573179 -0.005517791
vn 0.3059535 0.08519657 -0.9482267
vn 0.996949 -0.07703085 -0.01260412
vn 0.6551691 0.1515588 0.7401239
vn -0.4724434 0.4488268 0.7585194
vn 0.7204555 0.01064508 -0.6934195
vn 0.6925924 0.6802365 -0.2399876
vn 0.3025847 0.1140869 -0.9462699
vn -0.6670849 -0.0773837 -0.7409517
vn -0.6670849 -0.0773837 -0.7409517
vn -0.901898 0.4317696 0.01245005
vn -0.9666086 0.06170921 -0.2487158
vn -0.989049 -0.1464642 -0.01817563
vn -0.7187619 -0.02609243 -0.6947665
vn 0.3373213 0.01002261 -0.9413363
vn 0.1821704 0.04607067 -0.982187
vn -0.6819777 -0.2667684 -0.6809853
vn -0.9685147 -0.2424523 -0.05653486
vn -0.2447558 -0.05382689 -0.9680895
vn 0.6636753 0.2128005 -0.717113
vn 0.405988 -0.5927151 -0.6956023
vn -0.9759842 -0.2175413 -0.01143168
vn 0.3633349 -0.8643485 0.3476917
vn 0.5879046 0.133976 0.7977585
vn 0.5926968 0.0966999 0.7995996
vn 0.3633349 -0.8643485 0.3476917
vn 0.427614 -0.348551 0.8340614
vn -0.4949427 0.1900517 -0.8478868
vn 0.576501 0.09372994 -0.8117027
vn -0.9797873 -0.1994804 -0.01498039
vn 0.9202254 0.389587 0.03751376
vn -0.9275356 0.3724445 -0.0310299
vn 0.9183528 0.3844635 0.09389342
vn -0.4431381 0.3113047 -0.8406652

vt 0.1733321 0.7677172
vt 0.1269844 0.7753063
vt 0.1737775 0.7632704
vt 0.1733321 0.7677172
vt 0.1737775 0.7632704
vt 0.1269844 0.7753063
vt 0.8796874 0.4965062
vt 0.9654236 0.484632
vt 0.9463401 0.4957294
vt 0.7839733 0.4912494
vt 0.8051154 0.4908963
vt 0.7699879 0.4902447
vt 0.7699879 0.4902447
vt 0.8051154 0.4908963
vt 0.719148 0.49898
vt 0.7162902 0.5010966
vt 0.7082685 0.4718461
vt 0.7070646 0.4562003
vt 0.9655132 0.4947917
vt 0.9654236 0.484632
vt 0.8796874 0.4965062
vt 0.9633036 0.4817516
vt 0.8899913 0.487188
vt 0.9654236 0.484632
vt 0.7162902 0.5010966
vt 0.7070646 0.4562003
vt 0.6871604 0.4594615
vt 0.8153453 0.1015601
vt 0.8404567 0.1057101
vt 0.8033217 0.09912673
vt 0.8033217 0.09912673
vt 0.7309254 0.05768546
vt 0.7719435 0.09093741
vt 0.7694024 0.1203181
vt 0.7794465 0.1188076
vt 0.7048776 0.04876278
vt 0.9572605 0.06722737
vt 0.8926386 0.08480804
vt 0.9309562 0.07615449
vt 0.9572605 0.06722737
vt 0.9309562 0.07615449
vt 0.8926386 0.08480804
vt 0.8574721 0.09524751
vt 0.8199506 0.09791022
vt 0.7907784 0.09683634
vt 0.7794465 0.1188076
vt 0.7728149 0.116699
vt 0.770354 0.1098522
vt 0.3806656 0.05424068
vt 0.3861814 0.04759114
vt 0.3323187 0.08561473
vt 0.3861814 0.04759114
vt 0.3806656 0.05424068
vt 0.3323187 0.08561473
vt 0.2134044 0.05790874
vt 0.2809734 0.07395107
vt 0.2121639 0.05475093
vt 0.3531837 0.07108609
vt 0.3861814 0.04759114
vt 0.3336571 0.07877202
vt 0.4101322 0.1152118
vt 0.4491398 0.1061674
vt 0.4347173 0.1169845
vt 0.4491398 0.1061674
vt 0.4101322 0.1152118
vt 0.4347173 0.1169845
vt 0.1367889 0.6128089
vt 0.1039503 0.6088652
vt 0.07913047 0.6010976
vt 0.1367889 0.6128089
vt 0.07913047 0.6010976
vt 0.1039503 0.6088652
vt 0.1367889 0.6128089
vt 0.1411458 0.6146402
vt 0.1039503 0.6088652
vt 0.1411458 0.6146402
vt 0.1367889 0.6128089
vt 0.1039503 0.6088652
vt 0.3991245 0.6282429
vt 0.4068401 0.6241348
vt 0.4079495 0.6254906
vt 0.4063148 0.6259093
vt 0.4068401 0.6241348
vt 0.3991245 0.6282429
vt 0.4496013 0.1035568
vt 0.4266692 0.1158732
vt 0.4347173 0.1169845
vt 0.04590075 0.4074755
vt 0.08408242 0.4409855
vt 0.04122099 0.3187174
vt 0.07893907 0.4294734
vt 0.0925894 0.4560598
vt 0.05051725 0.3898008
vt 0.04122099 0.3187174
vt 0.04045404 0.3207498
vt 0.05389446 0.3690683
vt 0.0397192 0.3210167
vt 0.04723692 0.3618816
vt 0.04122099 0.3187174
vt 0.8518601 0.3441387
vt 0.9328202 0.3656767
vt 0.9412622 0.3564416
vt 0.8125808 0.3325191
vt 0.7966844 0.343411
vt 0.8307294 0.3409637
vt 0.8125808 0.3325191
vt 0.7711049 0.3403531
vt 0.7689211 0.3460958
vt 0.8105423 0.3308889
vt 0.8524479 0.3381771
vt 0.8886692 0.3474106
vt 0.8329344 0.3511908
vt 0.8061351 0.3374085
vt 0.85313 0.3539037
vt 0.9412622 0.3564416
vt 0.8329344 0.3511908
vt 0.85313 0.3539037
vt 0.8061351 0.3374085
vt 0.7744665 0.3499083
vt 0.7804364 0.3422871
vt 0.76674 0.3352433
vt 0.8524479 0.3381771
vt 0.8105423 0.3308889
vt 0.7730484 0.3281583
vt 0.7659485 0.3342702
vt 0.7560701 0.348289
vt 0.7671571 0.3458742
vt 0.7803307 0.3485867
vt 0.8466754 0.3419853
vt 0.8886692 0.3474106
vt 0.8831349 0.33243
vt 0.8676772 0.3458
vt 0.8329344 0.3511908
vt 0.9366325 0.3629324
vt 0.9125814 0.3609388
vt 0.909054 0.345134
vt 0.9412622 0.3564416
vt 0.9300824 0.3456304
vt 0.8842536 0.3344029
vt 0.1126753 0.7862076
vt 0.1118596 0.7895905
vt 0.09632534 0.767949
vt 0.1269844 0.7753063
vt 0.101304 0.7977625
vt 0.1460637 0.7719982
vt 0.1737775 0.7632704
vt 0.1428728 0.7676252
vt 0.1018602 0.766674
vt 0.09990607 0.7638261
vt 0.08630722 0.7604355
vt 0.101304 0.7977625
vt 0.1118596 0.7895905
vt 0.1126753 0.7862076
vt 0.1442471 0.7709962
vt 0.1460637 0.7719982
vt 0.09632534 0.767949
vt 0.1737775 0.7632704
vt 0.08630722 0.7604355
vt 0.1428728 0.7676252
vt 0.9276622 0.4808544
vt 0.9463401 0.4957294
vt 0.9654236 0.484632
vt 0.8716664 0.4809529
vt 0.7973456 0.4769326
vt 0.8534696 0.4847972
vt 0.7736745 0.4755951
vt 0.7082685 0.4718461
vt 0.7070646 0.4562003
vt 0.8051154 0.4908963
vt 0.719148 0.49898
vt 0.7162902 0.5010966
vt 0.7699879 0.4902447
vt 0.9158751 0.4900077
vt 0.8863837 0.4903156
vt 0.8796874 0.4965062
vt 0.8781088 0.4868239
vt 0.8427569 0.4846691
vt 0.7839733 0.4912494
vt 0.8716664 0.4809529
vt 0.8534696 0.4847972
vt 0.8427569 0.4846691
vt 0.8051154 0.4908963
vt 0.7839733 0.4912494
vt 0.9655132 0.4947917
vt 0.9633036 0.4817516
vt 0.9654236 0.484632
vt 0.8899913 0.487188
vt 0.8782293 0.4914308
vt 0.8796874 0.4965062
vt 0.8459065 0.4890333
vt 0.7839733 0.4912494
vt 0.7851325 0.4838254
vt 0.7699879 0.4902447
vt 0.7279319 0.4937218
vt 0.7162902 0.5010966
vt 0.6871604 0.4594615
vt 0.7418975 0.4830642
vt 0.7444735 0.4785366
vt 0.7070646 0.4562003
vt 0.7736745 0.4755951
vt 0.8170149 0.4841146
vt 0.7973456 0.4769326
vt 0.8542958 0.4860569
vt 0.9276622 0.4808544
vt 0.9654236 0.484632
vt 0.841267 0.1056583
vt 0.8404567 0.1057101
vt 0.8153453 0.1015601
vt 0.8199506 0.09791022
vt 0.9572605 0.06722737
vt 0.9568262 0.07543014
vt 0.8670316 0.09954432
vt 0.8019987 0.09677802
vt 0.8033217 0.09912673
vt 0.7719435 0.09093741
vt 0.841267 0.1056583
vt 0.8670316 0.09954432
vt 0.8404567 0.1057101
vt 0.8926386 0.08480804
vt 0.9572605 0.06722737
vt 0.9568262 0.07543014
vt 0.8199506 0.09791022
vt 0.8574721 0.09524751
vt 0.7907784 0.09683634
vt 0.7843755 0.09874565
vt 0.7719435 0.09093741
vt 0.8019987 0.09677802
vt 0.8199506 0.09791022
vt 0.7728149 0.116699
vt 0.7794465 0.1188076
vt 0.770354 0.1098522
vt 0.7354651 0.06962133
vt 0.723844 0.04112509
vt 0.7165813 0.062031
vt 0.7794465 0.1188076
vt 0.7001606 0.03215883
vt 0.6827149 0.04026115
vt 0.6890264 0.04044236
vt 0.699486 0.03619008
vt 0.7207885 0.02989514
vt 0.7218679 0.04425514
vt 0.7309254 0.05768546
vt 0.7794465 0.1188076
vt 0.8033217 0.09912673
vt 0.8404567 0.1057101
vt 0.7694024 0.1203181
vt 0.7542688 0.09024773
vt 0.7309254 0.05768546
vt 0.7048776 0.04876278
vt 0.7207885 0.02989514
vt 0.699486 0.03619008
vt 0.6827149 0.04026115
vt 0.7794465 0.1188076
vt 0.7218679 0.04425514
vt 0.7719435 0.09093741
vt 0.7309254 0.05768546
vt 0.723844 0.04112509
vt 0.7843755 0.09874565
vt 0.7001606 0.03215883
vt 0.6890264 0.04044236
vt 0.3861814 0.04759114
vt 0.3452239 0.07558194
vt 0.3336571 0.07877202
vt 0.3323187 0.08561473
vt 0.359671 0.07124528
vt 0.4075489 0.1121163
vt 0.4347173 0.1169845
vt 0.3530098 0.09691596
vt 0.4266692 0.1158732
vt 0.4317958 0.1242214
vt 0.3844749 0.1087773
vt 0.4347173 0.1169845
vt 0.4496013 0.1035568
vt 0.3530098 0.09691596
vt 0.3844749 0.1087773
vt 0.3323187 0.08561473
vt 0.3452239 0.07558194
vt 0.2998965 0.07647445
vt 0.3861814 0.04759114
vt 0.3531837 0.07108609
vt 0.3336571 0.07877202
vt 0.2998965 0.07647445
vt 0.359671 0.07124528
vt 0.3861814 0.04759114
vt 0.3500999 0.09504482
vt 0.3847685 0.107265
vt 0.3844749 0.1087773
vt 0.4317958 0.1242214
vt 0.4101322 0.1152118
vt 0.4347173 0.1169845
vt 0.3359004 0.08676582
vt 0.3500999 0.09504482
vt 0.2998965 0.07647445
vt 0.3844749 0.1087773
vt 0.3359004 0.08676582
vt 0.2998965 0.07647445
vt 0.3844749 0.1087773
vt 0.2809734 0.07395107
vt 0.2569534 0.06901442
vt 0.2602222 0.06291855
vt 0.2246148 0.05994086
vt 0.2121639 0.05475093
vt 0.2132076 0.05699388
vt 0.3067236 0.07218693
vt 0.3452239 0.07558194
vt 0.3336571 0.07877202
vt 0.2809734 0.07395107
vt 0.2569534 0.06901442
vt 0.2246148 0.05994086
vt 0.2132076 0.05699388
vt 0.2121639 0.05475093
vt 0.4079495 0.6254906
vt 0.3174732 0.6271498
vt 0.3991245 0.6282429
vt 0.3374242 0.6257802
vt 0.3593458 0.6245285
vt 0.4068401 0.6241348
vt 0.3395257 0.6240936
vt 0.3154709 0.6254494
vt 0.2740792 0.6252954
vt 0.2474082 0.6181141
vt 0.3838674 0.6264247
vt 0.2423136 0.621319
vt 0.1810898 0.619941
vt 0.2295905 0.6194417
vt 0.1809336 0.6185327
vt 0.1401474 0.6157957
vt 0.174881 0.6167333
vt 0.1411458 0.6146402
vt 0.1367889 0.6128089
vt 0.3838674 0.6264247
vt 0.3395257 0.6240936
vt 0.3593458 0.6245285
vt 0.4063148 0.6259093
vt 0.4068401 0.6241348
vt 0.3991245 0.6282429
vt 0.3174732 0.6271498
vt 0.2740792 0.6252954
vt 0.2735718 0.6234953
vt 0.2474082 0.6181141
vt 0.1810898 0.619941
vt 0.2295905 0.6194417
vt 0.2072417 0.6198782
vt 0.1401474 0.6157957
vt 0.174881 0.6167333
vt 0.1599086 0.616797
vt 0.1367889 0.6128089
vt 0.05286064 0.4132774
vt 0.08408242 0.4409855
vt 0.04590075 0.4074755
vt 0.0458077 0.4044073
vt 0.04447764 0.374513
vt 0.04122099 0.3187174
vt 0.04723692 0.3618816
vt 0.07925028 0.4307866
vt 0.08325189 0.4426184
vt 0.08635356 0.443608
vt 0.0925894 0.4560598
vt 0.05581922 0.3888258
vt 0.05389446 0.3690683
vt 0.0397192 0.3210167
vt 0.04122099 0.3187174
vt 0.08325189 0.4426184
vt 0.08408242 0.4409855
vt 0.05286064 0.4132774
vt 0.0925894 0.4560598
vt 0.07893907 0.4294734
vt 0.05051725 0.3898008
vt 0.05581922 0.3888258
vt 0.05389446 0.3690683
vt 0.0925894 0.4560598
vt 0.07925028 0.4307866
vt 0.08635356 0.443608
vt 0.08408242 0.4409855
vt 0.05051725 0.3898008
vt 0.05389446 0.3690683
vt 0.04045404 0.3207498
vt 0.04122099 0.3187174
vt 0.8518601 0.3441387
vt 0.9412622 0.3564416
vt 0.85313 0.3539037
vt 0.8307294 0.3409637
vt 0.7803307 0.3485867
vt 0.7744665 0.3499083
vt 0.76674 0.3352433
vt 0.7689211 0.3460958
vt 0.7560701 0.348289
vt 0.7711049 0.3403531
vt 0.8125808 0.3325191
vt 0.8125808 0.3325191
vt 0.7659485 0.3342702
vt 0.7730484 0.3281583
vt 0.8105423 0.3308889
vt 0.8567527 0.3359336
vt 0.7966844 0.343411
vt 0.845063 0.3413188
vt 0.8876898 0.3357012
vt 0.8831349 0.33243
vt 0.9095166 0.345353
vt 0.9328202 0.3656767
vt 0.9398106 0.3560569
vt 0.9300824 0.3456304
vt 0.9412622 0.3564416
vt 0.9125814 0.3609388
vt 0.8329344 0.3511908
vt 0.9412622 0.3564416
vt 0.9366325 0.3629324
vt 0.3452239 0.07558194
vt 0.27778 0.07174523
vt 0.2602222 0.06291855
vt 0.3844749 0.1087773
vt 0.2121639 0.05475093
vt 0.2809734 0.07395107
vt 0.2134044 0.05790874

f 3/3/3 2/2/2 1/1/1
f 6/6/6 5/5/5 4/4/4
f 9/9/9 8/8/8 7/7/7
f 12/12/12 11/11/11 10/10/10
f 15/15/15 14/14/14 13/13/13
f 18/18/18 17/17/17 16/16/16
f 21/21/21 20/20/20 19/19/19
f 24/24/24 23/23/23 22/22/22
f 27/27/27 26/26/26 25/25/25
f 30/30/30 29/29/29 28/28/28
f 33/33/33 32/32/32 31/31/31
f 36/36/36 35/35/35 34/34/34
f 39/39/39 38/38/38 37/37/37
f 42/42/42 41/41/41 40/40/40
f 45/45/45 44/44/44 43/43/43
f 48/48/48 47/47/47 46/46/46
f 51/51/51 50/50/50 49/49/49
f 54/54/54 53/53/53 52/52/52
f 57/57/57 56/56/56 55/55/55
f 60/60/60 59/59/59 58/58/58
f 63/63/63 62/62/62 61/61/61
f 66/66/66 65/65/65 64/64/64
f 69/69/69 68/68/68 67/67/67
f 72/72/72 71/71/71 70/70/70
f 75/75/75 74/74/74 73/73/73
f 78/78/78 77/77/77 76/76/76
f 81/81/81 80/80/80 79/79/79
f 84/84/84 83/83/83 82/82/82
f 87/87/87 86/86/86 85/85/85
f 90/90/90 89/89/89 88/88/88
f 93/93/93 92/92/92 91/91/91
f 96/96/96 95/95/95 94/94/94
f 99/99/99 98/98/98 97/97/97
f 102/102/102 101/101/101 100/100/100
f 105/105/105 104/104/104 103/103/103
f 108/108/108 107/107/107 106/106/106
f 111/111/111 110/110/110 109/109/109
f 114/114/114 113/113/113 112/112/112
f 117/117/117 116/116/116 115/115/115
f 117/117/117 119/119/119 118/118/118
f 118/118/118 119/119/119 120/120/120
f 119/119/119 121/121/121 120/120/120
f 118/118/118 120/120/120 121/121/121
f 118/118/118 121/121/121 122/122/122
f 122/122/122 121/121/121 123/123/123
f 121/121/121 124/124/124 123/123/123
f 124/124/124 121/121/121 125/125/125
f 121/121/121 126/126/126 125/125/125
f 121/121/121 127/127/127 126/126/126
f 127/127/127 128/128/128 126/126/126
f 128/128/128 127/127/127 121/121/121
f 129/129/129 118/118/118 122/122/122
f 130/130/130 129/129/129 122/122/122
f 131/131/131 130/130/130 123/123/123
f 132/132/132 118/118/118 129/129/129
f 132/132/132 129/129/129 130/130/130
f 133/133/133 118/118/118 132/132/132
f 132/132/132 130/130/130 133/133/133
f 133/133/133 130/130/130 134/134/134
f 134/134/134 135/135/135 133/133/133
f 136/136/136 134/134/134 130/130/130
f 136/136/136 137/137/137 134/134/134
f 138/138/138 137/137/137 136/136/136
f 138/138/138 136/136/136 131/131/131
f 130/130/130 131/131/131 139/139/139
f 136/136/136 139/139/139 131/131/131
f 139/139/139 136/136/136 130/130/130
f 142/142/142 141/141/141 140/140/140
f 142/142/142 140/140/140 143/143/143
f 143/143/143 140/140/140 144/144/144
f 143/143/143 144/144/144 145/145/145
f 145/145/145 146/146/146 143/143/143
f 147/147/147 143/143/143 146/146/146
f 142/142/142 143/143/143 148/148/148
f 148/148/148 143/143/143 147/147/147
f 148/148/148 149/149/149 142/142/142
f 148/148/148 147/147/147 149/149/149
f 149/149/149 150/150/150 142/142/142
f 147/147/147 150/150/150 149/149/149
f 153/153/153 152/152/152 151/151/151
f 151/151/151 152/152/152 154/154/154
f 151/151/151 154/154/154 155/155/155
f 154/154/154 152/152/152 156/156/156
f 155/155/155 154/154/154 157/157/157
f 156/156/156 158/158/158 154/154/154
f 154/154/154 159/159/159 157/157/157
f 159/159/159 154/154/154 158/158/158
f 162/162/162 161/161/161 160/160/160
f 161/161/161 163/163/163 160/160/160
f 164/164/164 160/160/160 163/163/163
f 163/163/163 165/165/165 164/164/164
f 166/166/166 164/164/164 165/165/165
f 166/166/166 165/165/165 167/167/167
f 166/166/166 167/167/167 168/168/168
f 169/169/169 167/167/167 165/165/165
f 170/170/170 167/167/167 169/169/169
f 171/171/171 167/167/167 170/170/170
f 172/172/172 171/171/171 170/170/170
f 173/173/173 163/163/163 161/161/161
f 161/161/161 174/174/174 173/173/173
f 173/173/173 174/174/174 163/163/163
f 161/161/161 175/175/175 174/174/174
f 176/176/176 163/163/163 174/174/174
f 175/175/175 176/176/176 174/174/174
f 176/176/176 177/177/177 163/163/163
f 175/175/175 177/177/177 176/176/176
f 177/177/177 175/175/175 178/178/178
f 181/181/181 180/180/180 179/179/179
f 182/182/182 180/180/180 181/181/181
f 182/182/182 181/181/181 183/183/183
f 186/186/186 185/185/185 184/184/184
f 184/184/184 185/185/185 187/187/187
f 187/187/187 188/188/188 184/184/184
f 189/189/189 184/184/184 188/188/188
f 190/190/190 189/189/189 188/188/188
f 188/188/188 187/187/187 190/190/190
f 191/191/191 189/189/189 190/190/190
f 191/191/191 190/190/190 192/192/192
f 193/193/193 191/191/191 192/192/192
f 193/193/193 192/192/192 194/194/194
f 195/195/195 193/193/193 194/194/194
f 195/195/195 194/194/194 196/196/196
f 194/194/194 197/197/197 196/196/196
f 194/194/194 192/192/192 197/197/197
f 196/196/196 197/197/197 198/198/198
f 197/197/197 192/192/192 198/198/198
f 196/196/196 198/198/198 199/199/199
f 199/199/199 198/198/198 200/200/200
f 198/198/198 192/192/192 201/201/201
f 201/201/201 200/200/200 198/198/198
f 192/192/192 190/190/190 201/201/201
f 202/202/202 200/200/200 201/201/201
f 203/203/203 201/201/201 190/190/190
f 201/201/201 203/203/203 202/202/202
f 187/187/187 203/203/203 190/190/190
f 202/202/202 203/203/203 187/187/187
f 204/204/204 202/202/202 187/187/187
f 205/205/205 204/204/204 187/187/187
f 208/208/208 207/207/207 206/206/206
f 209/209/209 208/208/208 206/206/206
f 210/210/210 209/209/209 206/206/206
f 210/210/210 206/206/206 211/211/211
f 212/212/212 211/211/211 206/206/206
f 209/209/209 213/213/213 208/208/208
f 213/213/213 214/214/214 208/208/208
f 213/213/213 215/215/215 214/214/214
f 218/218/218 217/217/217 216/216/216
f 217/217/217 218/218/218 219/219/219
f 219/219/219 220/220/220 217/217/217
f 220/220/220 221/221/221 217/217/217
f 219/219/219 222/222/222 220/220/220
f 222/222/222 219/219/219 223/223/223
f 219/219/219 218/218/218 223/223/223
f 218/218/218 224/224/224 223/223/223
f 218/218/218 225/225/225 224/224/224
f 226/226/226 224/224/224 225/225/225
f 224/224/224 226/226/226 227/227/227
f 224/224/224 227/227/227 228/228/228
f 218/218/218 229/229/229 225/225/225
f 229/229/229 218/218/218 230/230/230
f 225/225/225 229/229/229 231/231/231
f 231/231/231 232/232/232 225/225/225
f 233/233/233 225/225/225 232/232/232
f 231/231/231 234/234/234 232/232/232
f 232/232/232 234/234/234 233/233/233
f 235/235/235 234/234/234 231/231/231
f 233/233/233 234/234/234 236/236/236
f 237/237/237 234/234/234 235/235/235
f 238/238/238 236/236/236 234/234/234
f 237/237/237 238/238/238 234/234/234
f 237/237/237 239/239/239 238/238/238
f 240/240/240 238/238/238 239/239/239
f 238/238/238 240/240/240 241/241/241
f 242/242/242 241/241/241 240/240/240
f 245/245/245 244/244/244 243/243/243
f 244/244/244 246/246/246 243/243/243
f 247/247/247 246/246/246 244/244/244
f 244/244/244 248/248/248 247/247/247
f 249/249/249 246/246/246 247/247/247
f 248/248/248 249/249/249 247/247/247
f 250/250/250 249/249/249 248/248/248
f 251/251/251 249/249/249 250/250/250
f 252/252/252 249/249/249 251/251/251
f 252/252/252 253/253/253 249/249/249
f 256/256/256 255/255/255 254/254/254
f 255/255/255 257/257/257 254/254/254
f 255/255/255 258/258/258 257/257/257
f 257/257/257 259/259/259 254/254/254
f 254/254/254 259/259/259 260/260/260
f 263/263/263 262/262/262 261/261/261
f 264/264/264 261/261/261 262/262/262
f 264/264/264 265/265/265 261/261/261
f 265/265/265 264/264/264 266/266/266
f 266/266/266 267/267/267 265/265/265
f 264/264/264 268/268/268 266/266/266
f 267/267/267 266/266/266 269/269/269
f 266/266/266 268/268/268 270/270/270
f 270/270/270 269/269/269 266/266/266
f 268/268/268 271/271/271 270/270/270
f 269/269/269 270/270/270 272/272/272
f 269/269/269 272/272/272 273/273/273
f 276/276/276 275/275/275 274/274/274
f 275/275/275 276/276/276 277/277/277
f 280/280/280 279/279/279 278/278/278
f 280/280/280 278/278/278 281/281/281
f 284/284/284 283/283/283 282/282/282
f 285/285/285 282/282/282 283/283/283
f 283/283/283 286/286/286 285/285/285
f 286/286/286 287/287/287 285/285/285
f 287/287/287 286/286/286 288/288/288
f 289/289/289 286/286/286 283/283/283
f 288/288/288 286/286/286 289/289/289
f 290/290/290 289/289/289 283/283/283
f 290/290/290 288/288/288 289/289/289
f 293/293/293 292/292/292 291/291/291
f 294/294/294 291/291/291 292/292/292
f 297/297/297 296/296/296 295/295/295
f 298/298/298 296/296/296 297/297/297
f 298/298/298 299/299/299 296/296/296
f 300/300/300 296/296/296 299/299/299
f 299/299/299 301/301/301 300/300/300
f 300/300/300 301/301/301 302/302/302
f 302/302/302 301/301/301 303/303/303
f 296/296/296 300/300/300 304/304/304
f 300/300/300 305/305/305 304/304/304
f 296/296/296 304/304/304 306/306/306
f 305/305/305 306/306/306 304/304/304
f 309/309/309 308/308/308 307/307/307
f 307/307/307 310/310/310 309/309/309
f 311/311/311 310/310/310 307/307/307
f 314/314/314 313/313/313 312/312/312
f 315/315/315 312/312/312 313/313/313
f 315/315/315 316/316/316 312/312/312
f 317/317/317 312/312/312 316/316/316
f 316/316/316 315/315/315 318/318/318
f 315/315/315 313/313/313 319/319/319
f 318/318/318 315/315/315 319/319/319
f 313/313/313 320/320/320 319/319/319
f 321/321/321 318/318/318 319/319/319
f 318/318/318 321/321/321 322/322/322
f 323/323/323 319/319/319 320/320/320
f 319/319/319 323/323/323 321/321/321
f 324/324/324 323/323/323 320/320/320
f 321/321/321 323/323/323 325/325/325
f 323/323/323 324/324/324 326/326/326
f 325/325/325 323/323/323 326/326/326
f 324/324/324 327/327/327 326/326/326
f 325/325/325 326/326/326 328/328/328
f 327/327/327 329/329/329 326/326/326
f 328/328/328 326/326/326 329/329/329
f 330/330/330 329/329/329 327/327/327
f 328/328/328 329/329/329 330/330/330
f 333/333/333 332/332/332 331/331/331
f 333/333/333 331/331/331 334/334/334
f 335/335/335 333/333/333 334/334/334
f 331/331/331 336/336/336 334/334/334
f 337/337/337 336/336/336 331/331/331
f 338/338/338 337/337/337 331/331/331
f 338/338/338 331/331/331 339/339/339
f 340/340/340 339/339/339 331/331/331
f 341/341/341 338/338/338 339/339/339
f 342/342/342 339/339/339 340/340/340
f 339/339/339 343/343/343 341/341/341
f 339/339/339 342/342/342 343/343/343
f 341/341/341 343/343/343 344/344/344
f 343/343/343 342/342/342 345/345/345
f 344/344/344 343/343/343 346/346/346
f 345/345/345 346/346/346 343/343/343
f 344/344/344 346/346/346 347/347/347
f 347/347/347 346/346/346 345/345/345
f 350/350/350 349/349/349 348/348/348
f 348/348/348 351/351/351 350/350/350
f 350/350/350 351/351/351 352/352/352
f 351/351/351 348/348/348 352/352/352
f 353/353/353 350/350/350 352/352/352
f 353/353/353 352/352/352 354/354/354
f 352/352/352 348/348/348 355/355/355
f 355/355/355 348/348/348 356/356/356
f 355/355/355 356/356/356 357/357/357
f 356/356/356 358/358/358 357/357/357
f 359/359/359 352/352/352 355/355/355
f 359/359/359 360/360/360 352/352/352
f 352/352/352 360/360/360 354/354/354
f 361/361/361 354/354/354 360/360/360
f 361/361/361 360/360/360 362/362/362
f 365/365/365 364/364/364 363/363/363
f 364/364/364 366/366/366 363/363/363
f 366/366/366 364/364/364 367/367/367
f 367/367/367 364/364/364 368/368/368
f 368/368/368 370/370/370 369/369/369
f 368/368/368 369/369/369 371/371/371
f 369/369/369 372/372/372 371/371/371
f 371/371/371 372/372/372 373/373/373
f 376/376/376 375/375/375 374/374/374
f 374/374/374 377/377/377 376/376/376
f 378/378/378 377/377/377 374/374/374
f 381/381/381 380/380/380 379/379/379
f 382/382/382 381/381/381 379/379/379
f 381/381/381 382/382/382 383/383/383
f 381/381/381 383/383/383 384/384/384
f 384/384/384 383/383/383 385/385/385
f 383/383/383 382/382/382 386/386/386
f 386/386/386 387/387/387 383/383/383
f 386/386/386 382/382/382 388/388/388
f 382/382/382 389/389/389 388/388/388
f 387/387/387 386/386/386 390/390/390
f 391/391/391 387/387/387 390/390/390
f 392/392/392 391/391/391 390/390/390
f 392/392/392 390/390/390 393/393/393
f 393/393/393 390/390/390 394/394/394
f 394/394/394 390/390/390 395/395/395
f 395/395/395 382/382/382 394/394/394
f 379/379/379 396/396/396 382/382/382
f 382/382/382 396/396/396 394/394/394
f 379/379/379 394/394/394 396/396/396
f 393/393/393 394/394/394 397/397/397
f 398/398/398 393/393/393 397/397/397
f 379/379/379 399/399/399 394/394/394
f 397/397/397 394/394/394 399/399/399
f 399/399/399 379/379/379 400/400/400
f 397/397/397 401/401/401 398/398/398
f 397/397/397 399/399/399 401/401/401
f 401/401/401 399/399/399 400/400/400
f 402/402/402 398/398/398 401/401/401
f 403/403/403 401/401/401 400/400/400
f 401/401/401 403/403/403 402/402/402
f 406/406/406 405/405/405 404/404/404
f 406/406/406 404/404/404 407/407/407
f 410/410/410 409/409/409 408/408/408
f 409/409/409 411/411/411 408/408/408
f 412/412/412 409/409/409 410/410/410
f 409/409/409 413/413/413 411/411/411
f 414/414/414 409/409/409 412/412/412
f 413/413/413 409/409/409 414/414/414
