﻿
o pack3_5450_Var2
v -18.65819 -6.594981 -6.133881
v 12.89367 -9.894202 -7.20069
v 3.890404 -7.0576 -7.38418
v 26.37303 -11.2931 11.34956
v -13.65141 -10.92858 27.75587
v 26.90068 -9.464394 22.29724
v 13.72655 -6.534159 41.43874
v -9.438605 -12.68564 40.81076
v -0.291016 -8.496705 59.68857
v 3.210248 -9.313464 58.95039
v 11.09996 -28.72046 -2.892597
v 4.42783 -0.7463329 -7.20069
v 5.501313 -11.32981 -7.384177
v 6.345782 12.25811 11.26296
v 10.33883 -26.78335 27.75586
v 10.00039 11.02349 24.01259
v 4.370668 -1.542408 41.19524
v -0.7051263 -20.95039 44.28204
v 3.489424 -15.74557 60.30888
v 5.224876 -11.76906 59.86774
v -6.736903 -28.8385 -6.764744
v 9.938738 -4.43224 -7.20069
v 4.165802 -11.28396 -7.38418
v 20.12128 9.212991 11.25125
v -5.186941 -24.85152 27.75587
v 24.66893 0.7036209 24.55743
v 12.20995 -5.280196 41.43874
v -4.99754 -21.5054 44.28205
v 2.526117 -11.72786 60.65996
v 5.933619 -9.267434 60.29998
v 20.88328 -24.82449 -2.892597
v -1.653863 -5.93031 -11.10367
v 7.160164 -11.10137 -7.38418
v -11.40754 7.93125 10.66637
v 18.76152 -19.19324 28.57789
v -9.696291 2.1213 23.60195
v 0.1713559 -3.058527 41.43873
v 13.89374 -17.31844 40.76095
v 11.13923 -11.90167 58.48658
v 6.76236 -7.427744 59.03994
v 5.242111 8.095276 -2.022991
v -25.23168 -0.7224582 -3.0898
v -15.8228 0.03783032 -3.273293
v -38.24649 -4.499303 15.46045
v -1.027496 10.22599 31.86675
v -38.04713 -6.392138 26.40813
v -24.73879 -4.148917 45.54962
v -5.591832 10.2684 44.92164
v -12.49039 2.944786 63.79945
v -16.04163 2.383812 63.06127
v -27.67418 15.37162 1.218292
v -10.96466 -8.03481 -3.0898
v -15.94227 1.366564 -3.27329
v -7.847451 -20.80497 15.37385
v -26.23999 13.86338 31.86675
v -11.69801 -21.03651 28.12348
v -11.2113 -7.275751 45.30613
v -13.81279 12.6156 48.39293
v -15.74014 6.21485 64.41976
v -15.85146 1.877557 63.97863
v -12.37629 20.40573 -2.653855
v -18.64075 -8.481962 -3.0898
v -15.87085 0.03863275 -3.27329
v -22.93935 -24.95614 15.36213
v -12.31182 16.12856 31.86675
v -30.3551 -18.78387 28.66832
v -21.0641 -8.551107 45.54962
v -11.228 12.95717 48.39294
v -14.51878 1.066986 64.77084
v -16.74979 -2.494947 64.41087
v -35.60729 9.035496 1.218292
v -7.616353 0.01217425 -6.992778
v -17.72847 1.485933 -3.273293
v 6.636953 -9.159527 14.77726
v -31.52222 4.616772 32.68877
v 2.864975 -4.420748 27.71284
v -8.226599 -3.335387 45.54962
v -26.30675 4.711779 44.87184
v -21.71619 0.7298969 62.59746
v -15.97736 -1.767889 63.15082
v 25.38552 19.24718 -3.889111
v -5.088276 10.42944 -4.955921
v 4.320607 11.18973 -5.13941
v -18.10309 6.652596 13.59433
v 19.11591 21.37789 30.00063
v -17.90373 4.759764 24.54201
v -4.595385 7.002986 43.6835
v 14.55157 21.4203 43.05552
v 7.653007 14.09669 61.93333
v 4.101778 13.53571 61.19515
v -7.530782 26.52352 -0.6478282
v 9.178742 3.1171 -4.955921
v 4.201139 12.51847 -5.139408
v 12.29595 -9.653063 13.50773
v -6.096587 25.01529 30.00063
v 8.445397 -9.884608 26.25736
v 8.9321 3.876155 43.44001
v 6.330612 23.76751 46.52681
v 4.403261 17.36675 62.55364
v 4.291942 13.02946 62.11251
v 7.767117 31.55764 -4.519975
v 1.502663 2.669942 -4.955921
v 4.272559 11.19054 -5.13941
v -2.795943 -13.80424 13.49601
v 7.831592 27.28046 30.00063
v -10.2117 -7.631963 26.8022
v -0.920691 2.6008 43.6835
v 8.915408 24.10908 46.52682
v 5.62463 12.21889 62.90472
v 3.393619 8.65696 62.54475
v -15.46389 20.1874 -0.6478282
v 12.52705 11.16408 -8.858901
v 2.414932 12.63784 -5.13941
v 26.78036 1.992374 12.91114
v -11.37882 15.76867 30.82265
v 23.00838 6.731158 25.84672
v 11.91681 7.816516 43.68349
v -6.163349 15.86368 43.00572
v -1.572782 11.8818 60.73134
v 4.166044 9.384013 61.2847

vn -0.07246611 -0.9874764 -0.1401393
vn -0.1065758 -0.9902599 -0.0895926
vn -0.05871181 -0.2488848 -0.9667519
vn -0.01280898 -0.9989881 0.04311232
vn 0.06396353 -0.996206 -0.05900927
vn 0.05866986 -0.9833317 0.1720952
vn 0.1343979 -0.9869257 0.08896568
vn 0.2578979 -0.9608271 -0.1014881
vn 0.04136919 -0.9962975 -0.07536442
vn -0.2776046 -0.908972 -0.3109752
vn 0.9864354 0.1329993 -0.09620992
vn 0.9442921 0.1831094 -0.2734653
vn 0.7777039 0.08966983 -0.6222024
vn 0.9806864 0.07619166 -0.1801361
vn 0.977176 0.02297513 0.2111855
vn 0.9970781 0.00136353 -0.07637729
vn 0.9596712 -0.09533253 0.2644674
vn 0.9439437 -0.2058232 0.2580835
vn 0.916927 -0.3393818 -0.2099161
vn 0.8727444 -0.4102427 -0.2646093
vn 0.8137853 -0.5809355 -0.01635896
vn 0.8223428 -0.5633017 -0.08027201
vn 0.2645229 -0.1975967 -0.9439191
vn 0.7082582 -0.6476426 -0.2809438
vn 0.73446 -0.6780978 0.02741797
vn 0.5866387 -0.7294064 -0.3518825
vn 0.6658043 -0.72747 0.1658067
vn 0.6915102 -0.7114644 0.1250278
vn 0.6470342 -0.7591162 0.07134001
vn 0.5869137 -0.8092871 0.02422111
vn 0.6786752 0.73182 -0.06196406
vn 0.6588326 0.7469392 -0.08956247
vn -0.4767544 -0.1963118 0.8568354
vn 0.6439008 0.7644635 0.0314211
vn 0.673806 0.7388039 0.01242527
vn 0.5718657 0.8028556 0.1685008
vn 0.6655293 0.7435484 -0.06485919
vn 0.720346 0.6896906 0.07367842
vn 0.7104872 0.6972082 -0.09543876
vn 0.7063052 0.7021387 -0.09019057
vn -0.3044938 0.9421487 -0.1401402
vn -0.2739394 0.9575648 -0.08959211
vn -0.03927196 0.2526846 -0.9667514
vn -0.3640973 0.9303626 0.04311234
vn -0.4341786 0.8988919 -0.05900933
vn -0.4244286 0.8889564 0.1720953
vn -0.4959418 0.8637864 0.08896574
vn -0.6005402 0.7931278 -0.101488
vn -0.4132796 0.9074802 -0.07536413
vn -0.08489271 0.9466191 -0.310975
vn -0.8638585 -0.4944614 -0.09621024
vn -0.8059551 -0.5250269 -0.2734652
vn -0.6867805 -0.3757631 -0.6222013
vn -0.8799115 -0.4396667 -0.180136
vn -0.8966868 -0.3890416 0.2111856
vn -0.9232593 -0.3765089 -0.0763771
vn -0.9249936 -0.2728441 0.2644674
vn -0.9520051 -0.1645579 0.2580835
vn -0.9772388 -0.03065122 -0.209916
vn -0.9629728 0.05162753 -0.2646092
vn -0.9725877 0.2319605 -0.01635661
vn -0.9738797 0.2124027 -0.08027177
vn -0.3194394 0.08351693 -0.9439191
vn -0.899924 0.3334779 -0.2809438
vn -0.9356611 0.351833 0.027418
vn -0.8180175 0.4550011 -0.3518823
vn -0.8906341 0.4234136 0.1658068
vn -0.9084265 0.3989104 0.1250278
vn -0.8851537 0.4597974 0.07133996
vn -0.8483346 0.5289062 0.02422115
vn -0.3533614 -0.9334325 -0.06196335
vn -0.3292879 -0.9399723 -0.08956246
vn 0.3678221 0.3613017 0.856836
vn -0.3088587 -0.9505888 0.03142107
vn -0.3462221 -0.9380702 0.01242531
vn -0.227671 -0.9590483 0.1685007
vn -0.3367684 -0.939351 -0.06485921
vn -0.4078243 -0.9100829 0.0736785
vn -0.3958611 -0.9133375 -0.09543888
vn -0.3901307 -0.9163316 -0.09019067
vn -0.3044937 0.9421487 -0.1401406
vn -0.2739395 0.9575648 -0.08959247
vn -0.03927147 0.252683 -0.9667518
vn -0.3640972 0.9303626 0.04311225
vn -0.4341784 0.898892 -0.0590093
vn -0.4244286 0.8889564 0.1720951
vn -0.4959418 0.8637864 0.08896571
vn -0.6005398 0.7931281 -0.101488
vn -0.4132798 0.9074801 -0.07536422
vn -0.08489297 0.9466191 -0.310975
vn -0.8638585 -0.4944615 -0.09621049
vn -0.8059547 -0.525027 -0.2734657
vn -0.6867794 -0.3757623 -0.6222032
vn -0.8799114 -0.4396668 -0.1801361
vn -0.8966868 -0.3890416 0.2111856
vn -0.9232591 -0.376509 -0.07637709
vn -0.9249936 -0.2728441 0.2644674
vn -0.9520051 -0.1645579 0.2580835
vn -0.9772389 -0.03065111 -0.2099158
vn -0.9629728 0.05162784 -0.264609
vn -0.9725877 0.2319604 -0.01635746
vn -0.9738796 0.2124025 -0.08027273
vn -0.3194392 0.08351676 -0.9439192
vn -0.899924 0.333478 -0.2809438
vn -0.9356611 0.351833 0.02741807
vn -0.8180175 0.4550013 -0.3518823
vn -0.8906341 0.4234135 0.1658067
vn -0.9084265 0.3989104 0.1250277
vn -0.8851537 0.4597972 0.07133999
vn -0.8483348 0.5289058 0.02422113
vn -0.3533614 -0.9334325 -0.06196307
vn -0.3292877 -0.9399725 -0.08956207
vn 0.3678221 0.361304 0.8568351
vn -0.3088587 -0.9505888 0.03142115
vn -0.346222 -0.9380704 0.01242532
vn -0.227671 -0.9590482 0.1685008
vn -0.3367684 -0.939351 -0.06485926
vn -0.4078241 -0.910083 0.07367835
vn -0.3958612 -0.9133375 -0.09543877
vn -0.3901312 -0.9163314 -0.09019063

vt 0.4031804 0.08349827
vt 0.708888 0.03617522
vt 0.6165289 0.03415963
vt 0.881915 0.2399436
vt 0.4405403 0.4291914
vt 0.8769847 0.3602003
vt 0.7381423 0.5704634
vt 0.4898942 0.5635654
vt 0.5994905 0.7622354
vt 0.6399948 0.7609631
vt 0.4031804 0.08349827
vt 0.708888 0.03617522
vt 0.6165289 0.03415963
vt 0.881915 0.2399436
vt 0.4405403 0.4291914
vt 0.8769847 0.3602003
vt 0.7381423 0.5704634
vt 0.4898942 0.5635654
vt 0.5994905 0.7622354
vt 0.6399948 0.7609631
vt 0.4031804 0.08349827
vt 0.708888 0.03617522
vt 0.6165289 0.03415963
vt 0.881915 0.2399436
vt 0.4405403 0.4291914
vt 0.8769847 0.3602003
vt 0.7381423 0.5704634
vt 0.4898942 0.5635654
vt 0.5994905 0.7622354
vt 0.6399948 0.7609631
vt 0.4031804 0.08349827
vt 0.708888 0.03617522
vt 0.6165289 0.03415963
vt 0.881915 0.2399436
vt 0.4405403 0.4291914
vt 0.8769847 0.3602003
vt 0.7381423 0.5704634
vt 0.4898942 0.5635654
vt 0.5994905 0.7622354
vt 0.6399948 0.7609631
vt 0.4031804 0.08349827
vt 0.708888 0.03617522
vt 0.6165289 0.03415963
vt 0.881915 0.2399436
vt 0.4405403 0.4291914
vt 0.8769847 0.3602003
vt 0.7381423 0.5704634
vt 0.4898942 0.5635654
vt 0.5994905 0.7622354
vt 0.6399948 0.7609631
vt 0.4031804 0.08349827
vt 0.708888 0.03617522
vt 0.6165289 0.03415963
vt 0.881915 0.2399436
vt 0.4405403 0.4291914
vt 0.8769847 0.3602003
vt 0.7381423 0.5704634
vt 0.4898942 0.5635654
vt 0.5994905 0.7622354
vt 0.6399948 0.7609631
vt 0.4031804 0.08349827
vt 0.708888 0.03617522
vt 0.6165289 0.03415963
vt 0.881915 0.2399436
vt 0.4405403 0.4291914
vt 0.8769847 0.3602003
vt 0.7381423 0.5704634
vt 0.4898942 0.5635654
vt 0.5994905 0.7622354
vt 0.6399948 0.7609631
vt 0.4031804 0.08349827
vt 0.708888 0.03617522
vt 0.6165289 0.03415963
vt 0.881915 0.2399436
vt 0.4405403 0.4291914
vt 0.8769847 0.3602003
vt 0.7381423 0.5704634
vt 0.4898942 0.5635654
vt 0.5994905 0.7622354
vt 0.6399948 0.7609631
vt 0.4031804 0.08349827
vt 0.708888 0.03617522
vt 0.6165289 0.03415963
vt 0.881915 0.2399436
vt 0.4405403 0.4291914
vt 0.8769847 0.3602003
vt 0.7381423 0.5704634
vt 0.4898942 0.5635654
vt 0.5994905 0.7622354
vt 0.6399948 0.7609631
vt 0.4031804 0.08349827
vt 0.708888 0.03617522
vt 0.6165289 0.03415963
vt 0.881915 0.2399436
vt 0.4405403 0.4291914
vt 0.8769847 0.3602003
vt 0.7381423 0.5704634
vt 0.4898942 0.5635654
vt 0.5994905 0.7622354
vt 0.6399948 0.7609631
vt 0.4031804 0.08349827
vt 0.708888 0.03617522
vt 0.6165289 0.03415963
vt 0.881915 0.2399436
vt 0.4405403 0.4291914
vt 0.8769847 0.3602003
vt 0.7381423 0.5704634
vt 0.4898942 0.5635654
vt 0.5994905 0.7622354
vt 0.6399948 0.7609631
vt 0.4031804 0.08349827
vt 0.708888 0.03617522
vt 0.6165289 0.03415963
vt 0.881915 0.2399436
vt 0.4405403 0.4291914
vt 0.8769847 0.3602003
vt 0.7381423 0.5704634
vt 0.4898942 0.5635654
vt 0.5994905 0.7622354
vt 0.6399948 0.7609631

f 3/3/3 2/2/2 1/1/1
f 4/4/4 1/1/1 2/2/2
f 1/1/1 4/4/4 5/5/5
f 6/6/6 5/5/5 4/4/4
f 6/6/6 7/7/7 5/5/5
f 8/8/8 5/5/5 7/7/7
f 8/8/8 7/7/7 9/9/9
f 10/10/10 9/9/9 7/7/7
f 13/13/13 12/12/12 11/11/11
f 14/14/14 11/11/11 12/12/12
f 11/11/11 14/14/14 15/15/15
f 16/16/16 15/15/15 14/14/14
f 16/16/16 17/17/17 15/15/15
f 18/18/18 15/15/15 17/17/17
f 18/18/18 17/17/17 19/19/19
f 20/20/20 19/19/19 17/17/17
f 23/23/23 22/22/22 21/21/21
f 24/24/24 21/21/21 22/22/22
f 21/21/21 24/24/24 25/25/25
f 26/26/26 25/25/25 24/24/24
f 26/26/26 27/27/27 25/25/25
f 28/28/28 25/25/25 27/27/27
f 28/28/28 27/27/27 29/29/29
f 30/30/30 29/29/29 27/27/27
f 33/33/33 32/32/32 31/31/31
f 34/34/34 31/31/31 32/32/32
f 31/31/31 34/34/34 35/35/35
f 36/36/36 35/35/35 34/34/34
f 36/36/36 37/37/37 35/35/35
f 38/38/38 35/35/35 37/37/37
f 38/38/38 37/37/37 39/39/39
f 40/40/40 39/39/39 37/37/37
f 43/43/43 42/42/42 41/41/41
f 44/44/44 41/41/41 42/42/42
f 41/41/41 44/44/44 45/45/45
f 46/46/46 45/45/45 44/44/44
f 46/46/46 47/47/47 45/45/45
f 48/48/48 45/45/45 47/47/47
f 48/48/48 47/47/47 49/49/49
f 50/50/50 49/49/49 47/47/47
f 53/53/53 52/52/52 51/51/51
f 54/54/54 51/51/51 52/52/52
f 51/51/51 54/54/54 55/55/55
f 56/56/56 55/55/55 54/54/54
f 56/56/56 57/57/57 55/55/55
f 58/58/58 55/55/55 57/57/57
f 58/58/58 57/57/57 59/59/59
f 60/60/60 59/59/59 57/57/57
f 63/63/63 62/62/62 61/61/61
f 64/64/64 61/61/61 62/62/62
f 61/61/61 64/64/64 65/65/65
f 66/66/66 65/65/65 64/64/64
f 66/66/66 67/67/67 65/65/65
f 68/68/68 65/65/65 67/67/67
f 68/68/68 67/67/67 69/69/69
f 70/70/70 69/69/69 67/67/67
f 73/73/73 72/72/72 71/71/71
f 74/74/74 71/71/71 72/72/72
f 71/71/71 74/74/74 75/75/75
f 76/76/76 75/75/75 74/74/74
f 76/76/76 77/77/77 75/75/75
f 78/78/78 75/75/75 77/77/77
f 78/78/78 77/77/77 79/79/79
f 80/80/80 79/79/79 77/77/77
f 83/83/83 82/82/82 81/81/81
f 84/84/84 81/81/81 82/82/82
f 81/81/81 84/84/84 85/85/85
f 86/86/86 85/85/85 84/84/84
f 86/86/86 87/87/87 85/85/85
f 88/88/88 85/85/85 87/87/87
f 88/88/88 87/87/87 89/89/89
f 90/90/90 89/89/89 87/87/87
f 93/93/93 92/92/92 91/91/91
f 94/94/94 91/91/91 92/92/92
f 91/91/91 94/94/94 95/95/95
f 96/96/96 95/95/95 94/94/94
f 96/96/96 97/97/97 95/95/95
f 98/98/98 95/95/95 97/97/97
f 98/98/98 97/97/97 99/99/99
f 100/100/100 99/99/99 97/97/97
f 103/103/103 102/102/102 101/101/101
f 104/104/104 101/101/101 102/102/102
f 101/101/101 104/104/104 105/105/105
f 106/106/106 105/105/105 104/104/104
f 106/106/106 107/107/107 105/105/105
f 108/108/108 105/105/105 107/107/107
f 108/108/108 107/107/107 109/109/109
f 110/110/110 109/109/109 107/107/107
f 113/113/113 112/112/112 111/111/111
f 114/114/114 111/111/111 112/112/112
f 111/111/111 114/114/114 115/115/115
f 116/116/116 115/115/115 114/114/114
f 116/116/116 117/117/117 115/115/115
f 118/118/118 115/115/115 117/117/117
f 118/118/118 117/117/117 119/119/119
f 120/120/120 119/119/119 117/117/117
