﻿
o pack8_LOD0
v 8.217551 -5.265069 6.977911
v 13.30017 -5.585617 8.586677
v 9.426488 -6.21452 14.45968
v 13.30017 -5.585617 8.586677
v 6.900275 -6.055203 3.72529E-06
v 13.59217 -6.477241 2.235174E-06
v 17.97578 -5.880493 7.9904
v 18.46896 -6.784802 7.450581E-07
v 20.04644 -6.884289 16.13028
v 15.58464 -10.82239 3.051864
v 16.54215 -8.308722 13.78611
v 15.7968 -5.974315 7.635905
v 18.98307 -13.01825 3.051861
v 19.92443 -10.49849 13.7861
v 19.16409 -8.168917 7.635901
v 4.774733 -4.820993 4.496975
v 2.254806 -3.880057 15.23122
v -0.07463396 -4.640771 9.081015
v -5.328128 -4.074711 7.508986
v -7.107027 -5.101615 14.77475
v -3.603407 -1.602507 9.337669
v -3.57299 -0.5372316 -1.490116E-06
v -6.243278 -3.98604 -2.235174E-06
v -3.603407 -1.602507 9.337669
v 8.23454 2.912903 7.872771
v 7.619467 4.978395 15.49619
v 10.33788 0.5509123 9.79147
v 11.4177 0.2605841 -7.450581E-07
v 8.547787 3.825322 7.450581E-07
v 10.33788 0.5509123 9.79147
v 3.837118 14.53829 7.508995
v 5.787073 13.89279 14.77476
v 0.8438594 14.18212 9.337676
v 0.02809763 13.49637 3.72529E-06
v 4.379533 13.7959 3.72529E-06
v 0.8438594 14.18212 9.337676
v 15.84362 4.30496 7.872771
v 16.0637 2.161099 15.49619
v 14.21642 7.017014 9.791468
v 13.20946 7.503155 -7.450581E-07
v 15.3661 3.46674 7.450581E-07
v 14.21642 7.017014 9.791468
v -1.586053 4.468146 4.496975
v -1.146457 1.81444 15.23122
v 0.6736703 0.1736715 9.081015
v 10.2528 8.502892 7.768683
v 12.32743 8.037469 15.28977
v 7.785499 10.41304 9.661624
v 7.426572 11.45617 2.235174E-06
v 11.12963 8.873034 2.980232E-06
v 7.785499 10.41304 9.661624
v -12.79352 2.832642 7.87277
v -13.35822 0.7528067 15.49619
v -10.7482 5.245039 9.791469
v -9.675756 5.561533 0
v -12.45819 1.928102 -1.490116E-06
v -10.7482 5.245039 9.791469
v -7.887892 -4.053874 4.496975
v -8.384993 -6.697411 15.23122
v -7.23791 -8.862862 9.081015
v -2.270108 6.379766 7.768683
v -3.636895 4.751083 15.28977
v 0.5602598 7.693261 9.661624
v 1.651666 7.532656 2.235174E-06
v -2.344322 5.430919 2.980232E-06
v 0.5602598 7.693261 9.661624
v -7.957588 -14.88578 3.051861
v -5.871825 -13.18727 13.7861
v -5.350541 -10.79284 7.6359
v -11.59423 5.191999 4.496978
v -9.888424 3.112198 15.23122
v -7.492192 2.599298 9.081018
v -17.27011 2.535668 4.496977
v -15.01098 1.075636 15.23122
v -14.23077 -1.247349 9.081019
v -0.1006246 -3.193857 3.051861
v -0.3132902 -5.8753 13.7861
v 1.057946 -7.906239 7.635901
v 4.225271 -10.12564 4.496977
v 5.912535 -8.03076 15.23122
v 8.304114 -7.4966 9.081019
v 4.558515 -3.935875 7.768683
v 5.917017 -2.300277 15.28977
v 1.734848 -5.263718 9.661624
v 0.6426417 -5.108656 2.235174E-06
v 4.627911 -2.986664 2.980232E-06
v 1.734848 -5.263718 9.661624
v 5.000628 -22.30239 8.877544
v 10.21233 -19.13863 -2.235174E-06
v 3.676007 -21.61359 -2.235174E-06
v 9.517843 -20.55611 7.693386
v 7.74485 -20.07294 15.49205
v 7.363625 6.646988 -2.980232E-06
v 2.273501 4.021239 4.813956
v 1.95688 5.225679 -2.235174E-06
v 7.680243 5.442542 4.52662
v 1.956884 5.225679 13.94475
v -2.101201 -13.4792 -2.980232E-06
v 1.197844 -8.797299 4.813956
v 2.035532 -9.718822 -2.235174E-06
v -2.938888 -12.55768 4.52662
v 2.035525 -9.718822 13.94475
v 0.7322676 -13.86046 8.48834
v -5.211593 -13.62049 10.36751
v -0.7046044 -12.78367 17.22765
v 2.249671 -12.90294 0
v -5.576165 -12.58699 0
v -10.67949 -13.39973 9.671012
v -11.27931 -12.35673 0
v -13.12409 -12.28226 19.17906
v 20.03115 -13.78841 -2.980232E-06
v 18.09079 -19.17718 4.813956
v 17.03885 -18.5106 -2.235174E-06
v 21.0831 -14.45499 4.52662
v 17.03885 -18.5106 13.94475
v 16.16313 -12.04739 8.48834
v 10.47675 -13.79443 10.36751
v 14.45026 -11.50873 17.22765
v 17.27655 -10.64039 0
v 9.789727 -12.94059 0
v 5.245719 -15.40158 9.671012
v 4.333633 -14.61689 0
v 2.56877 -15.15912 19.17906
v 2.602274 3.147587 8.311661
v 3.041014 -2.538425 3.72529E-06
v 3.736694 3.962095 2.235174E-06
v 2.15141 -1.360034 7.204009
v 3.30364 -0.08445978 14.49881
v 15.38961 -15.77357 8.877547
v 11.95353 -20.80989 -2.235174E-06
v 14.77214 -14.41424 -2.235174E-06
v 13.40589 -20.19166 7.693389
v 13.01756 -18.39551 15.49205
v 16.16945 -10.91403 7.450581E-07
v 15.58464 -10.82239 3.051864
v 15.7968 -5.974315 7.635905
v 16.51593 -5.980536 2.235174E-06
v -4.104589 -8.158037 -7.450581E-07
v -3.996903 -14.20082 5.079791
v -5.284481 -13.93798 7.450581E-07
v -2.817012 -8.420875 4.776587
v -5.284475 -13.93798 14.71479
v 19.56845 -13.10613 -7.450581E-07
v 18.98307 -13.01825 3.051861
v 19.16409 -8.168917 7.635901
v 19.88325 -8.170521 -7.450581E-07
v 4.901087 -3.978409 -7.450581E-07
v 4.774733 -4.820993 4.496975
v -0.07463396 -4.640771 9.081015
v -0.07288307 -3.793555 -2.235174E-06
v -2.301875 7.581547 3.72529E-06
v -8.3454 7.633114 5.079791
v -8.048723 8.913321 1.490116E-06
v -2.598549 6.301341 4.776591
v -8.048727 8.913321 14.71479
v 2.60258 -5.270621 8.877547
v 7.68596 -8.636687 -2.235174E-06
v 1.251924 -5.906847 -2.235174E-06
v 7.047702 -7.193023 7.693388
v 5.257092 -7.60617 15.49205
v -6.924228 -8.796741 8.877546
v -2.766769 -13.25618 -3.72529E-06
v -8.386074 -9.10019 -2.235174E-06
v -3.050487 -11.70343 7.693385
v -4.88807 -11.68729 15.49205
v 10.09581 -4.444821 8.877544
v 4.337475 -2.441624 0
v 11.24697 -3.494096 -2.235174E-06
v 5.313187 -3.682405 7.693388
v 6.945834 -2.838936 15.49205
v -0.2100579 10.77583 3.72529E-06
v -6.253318 10.69907 5.079791
v -5.983889 11.98528 1.490116E-06
v -0.4794851 9.489611 4.776591
v -5.983892 11.98528 14.71479
v 7.868033 -11.08408 -2.235174E-06
v 4.52687 -6.432141 4.813955
v 5.672139 -5.94297 -2.980232E-06
v 6.722763 -11.57325 4.52662
v 5.672135 -5.942969 13.94475
v -5.076509 0.4966453 -7.450581E-07
v -7.346226 6.098002 5.079791
v -6.050117 6.314895 7.450581E-07
v -6.372619 0.2797589 4.776587
v -6.050122 6.314888 14.71479
v 16.60114 -3.11172 8.877544
v 13.71982 2.261288 0
v 18.09201 -3.191498 -2.235174E-06
v 13.59776 0.687553 7.693388
v 15.37033 0.2028435 15.49205
v -2.379573 4.157919 -7.450581E-07
v -1.586053 4.468146 4.496975
v 0.6736703 0.1736715 9.081015
v -0.06178617 -0.2468988 -2.235174E-06
v -10.11387 8.191994 8.877548
v -15.05623 11.7619 1.490116E-06
v -8.738472 8.772799 7.450581E-07
v -14.47718 10.29348 7.693391
v -12.67126 10.6335 15.49205
v -13.76077 7.120377 -7.450581E-07
v -19.80334 7.239103 5.079791
v -19.49246 8.51593 7.450581E-07
v -14.07165 5.84355 4.776587
v -19.49246 8.515927 14.71479
v -11.97053 4.913974 2.235174E-06
v -13.1167 -0.9897843 5.07979
v -11.94704 -0.9851292 7.450581E-07
v -13.14019 4.909316 4.77659
v -11.94705 -0.9851307 14.71479
v -8.739681 -4.073164 -7.450581E-07
v -7.887892 -4.053874 4.496975
v -7.23791 -8.862862 9.081015
v -8.072994 -9.005718 -2.235174E-06
v -7.496883 -15.25747 -2.235174E-06
v -7.957588 -14.88578 3.051861
v -5.350541 -10.79284 7.6359
v -4.730799 -11.15769 -2.980232E-06
v -12.12689 4.52702 1.490116E-06
v -11.59423 5.191999 4.496978
v -7.492192 2.599298 9.081018
v -7.919444 1.8677 2.235174E-06
v -16.66954 3.140006 7.450581E-07
v -17.27011 2.535668 4.496977
v -14.23077 -1.247349 9.081019
v -13.5521 -0.7402137 7.450581E-07
v -0.6876186 -3.270225 -7.450581E-07
v -0.1006246 -3.193857 3.051861
v 1.057946 -7.906239 7.635901
v 0.3660418 -8.102324 -7.450581E-07
v -13.24533 -11.27901 8.877548
v -16.77649 -6.308887 1.490116E-06
v -11.7562 -11.17155 7.450581E-07
v -16.70062 -7.885526 7.693391
v -14.88132 -8.144561 15.49205
v 3.686729 -9.465424 1.490116E-06
v 4.225271 -10.12564 4.496977
v 8.304114 -7.4966 9.081019
v 7.870378 -6.76883 7.450581E-07
v -11.61278 -19.56429 -2.235174E-06
v -6.307781 -16.73145 5.079787
v -7.048894 -15.82653 -1.490116E-06
v -10.87167 -20.46921 4.776587
v -7.048894 -15.82653 14.71479
v -3.58113 -18.81471 8.877547
v 2.402036 -19.98641 -2.235174E-06
v -4.586828 -19.91817 -2.235174E-06
v 1.261205 -18.89552 7.693388
v -0.2362795 -19.96066 15.49205

vn -1.589954E-05 3.292598E-05 1
vn 0 -1.468137E-05 1
vn -4.318356E-05 -1.260266E-05 1
vn 0 -1.468137E-05 1
vn -3.97712E-05 -1.565926E-05 1
vn -1.356984E-05 2.938509E-05 1
vn -6.500632E-05 0 1
vn 5.592871E-05 6.851554E-05 1
vn 5.476177E-05 -2.779905E-05 1
vn -6.95329E-05 -1.272746E-05 1
vn -3.412366E-05 1.910329E-05 1
vn 5.245231E-05 3.588199E-05 1
vn -6.857678E-05 -1.287274E-05 1
vn -3.327615E-05 1.913309E-05 1
vn 5.300227E-05 3.674627E-05 1
vn 2.07182E-05 3.909739E-05 1
vn -1.977384E-05 -3.33637E-05 1
vn 8.708239E-05 -9.952464E-05 1
vn -1.566112E-05 2.679229E-05 1
vn -5.38826E-05 -2.95788E-05 1
vn 0 7.507205E-05 1
vn -2.409518E-05 1.283735E-05 1
vn -6.401539E-05 0 1
vn 0 7.507205E-05 1
vn 2.713501E-05 0 1
vn -1.627207E-05 5.839764E-05 1
vn 1.510978E-05 -4.827976E-05 1
vn -4.762039E-05 3.613532E-05 1
vn -1.390278E-05 -1.617521E-05 1
vn 1.510978E-05 -4.827976E-05 1
vn -1.044944E-05 -2.975389E-05 1
vn 5.738436E-05 -2.053752E-05 1
vn -5.432964E-05 -5.293638E-05 1
vn 0 -2.639368E-05 1
vn 4.456937E-05 -4.711002E-05 1
vn -5.432964E-05 -5.293638E-05 1
vn -2.655387E-05 0 1
vn 0 -6.049871E-05 1
vn 0 5.042553E-05 1
vn 3.998727E-05 -4.410744E-05 1
vn 1.648813E-05 1.37426E-05 1
vn 0 5.042553E-05 1
vn -4.416006E-05 0 1
vn 3.880262E-05 0 1
vn 4.282594E-05 0.0001252294 1
vn 0 1.335889E-05 1
vn 3.217161E-05 -5.154312E-05 1
vn -4.87864E-05 1.850724E-05 1
vn 2.799183E-05 -3.486127E-05 1
vn 0 -2.247095E-05 1
vn -4.87864E-05 1.850724E-05 1
vn 1.342967E-05 0 1
vn -5.26607E-05 -3.094971E-05 1
vn 1.499057E-05 4.75049E-05 1
vn -5.4162E-05 -3.229082E-05 1
vn 0 0 1
vn 1.499057E-05 4.75049E-05 1
vn -4.201464E-05 1.385249E-05 1
vn 3.63104E-05 -1.372397E-05 1
vn 8.326396E-05 0.000102967 1
vn 1.554191E-05 0 1
vn -6.122887E-05 0 1
vn 3.8445E-05 3.492832E-05 1
vn -4.424155E-05 0 1
vn -1.700595E-05 1.575053E-05 1
vn 3.8445E-05 3.492832E-05 1
vn -6.597303E-05 2.361368E-05 1
vn -1.956522E-05 3.369152E-05 1
vn 6.407499E-05 0 1
vn -3.814697E-05 -2.262462E-05 1
vn 3.349781E-05 1.975894E-05 1
vn -2.574921E-05 0.0001306683 1
vn 0 2.694968E-05 1
vn 2.498179E-05 0 1
vn -3.351271E-05 8.228421E-05 1
vn 6.21269E-05 3.145169E-05 1
vn 3.720075E-05 0 1
vn -4.098564E-05 -4.976988E-05 1
vn -2.612546E-05 0 1
vn 1.15782E-05 2.405792E-05 1
vn -8.517504E-05 -2.421439E-05 1
vn -1.588091E-05 0 1
vn 6.087125E-05 0 1
vn -3.838539E-05 -3.504753E-05 1
vn 4.402548E-05 0 1
vn 1.719594E-05 -1.581013E-05 1
vn -3.838539E-05 -3.504753E-05 1
vn 0 -1.430884E-05 1
vn -3.667175E-05 -6.525218E-05 1
vn 3.825501E-05 -4.129857E-05 1
vn 0 -1.396984E-05 1
vn -2.339482E-05 -2.174079E-05 1
vn 0 -2.449751E-05 1
vn 5.325582E-05 0 1
vn 0.001606453 0.0004132837 0.9999987
vn 0.0004188193 0.0001197846 0.9999999
vn -3.740191E-05 -7.867813E-05 1
vn -1.294911E-05 2.036989E-05 1
vn -4.377216E-05 -3.13595E-05 1
vn -0.001233384 -0.001109093 0.9999987
vn -0.0003157814 -0.0002996114 0.9999999
vn 0 8.74102E-05 1
vn 1.558661E-05 0 1
vn -5.841255E-05 0 1
vn 4.309416E-05 1.289696E-05 1
vn -6.316602E-05 5.605537E-05 1
vn -1.581479E-05 -1.908839E-05 1
vn 2.972782E-05 0 1
vn 1.232931E-05 -5.149841E-05 1
vn -5.502999E-05 2.543721E-05 1
vn 1.741946E-05 -1.619756E-05 1
vn 3.389269E-05 4.195608E-05 1
vn 0.0008951575 0.001396298 0.9999987
vn 0.000225624 0.0003727435 0.9999999
vn 2.656877E-05 -8.33571E-05 1
vn 1.749396E-05 0 1
vn -5.182624E-05 -2.82377E-05 1
vn 3.635883E-05 2.651662E-05 1
vn -7.818639E-05 3.195181E-05 1
vn 0 -2.331287E-05 1
vn 3.160536E-05 0 1
vn 2.877973E-05 -4.468113E-05 1
vn -6.057322E-05 0 1
vn -1.954939E-05 2.583116E-05 1
vn -3.961287E-05 6.669759E-05 1
vn 5.470216E-05 -7.456262E-05 1
vn 2.707355E-05 0 1
vn 0 3.072619E-05 1
vn -4.855544E-05 2.982468E-05 1
vn 1.661479E-05 5.502999E-05 1
vn 0 -2.162158E-05 1
vn -2.729148E-05 2.260506E-05 1
vn -2.066791E-05 4.36604E-05 1
vn 2.589821E-05 6.33588E-05 1
vn -6.95329E-05 -1.272746E-05 1
vn 5.245231E-05 3.588199E-05 1
vn -0.00109116 -0.009756088 0.9999518
vn 2.191961E-05 0 1
vn 1.661479E-05 5.140994E-05 1
vn 0.0003401935 0.001623385 0.9999987
vn 7.817822E-05 0.0004287905 0.9999999
vn 5.435571E-05 -6.818771E-05 1
vn 2.495944E-05 6.332807E-05 1
vn -6.857678E-05 -1.287274E-05 1
vn 5.300227E-05 3.674627E-05 1
vn -0.001027875 -0.009762594 0.9999518
vn -1.321919E-05 -1.600385E-05 1
vn 2.07182E-05 3.909739E-05 1
vn 8.708239E-05 -9.952464E-05 1
vn 0.008554433 -0.0008051694 0.9999632
vn 0 -2.214312E-05 1
vn 5.050749E-05 -1.734123E-05 1
vn 0.001613174 -0.0003832281 0.9999987
vn 0.0004262326 -8.901014E-05 0.9999999
vn -7.015467E-05 -5.183369E-05 1
vn -2.919138E-05 -4.89317E-05 1
vn -5.495548E-05 1.588091E-05 1
vn 2.125278E-05 0 1
vn -2.211333E-05 -2.76193E-05 1
vn -4.321337E-05 -2.120435E-05 1
vn -4.013628E-05 -4.019589E-05 1
vn -4.906952E-05 2.840161E-05 1
vn 2.039969E-05 0 1
vn -2.773106E-05 -2.138317E-05 1
vn -4.714728E-05 -1.007319E-05 1
vn 1.710653E-05 5.445629E-05 1
vn 5.741417E-05 0 1
vn -2.183765E-05 0 1
vn 1.485646E-05 3.173389E-05 1
vn 3.704429E-05 3.067032E-05 1
vn 0 -2.241134E-05 1
vn 5.097222E-05 -1.685321E-05 1
vn 0.001620587 -0.0003484935 0.9999987
vn 0.0004276112 -7.988777E-05 0.9999999
vn -6.890296E-05 -5.350634E-05 1
vn -2.375245E-05 0 1
vn 1.56574E-05 -5.103834E-05 1
vn 0.0006429106 -0.001528382 0.9999987
vn 0.0001794769 -0.00039648 0.9999999
vn -8.34465E-05 2.598763E-05 1
vn -2.357364E-05 0 1
vn 0 -5.352683E-05 1
vn 0.000265345 -0.001637977 0.9999987
vn 8.072564E-05 -0.0004279744 0.9999999
vn -7.541477E-05 4.455447E-05 1
vn 4.895777E-05 2.812594E-05 1
vn 4.10974E-05 -4.018843E-05 1
vn -1.720339E-05 1.35228E-05 1
vn 3.230572E-05 1.342595E-05 1
vn 4.756451E-05 0 1
vn 2.010166E-05 0 1
vn -4.416006E-05 0 1
vn 4.282594E-05 0.0001252294 1
vn -0.003563807 0.007818372 0.9999632
vn 3.165007E-05 4.674495E-05 1
vn 5.424022E-05 -1.887977E-05 1
vn -2.113357E-05 0 1
vn 2.315641E-05 2.599508E-05 1
vn 4.416704E-05 1.838803E-05 1
vn 0 -2.124906E-05 1
vn 5.084556E-05 -1.836196E-05 1
vn 0.001609672 -0.0004003347 0.9999987
vn 0.0007513869 -0.0001738313 0.9999998
vn -7.012486E-05 -5.177408E-05 1
vn -5.801022E-05 1.130824E-05 1
vn 1.912936E-05 4.014805E-05 1
vn -7.921457E-05 0.001331166 0.9999992
vn 0 0.0003671304 1
vn 0 2.333522E-05 1
vn 1.823902E-05 -1.023896E-05 1
vn -4.201464E-05 1.385249E-05 1
vn 8.326396E-05 0.000102967 1
vn -0.0006667153 0.008566409 0.9999632
vn 5.318224E-05 4.248321E-05 1
vn -6.597303E-05 2.361368E-05 1
vn 6.407499E-05 0 1
vn -0.005821854 -0.007904038 0.9999518
vn 1.935661E-05 0 1
vn -3.814697E-05 -2.262462E-05 1
vn -2.574921E-05 0.0001306683 1
vn -0.006991439 0.004995205 0.9999632
vn -2.749264E-05 -3.951043E-05 1
vn 0 2.694968E-05 1
vn -3.351271E-05 8.228421E-05 1
vn -0.005764559 0.00637167 0.9999632
vn 0 -6.745011E-05 1
vn 6.21269E-05 3.145169E-05 1
vn -4.098564E-05 -4.976988E-05 1
vn -0.001694568 0.009669292 0.9999518
vn 4.474819E-05 3.432483E-05 1
vn 4.55752E-05 -3.498793E-05 1
vn -1.844764E-05 1.127273E-05 1
vn 3.029406E-05 1.733005E-05 1
vn 4.738569E-05 0 1
vn 3.731995E-05 -3.162771E-05 1
vn -2.612546E-05 0 1
vn -8.517504E-05 -2.421439E-05 1
vn -0.006936878 -0.005070046 0.9999632
vn 2.731383E-05 -5.191565E-05 1
vn -4.354864E-05 -1.038238E-05 1
vn -0.0009832233 -0.0009007602 0.9999992
vn -0.0005404292 -0.0004499741 0.9999998
vn -1.841784E-05 -1.482666E-05 1
vn 0 -5.639298E-05 1
vn -5.687773E-05 0 1
vn 2.174591E-05 0 1
vn -1.02371E-05 -3.43984E-05 1
vn -3.20673E-05 -3.688503E-05 1

vt 0.9540771 0.2835058
vt 0.753703 0.3468031
vt 0.9004084 0.5802905
vt 0.753703 0.3468031
vt 1 0
vt 0.7361826 -5.38723E-09
vt 0.569374 0.3233425
vt 0.543923 -9.313226E-09
vt 0.4817335 0.646021
vt 0.2604581 0.161753
vt 0.354463 0.5406927
vt 0.4327095 0.3244855
vt 0.2604581 0.161753
vt 0.354463 0.5406927
vt 0.4327095 0.3244855
vt 0.2604581 0.161753
vt 0.354463 0.5406927
vt 0.4327095 0.3244855
vt 0.569374 0.3233425
vt 0.4817335 0.646021
vt 0.7013394 0.404413
vt 0.7361826 -5.38723E-09
vt 0.543923 -9.313226E-09
vt 0.7013394 0.404413
vt 0.569374 0.3233425
vt 0.4817335 0.646021
vt 0.7013394 0.404413
vt 0.7361826 -5.38723E-09
vt 0.543923 -9.313226E-09
vt 0.7013394 0.404413
vt 0.569374 0.3233425
vt 0.4817335 0.646021
vt 0.7013394 0.404413
vt 0.7361826 -5.38723E-09
vt 0.543923 -9.313226E-09
vt 0.7013394 0.404413
vt 0.569374 0.3233425
vt 0.4817335 0.646021
vt 0.7013394 0.404413
vt 0.7361826 -5.38723E-09
vt 0.543923 -9.313226E-09
vt 0.7013394 0.404413
vt 0.2604581 0.161753
vt 0.354463 0.5406927
vt 0.4327095 0.3244855
vt 0.569374 0.3233425
vt 0.4817335 0.646021
vt 0.7013394 0.404413
vt 0.7361826 -5.38723E-09
vt 0.543923 -9.313226E-09
vt 0.7013394 0.404413
vt 0.569374 0.3233425
vt 0.4817335 0.646021
vt 0.7013394 0.404413
vt 0.7361826 -5.38723E-09
vt 0.543923 -9.313226E-09
vt 0.7013394 0.404413
vt 0.2604581 0.161753
vt 0.354463 0.5406927
vt 0.4327095 0.3244855
vt 0.569374 0.3233425
vt 0.4817335 0.646021
vt 0.7013394 0.404413
vt 0.7361826 -5.38723E-09
vt 0.543923 -9.313226E-09
vt 0.7013394 0.404413
vt 0.2604581 0.161753
vt 0.354463 0.5406927
vt 0.4327095 0.3244855
vt 0.2604581 0.161753
vt 0.354463 0.5406927
vt 0.4327095 0.3244855
vt 0.2604581 0.161753
vt 0.354463 0.5406927
vt 0.4327095 0.3244855
vt 0.2604581 0.161753
vt 0.354463 0.5406927
vt 0.4327095 0.3244855
vt 0.2604581 0.161753
vt 0.354463 0.5406927
vt 0.4327095 0.3244855
vt 0.569374 0.3233425
vt 0.4817335 0.646021
vt 0.7013394 0.404413
vt 0.7361826 -5.38723E-09
vt 0.543923 -9.313226E-09
vt 0.7013394 0.404413
vt 0.7711331 0.3282926
vt 1 0
vt 0.7361826 -5.38723E-09
vt 0.9540771 0.2835058
vt 0.9004084 0.5802905
vt 0 0
vt 0.2094136 0.1803273
vt 0.2094136 0
vt 0 0.1695639
vt 0.2094136 0.5223599
vt 0 0
vt 0.2094136 0.1803273
vt 0.2094136 0
vt 0 0.1695639
vt 0.2094136 0.5223599
vt 0.9540771 0.2835058
vt 0.753703 0.3468031
vt 0.9004084 0.5802905
vt 1 0
vt 0.7361826 -5.38723E-09
vt 0.5693741 0.3233424
vt 0.543923 -9.313226E-09
vt 0.4817335 0.646021
vt 0 0
vt 0.2094136 0.1803273
vt 0.2094136 0
vt 0 0.1695639
vt 0.2094136 0.5223599
vt 0.9540771 0.2835058
vt 0.753703 0.3468031
vt 0.9004084 0.5802905
vt 1 0
vt 0.7361826 -5.38723E-09
vt 0.5693741 0.3233424
vt 0.543923 -9.313226E-09
vt 0.4817335 0.646021
vt 0.7711331 0.3282926
vt 1 0
vt 0.7361826 -5.38723E-09
vt 0.9540771 0.2835058
vt 0.9004084 0.5802905
vt 0.7711331 0.3282926
vt 1 0
vt 0.7361826 -5.38723E-09
vt 0.9540771 0.2835058
vt 0.9004084 0.5802905
vt 0.2604581 0.04937304
vt 0.2604581 0.161753
vt 0.43272 0.3244793
vt 0.4364802 0.04904631
vt 0 0
vt 0.2094136 0.1803273
vt 0.2094136 0
vt 0 0.1695639
vt 0.2094136 0.5223599
vt 0.2604581 0.04937304
vt 0.2604581 0.161753
vt 0.43272 0.3244793
vt 0.4364802 0.04904634
vt 0.2604581 0
vt 0.2604581 0.161753
vt 0.43272 0.3244793
vt 0.4371498 -5.587935E-07
vt 0 0
vt 0.2094136 0.1803273
vt 0.2094136 0
vt 0 0.1695639
vt 0.2094136 0.5223599
vt 0.7711331 0.3282926
vt 1 0
vt 0.7361826 -5.38723E-09
vt 0.9540771 0.2835058
vt 0.9004084 0.5802905
vt 0.7711331 0.3282926
vt 1 0
vt 0.7361826 -5.38723E-09
vt 0.9540771 0.2835058
vt 0.9004084 0.5802905
vt 0.7711331 0.3282926
vt 1 0
vt 0.7361826 -5.38723E-09
vt 0.9540771 0.2835058
vt 0.9004084 0.5802905
vt 0 0
vt 0.2094136 0.1803273
vt 0.2094136 0
vt 0 0.1695639
vt 0.2094136 0.5223599
vt 0 0
vt 0.2094136 0.1803273
vt 0.2094136 0
vt 0 0.1695639
vt 0.2094136 0.5223599
vt 0 0
vt 0.2094136 0.1803273
vt 0.2094136 0
vt 0 0.1695639
vt 0.2094136 0.5223599
vt 0.7711331 0.3282926
vt 1 0
vt 0.7361826 -5.38723E-09
vt 0.9540771 0.2835058
vt 0.9004084 0.5802905
vt 0.2604581 0
vt 0.2604581 0.161753
vt 0.43272 0.3244793
vt 0.4371498 -5.587935E-07
vt 0.7711331 0.3282926
vt 1 0
vt 0.7361826 -5.38723E-09
vt 0.9540771 0.2835058
vt 0.9004084 0.5802905
vt 0 0
vt 0.2094136 0.1803273
vt 0.2094136 0
vt 0 0.1695639
vt 0.2094136 0.5223599
vt 0 0
vt 0.2094136 0.1803273
vt 0.2094136 0
vt 0 0.1695639
vt 0.2094136 0.5223599
vt 0.2604581 0
vt 0.2604581 0.161753
vt 0.43272 0.3244793
vt 0.4371498 -5.587935E-07
vt 0.2604581 0.04937294
vt 0.2604581 0.161753
vt 0.43272 0.3244793
vt 0.4364802 0.04904623
vt 0.2604581 0
vt 0.2604581 0.161753
vt 0.43272 0.3244793
vt 0.4371498 -5.587935E-07
vt 0.2604581 0
vt 0.2604581 0.161753
vt 0.43272 0.3244793
vt 0.4371498 -5.587935E-07
vt 0.2604581 0.04937304
vt 0.2604581 0.161753
vt 0.43272 0.3244793
vt 0.4364802 0.04904634
vt 0.7711331 0.3282926
vt 1 0
vt 0.7361826 -5.38723E-09
vt 0.9540771 0.2835058
vt 0.9004084 0.5802905
vt 0.2604581 0
vt 0.2604581 0.161753
vt 0.43272 0.3244793
vt 0.4371498 -5.587935E-07
vt 0 0
vt 0.2094136 0.1803273
vt 0.2094136 0
vt 0 0.1695639
vt 0.2094136 0.5223599
vt 0.7711331 0.3282926
vt 1 0
vt 0.7361826 -5.38723E-09
vt 0.9540771 0.2835058
vt 0.9004084 0.5802905

f 3/3/3 2/2/2 1/1/1
f 5/5/5 1/1/1 4/4/4
f 6/6/6 5/5/5 4/4/4
f 4/4/4 7/7/7 6/6/6
f 7/7/7 8/8/8 6/6/6
f 4/4/4 9/9/9 7/7/7
f 12/12/12 11/11/11 10/10/10
f 15/15/15 14/14/14 13/13/13
f 18/18/18 17/17/17 16/16/16
f 21/21/21 20/20/20 19/19/19
f 19/19/19 23/23/23 22/22/22
f 24/24/24 19/19/19 22/22/22
f 27/27/27 26/26/26 25/25/25
f 25/25/25 29/29/29 28/28/28
f 30/30/30 25/25/25 28/28/28
f 33/33/33 32/32/32 31/31/31
f 31/31/31 35/35/35 34/34/34
f 36/36/36 31/31/31 34/34/34
f 39/39/39 38/38/38 37/37/37
f 37/37/37 41/41/41 40/40/40
f 42/42/42 37/37/37 40/40/40
f 45/45/45 44/44/44 43/43/43
f 48/48/48 47/47/47 46/46/46
f 46/46/46 50/50/50 49/49/49
f 51/51/51 46/46/46 49/49/49
f 54/54/54 53/53/53 52/52/52
f 52/52/52 56/56/56 55/55/55
f 57/57/57 52/52/52 55/55/55
f 60/60/60 59/59/59 58/58/58
f 63/63/63 62/62/62 61/61/61
f 61/61/61 65/65/65 64/64/64
f 66/66/66 61/61/61 64/64/64
f 69/69/69 68/68/68 67/67/67
f 72/72/72 71/71/71 70/70/70
f 75/75/75 74/74/74 73/73/73
f 78/78/78 77/77/77 76/76/76
f 81/81/81 80/80/80 79/79/79
f 84/84/84 83/83/83 82/82/82
f 82/82/82 86/86/86 85/85/85
f 87/87/87 82/82/82 85/85/85
f 90/90/90 89/89/89 88/88/88
f 89/89/89 91/91/91 88/88/88
f 92/92/92 88/88/88 91/91/91
f 95/95/95 94/94/94 93/93/93
f 94/94/94 96/96/96 93/93/93
f 94/94/94 97/97/97 96/96/96
f 100/100/100 99/99/99 98/98/98
f 99/99/99 101/101/101 98/98/98
f 99/99/99 102/102/102 101/101/101
f 105/105/105 104/104/104 103/103/103
f 106/106/106 103/103/103 104/104/104
f 107/107/107 106/106/106 104/104/104
f 104/104/104 108/108/108 107/107/107
f 108/108/108 109/109/109 107/107/107
f 104/104/104 110/110/110 108/108/108
f 113/113/113 112/112/112 111/111/111
f 112/112/112 114/114/114 111/111/111
f 112/112/112 115/115/115 114/114/114
f 118/118/118 117/117/117 116/116/116
f 119/119/119 116/116/116 117/117/117
f 120/120/120 119/119/119 117/117/117
f 117/117/117 121/121/121 120/120/120
f 121/121/121 122/122/122 120/120/120
f 117/117/117 123/123/123 121/121/121
f 126/126/126 125/125/125 124/124/124
f 125/125/125 127/127/127 124/124/124
f 128/128/128 124/124/124 127/127/127
f 131/131/131 130/130/130 129/129/129
f 130/130/130 132/132/132 129/129/129
f 133/133/133 129/129/129 132/132/132
f 136/136/136 135/135/135 134/134/134
f 137/137/137 136/136/136 134/134/134
f 140/140/140 139/139/139 138/138/138
f 139/139/139 141/141/141 138/138/138
f 139/139/139 142/142/142 141/141/141
f 145/145/145 144/144/144 143/143/143
f 146/146/146 145/145/145 143/143/143
f 149/149/149 148/148/148 147/147/147
f 150/150/150 149/149/149 147/147/147
f 153/153/153 152/152/152 151/151/151
f 152/152/152 154/154/154 151/151/151
f 152/152/152 155/155/155 154/154/154
f 158/158/158 157/157/157 156/156/156
f 157/157/157 159/159/159 156/156/156
f 160/160/160 156/156/156 159/159/159
f 163/163/163 162/162/162 161/161/161
f 162/162/162 164/164/164 161/161/161
f 165/165/165 161/161/161 164/164/164
f 168/168/168 167/167/167 166/166/166
f 167/167/167 169/169/169 166/166/166
f 170/170/170 166/166/166 169/169/169
f 173/173/173 172/172/172 171/171/171
f 172/172/172 174/174/174 171/171/171
f 172/172/172 175/175/175 174/174/174
f 178/178/178 177/177/177 176/176/176
f 177/177/177 179/179/179 176/176/176
f 177/177/177 180/180/180 179/179/179
f 183/183/183 182/182/182 181/181/181
f 182/182/182 184/184/184 181/181/181
f 182/182/182 185/185/185 184/184/184
f 188/188/188 187/187/187 186/186/186
f 187/187/187 189/189/189 186/186/186
f 190/190/190 186/186/186 189/189/189
f 193/193/193 192/192/192 191/191/191
f 194/194/194 193/193/193 191/191/191
f 197/197/197 196/196/196 195/195/195
f 196/196/196 198/198/198 195/195/195
f 199/199/199 195/195/195 198/198/198
f 202/202/202 201/201/201 200/200/200
f 201/201/201 203/203/203 200/200/200
f 201/201/201 204/204/204 203/203/203
f 207/207/207 206/206/206 205/205/205
f 206/206/206 208/208/208 205/205/205
f 206/206/206 209/209/209 208/208/208
f 212/212/212 211/211/211 210/210/210
f 213/213/213 212/212/212 210/210/210
f 216/216/216 215/215/215 214/214/214
f 217/217/217 216/216/216 214/214/214
f 220/220/220 219/219/219 218/218/218
f 221/221/221 220/220/220 218/218/218
f 224/224/224 223/223/223 222/222/222
f 225/225/225 224/224/224 222/222/222
f 228/228/228 227/227/227 226/226/226
f 229/229/229 228/228/228 226/226/226
f 232/232/232 231/231/231 230/230/230
f 231/231/231 233/233/233 230/230/230
f 234/234/234 230/230/230 233/233/233
f 237/237/237 236/236/236 235/235/235
f 238/238/238 237/237/237 235/235/235
f 241/241/241 240/240/240 239/239/239
f 240/240/240 242/242/242 239/239/239
f 240/240/240 243/243/243 242/242/242
f 246/246/246 245/245/245 244/244/244
f 245/245/245 247/247/247 244/244/244
f 248/248/248 244/244/244 247/247/247
