﻿
o pack8_LOD1
v 9.517844 -20.55611 0
v 5.000628 -22.30239 0
v 7.74485 -20.07294 8.983413
v 7.680243 5.442542 0
v 1.956884 5.225679 7.436115
v 2.273501 4.021239 0
v -2.938888 -12.55768 0
v 2.035525 -9.718822 7.436115
v 1.197844 -8.797299 0
v 0.7322669 -13.86046 0
v -5.211593 -13.62049 0
v -0.7046044 -12.78367 10.71902
v -10.67949 -13.39973 0
v -13.12409 -12.28226 12.67042
v -5.211593 -13.62049 0
v 21.0831 -14.45499 0
v 17.03885 -18.5106 7.436115
v 18.09079 -19.17718 0
v 16.16313 -12.04738 0
v 10.47675 -13.79443 0
v 14.45026 -11.50873 10.71902
v 5.24572 -15.40158 0
v 2.56877 -15.15912 12.67042
v 10.47675 -13.79443 0
v 2.15141 -1.360034 0
v 2.602274 3.147587 0
v 3.30364 -0.08445978 7.990182
v 8.217551 -5.265069 0
v 13.30017 -5.585617 0
v 9.426488 -6.21452 7.951042
v 17.97578 -5.880493 0
v 20.04644 -6.884289 9.621646
v 13.30017 -5.585617 0
v 13.40589 -20.19167 0
v 15.38961 -15.77357 0
v 13.01756 -18.39551 8.983413
v 15.58464 -10.82239 0
v 16.54215 -8.308722 7.277474
v 15.7968 -5.974315 0
v -2.817012 -8.420875 0
v -5.284475 -13.93798 8.206161
v -3.996903 -14.20082 0
v 18.98307 -13.01825 0
v 19.92443 -10.49849 7.277471
v 19.16409 -8.168915 0
v 4.774733 -4.820993 0
v 2.254806 -3.880057 8.722586
v -0.07463396 -4.640771 0
v -5.328128 -4.074709 0
v -7.107027 -5.101615 8.266121
v -3.603407 -1.602507 0
v -2.598549 6.301341 0
v -8.048727 8.913321 8.206161
v -8.3454 7.633114 0
v 7.047702 -7.193023 0
v 2.60258 -5.270621 0
v 5.257092 -7.60617 8.983413
v 8.23454 2.912903 0
v 7.619467 4.978395 8.987561
v 10.33788 0.5509123 0
v -3.050487 -11.70343 0
v -6.924228 -8.796741 0
v -4.88807 -11.68729 8.983414
v 3.837118 14.53829 0
v 5.787073 13.89279 8.26613
v 0.8438594 14.18212 0
v 5.313187 -3.682405 0
v 10.09581 -4.444821 0
v 6.945834 -2.838936 8.983416
v -0.4794851 9.489611 0
v -5.983892 11.98528 8.20616
v -6.253318 10.69907 0
v 15.84362 4.30496 0
v 16.0637 2.161099 8.987561
v 14.21642 7.017014 0
v 6.722763 -11.57325 0
v 5.672135 -5.942969 7.436115
v 4.52687 -6.432141 0
v -6.372619 0.2797574 0
v -6.050122 6.314888 8.206161
v -7.346226 6.098002 0
v 13.59776 0.687553 0
v 16.60114 -3.11172 0
v 15.37033 0.2028435 8.983416
v -1.586053 4.468146 0
v -1.146457 1.81444 8.722586
v 0.6736703 0.1736715 0
v -14.47718 10.29348 0
v -10.11387 8.191994 0
v -12.67126 10.6335 8.983417
v 10.2528 8.502892 0
v 12.32743 8.037469 8.781137
v 7.785499 10.41304 0
v -12.79352 2.832642 0
v -13.35822 0.7528067 8.987558
v -10.7482 5.245039 0
v -14.07165 5.84355 0
v -19.49246 8.515927 8.206161
v -19.80334 7.239103 0
v -13.14019 4.909316 0
v -11.94705 -0.9851307 8.206158
v -13.1167 -0.9897843 0
v -7.887892 -4.053874 0
v -8.384993 -6.697411 8.722586
v -7.23791 -8.862862 0
v -2.270108 6.379766 0
v -3.636895 4.751083 8.781137
v 0.5602598 7.693261 0
v -7.957588 -14.88578 0
v -5.871825 -13.18727 7.277469
v -5.350541 -10.79284 0
v -11.59423 5.192003 0
v -9.888424 3.112198 8.722589
v -7.492192 2.599298 0
v -17.27011 2.535668 0
v -15.01098 1.075636 8.722589
v -14.23077 -1.247349 0
v -0.1006246 -3.193857 0
v -0.3132902 -5.8753 7.277471
v 1.057946 -7.906239 0
v -16.70062 -7.885526 0
v -13.24533 -11.27901 0
v -14.88132 -8.144561 8.983417
v 4.225271 -10.12564 0
v 5.912535 -8.03076 8.722589
v 8.304114 -7.4966 0
v 4.558515 -3.935875 0
v 5.917017 -2.300277 8.781137
v 1.734848 -5.263718 0
v -10.87167 -20.46921 0
v -7.048894 -15.82653 8.206155
v -6.307781 -16.73145 0
v 1.261204 -18.89552 0
v -3.58113 -18.81471 0
v -0.2362795 -19.96066 8.983413

vn 0.01764026 -0.01966879 0.999651
vn -0.1075283 -0.06907848 0.9917994
vn -0.03855267 -0.04155602 0.998392
vn -0.104279 0.003213867 0.9945428
vn -0.06409061 0.01420031 0.997843
vn -0.007706358 0.02931632 0.9995404
vn 0.09394667 0.0453712 0.9945428
vn 0.0633929 0.0170457 0.997843
vn 0.02038895 -0.02242993 0.9995404
vn 0.01377265 -0.02824163 0.9995062
vn -0.1969163 -0.02157202 0.9801829
vn -0.0875255 -0.02449836 0.995861
vn 0.0709707 -0.02618207 0.9971347
vn 0.1252713 -0.0287632 0.9917055
vn 0.1641695 -0.03084418 0.9859498
vn -0.07856383 -0.06864564 0.9945428
vn -0.05660901 -0.03323626 0.997843
vn -0.02560381 0.0162245 0.9995406
vn 0.02236782 -0.02206697 0.9995062
vn -0.1785845 -0.08572604 0.9801829
vn -0.07442719 -0.05216778 0.995861
vn 0.07563772 -0.001133449 0.9971347
vn 0.1277147 0.01446047 0.9917055
vn 0.1650976 0.02541175 0.9859498
vn -0.01855245 0.0002070367 0.9998279
vn -0.008215724 0.1119057 0.9936848
vn -0.01397842 0.04778659 0.9987597
vn 0.005623922 0.01288976 0.9999012
vn 0.1509318 0.0049261 0.9885318
vn 0.06850336 0.009127758 0.9976091
vn -0.05105552 0.0162513 0.9985636
vn -0.08386293 0.01852509 0.9963051
vn -0.1176429 0.0209707 0.9928344
vn 0.01866021 -0.01864013 0.9996521
vn 0.07464758 0.1037287 0.9918004
vn 0.0435009 0.03631144 0.9983932
vn 0.01970801 0.1348948 0.9906639
vn 0.01816072 0.08469528 0.9962415
vn 0.01941457 0.119677 0.9926231
vn -0.03864984 -0.07542867 0.9964019
vn -0.03196416 -0.0416224 0.9986219
vn -0.02270276 0.004634937 0.9997315
vn 0.01884249 0.1350195 0.9906638
vn 0.01761761 0.08481026 0.9962413
vn 0.01864678 0.1197994 0.992623
vn -0.08651664 -0.001342505 0.9962495
vn -0.08460902 -0.001397491 0.9964133
vn -0.1631746 0.00042524 0.9865971
vn 0.07787351 0.1130549 0.9905323
vn 0.07486032 0.1088651 0.9912338
vn 0.144373 0.2043428 0.9681944
vn -0.07438396 0.0406245 0.9964019
vn -0.04076576 0.03305043 0.9986219
vn 0.005231014 0.02257354 0.9997315
vn 0.0183803 0.01891636 0.9996521
vn -0.1047514 0.07320563 0.9918004
vn -0.03690982 0.04299432 0.9983932
vn 0.09301496 -0.1087847 0.9897041
vn 0.09355567 -0.1094102 0.9895841
vn 0.1705991 -0.1997793 0.9648752
vn 0.02228735 0.01410477 0.9996521
vn -0.08477505 0.09563076 0.9918004
vn -0.02585697 0.05042112 0.9983932
vn -0.1362194 -0.01703403 0.9905323
vn -0.131087 -0.01649765 0.9912336
vn -0.2486184 -0.02808536 0.9681942
vn -0.01312646 -0.02287737 0.9996521
vn 0.1196108 -0.04500224 0.9918004
vn 0.04640284 -0.03252183 0.9983932
vn -0.07522978 0.03903585 0.9964019
vn -0.04145833 0.03217727 0.9986219
vn 0.004750741 0.02267931 0.9997315
vn -0.07115307 0.1241896 0.9897041
vn -0.07156797 0.1249048 0.9895841
vn -0.1304545 0.2280294 0.9648752
vn -0.01205426 0.1036303 0.9945428
vn 0.004685208 0.06547787 0.997843
vn 0.02787594 0.01190669 0.9995404
vn 0.008996606 0.08427542 0.9964019
vn 0.01489211 0.05032253 0.9986219
vn 0.02285318 0.003824194 0.9997315
vn -0.02514963 -0.007947982 0.9996521
vn 0.0575528 -0.1141036 0.9918004
vn 0.01212828 -0.0553516 0.9983932
vn 0.04426715 -0.07434617 0.9962495
vn 0.04336449 -0.07266483 0.9964133
vn 0.08092579 -0.1416936 0.9865972
vn -0.01913418 -0.01815431 0.9996521
vn 0.1016896 -0.07740352 0.9918004
vn 0.03513169 -0.04445968 0.9983932
vn -0.1130937 0.08511215 0.9899322
vn -0.1124545 0.084632 0.9900462
vn -0.2077185 0.1552333 0.9657927
vn 0.09030769 0.1110421 0.9897041
vn 0.09083282 0.1116803 0.9895841
vn 0.1656955 0.2038648 0.9648752
vn -0.0736471 0.0412357 0.9964315
vn -0.04039567 0.03350066 0.9986219
vn 0.005482088 0.02251324 0.9997315
vn 0.02062236 -0.08199799 0.9964191
vn 0.02080438 -0.04716286 0.9986706
vn 0.02077506 8.243637E-05 0.9997842
vn 0.01608726 -0.08501844 0.9962495
vn 0.01581587 -0.08312927 0.9964133
vn 0.02742735 -0.1608535 0.9865971
vn 0.1275649 0.06132964 0.9899323
vn 0.1268447 0.06098253 0.9900462
vn 0.233329 0.1131454 0.9657928
vn 0.08449689 0.1069839 0.9906638
vn 0.0580643 0.06427813 0.9962413
vn 0.07663579 0.0939495 0.9926231
vn 0.07547349 -0.04231458 0.9962496
vn 0.07385217 -0.04130858 0.9964133
vn 0.1408615 -0.08236506 0.9865972
vn 0.05060467 -0.07018247 0.9962497
vn 0.04942207 -0.06868513 0.9964135
vn 0.09789662 -0.1305419 0.9865977
vn 0.0189869 -0.1349988 0.9906639
vn 0.00636702 -0.08638648 0.9962413
vn 0.01499265 -0.1203113 0.992623
vn -0.0239573 -0.01103324 0.9996521
vn 0.07138174 -0.1060028 0.9918004
vn 0.01896068 -0.05339823 0.9983932
vn 0.07506913 0.0430246 0.9962497
vn 0.0734566 0.0420043 0.9964134
vn 0.1400233 0.08377649 0.9865977
vn -0.1272523 -0.06197606 0.9899323
vn -0.126534 -0.06162538 0.9900462
vn -0.2327519 -0.1143279 0.9657928
vn 0.05038944 0.06750736 0.9964455
vn 0.0234879 0.04588562 0.9986706
vn -0.01316372 0.01607333 0.9997842
vn 0.009771542 0.02449805 0.9996521
vn -0.1247591 0.02769585 0.9918004
vn -0.0505228 0.02565652 0.9983932

vt 0.9538468 0.1957467
vt 0.7707869 0.196403
vt 0.8845003 0.5472454
vt 2.854876E-05 0.1994224
vt 0.209416 0.4793803
vt 0.209432 0.199619
vt 2.855062E-05 0.1994224
vt 0.209416 0.4793803
vt 0.209432 0.199619
vt 0.9560167 0.1780857
vt 0.7567999 0.1784895
vt 0.8853768 0.5517467
vt 0.5708545 0.1779062
vt 0.4987738 0.6173981
vt 0.7554213 0.1779861
vt 2.855062E-05 0.1994225
vt 0.209416 0.4793803
vt 0.209432 0.199619
vt 0.9560168 0.1780857
vt 0.7567998 0.1784894
vt 0.8853768 0.5517467
vt 0.5708545 0.1779062
vt 0.4987738 0.6173981
vt 0.7554214 0.1779862
vt 0.953882 0.2091828
vt 0.7708222 0.2098391
vt 0.8844743 0.5442345
vt 0.9552564 0.2194158
vt 0.7560393 0.2198195
vt 0.8854588 0.5451699
vt 0.5704324 0.2193598
vt 0.4988516 0.6107982
vt 0.7549993 0.2194398
vt 0.9538468 0.1957466
vt 0.7707871 0.1964029
vt 0.8845003 0.5472454
vt 0.2621472 0.2415331
vt 0.3539869 0.4998695
vt 0.4310125 0.2443324
vt 1.873076E-05 0.1891484
vt 0.2094146 0.4816025
vt 0.2094222 0.1893449
vt 0.2621472 0.2415332
vt 0.3539869 0.4998695
vt 0.4310125 0.2443326
vt 0.2610797 0.1911145
vt 0.3539301 0.4998187
vt 0.4299452 0.1939138
vt 0.5703446 0.2279979
vt 0.499156 0.6053104
vt 0.7031274 0.2287372
vt 1.872052E-05 0.1891482
vt 0.2094146 0.4816025
vt 0.2094222 0.1893449
vt 0.9538469 0.1957466
vt 0.770787 0.1964029
vt 0.8845003 0.5472454
vt 0.5704541 0.2172403
vt 0.4991105 0.6077153
vt 0.7032371 0.2179796
vt 0.9538469 0.1957468
vt 0.770787 0.196403
vt 0.8845003 0.5472454
vt 0.5703445 0.2279976
vt 0.4991559 0.6053104
vt 0.7031276 0.2287369
vt 0.9538469 0.1957467
vt 0.770787 0.1964031
vt 0.8845003 0.5472454
vt 1.87261E-05 0.1891482
vt 0.2094146 0.4816025
vt 0.2094222 0.1893448
vt 0.5704541 0.2172403
vt 0.4991105 0.6077154
vt 0.7032372 0.2179796
vt 2.854131E-05 0.1994225
vt 0.209416 0.4793803
vt 0.209432 0.199619
vt 1.873542E-05 0.1891484
vt 0.2094146 0.4816025
vt 0.2094222 0.1893449
vt 0.9538469 0.1957467
vt 0.7707869 0.196403
vt 0.8845003 0.5472455
vt 0.2610797 0.1911145
vt 0.3539301 0.4998187
vt 0.4299452 0.1939138
vt 0.9538468 0.1957466
vt 0.7707872 0.1964029
vt 0.8845003 0.5472454
vt 0.5704239 0.2202138
vt 0.499123 0.6070504
vt 0.703207 0.2209531
vt 0.5704541 0.2172403
vt 0.4991105 0.6077154
vt 0.703237 0.2179795
vt 1.872983E-05 0.1891484
vt 0.2094146 0.4816025
vt 0.2094222 0.1893448
vt 1.48844E-05 0.1892229
vt 0.2094144 0.4814429
vt 0.2094204 0.1893793
vt 0.2610797 0.1911145
vt 0.3539301 0.4998187
vt 0.4299452 0.1939139
vt 0.5704238 0.2202137
vt 0.499123 0.6070504
vt 0.7032068 0.2209531
vt 0.2621472 0.2415333
vt 0.353987 0.4998695
vt 0.4310125 0.2443326
vt 0.2610797 0.1911144
vt 0.3539301 0.4998186
vt 0.4299451 0.1939136
vt 0.2610798 0.1911144
vt 0.3539301 0.4998187
vt 0.4299451 0.1939136
vt 0.2621472 0.2415332
vt 0.3539869 0.4998695
vt 0.4310125 0.2443325
vt 0.9538468 0.1957465
vt 0.770787 0.1964029
vt 0.8845003 0.5472455
vt 0.2610797 0.1911144
vt 0.3539301 0.4998187
vt 0.4299452 0.1939137
vt 0.5704238 0.2202138
vt 0.499123 0.6070505
vt 0.703207 0.220953
vt 1.488905E-05 0.189223
vt 0.2094144 0.4814429
vt 0.2094204 0.1893793
vt 0.9538469 0.1957466
vt 0.7707871 0.1964029
vt 0.8845003 0.5472454

f 3/3/3 2/2/2 1/1/1
f 6/6/6 5/5/5 4/4/4
f 9/9/9 8/8/8 7/7/7
f 12/12/12 11/11/11 10/10/10
f 15/15/15 14/14/14 13/13/13
f 18/18/18 17/17/17 16/16/16
f 21/21/21 20/20/20 19/19/19
f 24/24/24 23/23/23 22/22/22
f 27/27/27 26/26/26 25/25/25
f 30/30/30 29/29/29 28/28/28
f 33/33/33 32/32/32 31/31/31
f 36/36/36 35/35/35 34/34/34
f 39/39/39 38/38/38 37/37/37
f 42/42/42 41/41/41 40/40/40
f 45/45/45 44/44/44 43/43/43
f 48/48/48 47/47/47 46/46/46
f 51/51/51 50/50/50 49/49/49
f 54/54/54 53/53/53 52/52/52
f 57/57/57 56/56/56 55/55/55
f 60/60/60 59/59/59 58/58/58
f 63/63/63 62/62/62 61/61/61
f 66/66/66 65/65/65 64/64/64
f 69/69/69 68/68/68 67/67/67
f 72/72/72 71/71/71 70/70/70
f 75/75/75 74/74/74 73/73/73
f 78/78/78 77/77/77 76/76/76
f 81/81/81 80/80/80 79/79/79
f 84/84/84 83/83/83 82/82/82
f 87/87/87 86/86/86 85/85/85
f 90/90/90 89/89/89 88/88/88
f 93/93/93 92/92/92 91/91/91
f 96/96/96 95/95/95 94/94/94
f 99/99/99 98/98/98 97/97/97
f 102/102/102 101/101/101 100/100/100
f 105/105/105 104/104/104 103/103/103
f 108/108/108 107/107/107 106/106/106
f 111/111/111 110/110/110 109/109/109
f 114/114/114 113/113/113 112/112/112
f 117/117/117 116/116/116 115/115/115
f 120/120/120 119/119/119 118/118/118
f 123/123/123 122/122/122 121/121/121
f 126/126/126 125/125/125 124/124/124
f 129/129/129 128/128/128 127/127/127
f 132/132/132 131/131/131 130/130/130
f 135/135/135 134/134/134 133/133/133
