﻿
o TopWell
v -123.9716 89.31627 245.5316
v -123.9716 104.0269 245.5316
v -6.545348 103.1298 353.4228
v -4.916779 88.46004 355.095
v 2.577893 88.52322 361.9817
v 1.106861 103.3513 360.5677
v 2.577893 88.52322 361.9817
v 1.106861 103.3513 360.5677
v 7.952709 103.2781 354.5761
v 9.41482 88.79919 356.1992
v 117.3079 92.1313 245.4196
v 122.1835 103.8701 246.231
v -112.1424 89.31627 233.5052
v -5.602236 103.2976 341.7805
v -112.1424 104.0269 233.5052
v -3.869779 89.028 343.8036
v 1.621168 103.1992 349.0052
v 3.319157 88.74009 350.8513
v 8.639649 89.65805 344.8272
v 1.621168 103.1992 349.0052
v 3.319157 88.74009 350.8513
v 6.989771 103.8481 342.8499
v 100.4502 97.43686 231.8353
v 109.0895 103.9869 234.9485
v 3.659573 -107.8779 273.5545
v -3.169046 -94.66396 285.6787
v -3.136914 -110.014 280.0316
v 3.050874 -93.00155 279.5963
v 101.8463 -66.80814 206.0712
v 102.7731 -53.50009 203.8808
v -3.142493 -94.72047 287.836
v 3.180375 -92.6579 281.856
v 105.7496 -54.80027 205.1073
v 102.7731 -53.50009 203.8808
v -12.17595 -92.02721 277.8152
v -12.04819 -91.32848 280.2237
v -116.0147 -55.66477 181.4269
v -113.5233 -55.3397 179.5303
v -13.21051 -107.3446 272.2414
v -3.136914 -110.014 280.0316
v -113.7467 -70.88126 173.5961
v -113.5233 -55.3397 179.5303
v -125.6335 -74.95825 184.6715
v -125.413 -59.33942 190.5788
v -11.4086 -95.51699 289.4203
v -11.78659 -111.2309 283.5828
v -2.774346 -113.998 291.0708
v -2.758636 -98.1645 296.8803
v 94.91254 11.97505 209.7509
v 109.3602 93.82942 238.2315
v 103.9158 95.61274 233.68
v 101.0098 9.678436 214.548
v 105.7496 -54.80027 205.1073
v 109.622 -56.70681 206.712
v -30.089 11.86356 300.2018
v -47.01039 -54.48881 262.8595
v -45.95371 -54.73372 258.9789
v -29.21673 11.82366 302.809
v -39.00012 59.13993 305.3773
v -39.44343 58.98418 308.7248
v -116.1653 -10.96959 209.6073
v -122.423 -57.84328 187.582
v -116.0147 -55.66477 181.4269
v -113.9938 -12.06608 207.5275
v -119.1507 89.00976 240.5287
v -114.3264 89.31627 235.6891
v -81.14732 -44.33447 228.8539
v -83.34169 -43.77778 230.7677
v -84.61722 -0.2205911 244.2636
v -83.50461 -0.9945519 243.1468
v -91.01289 36.09037 250.2719
v -89.65444 35.64632 248.8859
v -1.363882 19.3998 337.226
v 2.796191 88.56451 359.0522
v 11.80241 88.95728 353.1871
v 5.634201 20.79187 326.7775
v -2.92463 -96.59579 291.9767
v 3.53437 -94.72769 286.832
v -119.1507 89.00976 240.5287
v -123.9716 89.31627 245.5316
v -4.916779 88.46004 355.095
v -5.989435 87.96761 351.4298
v 2.973803 88.60849 356.5297
v 2.577893 88.52322 361.9817
v 9.41482 88.79919 356.1992
v 9.339772 89.0006 350.6924
v 109.3602 93.82942 238.2315
v 117.3079 92.1313 245.4196
v -118.2608 104.0269 239.6236
v -123.9716 104.0269 245.5316
v -123.9716 89.31627 245.5316
v -119.1507 89.00976 240.5287
v -114.3264 104.0269 235.6891
v -114.3264 89.31627 235.6891
v -112.1424 104.0269 233.5052
v -112.1424 89.31627 233.5052
v 109.3602 93.82942 238.2315
v 117.3079 92.1313 245.4196
v 122.1835 103.8701 246.231
v 116.2299 103.693 240.6529
v 103.9158 95.61274 233.68
v 111.8804 103.7027 236.9637
v 100.4502 97.43686 231.8353
v 109.0895 103.9869 234.9485
v -120.0349 -72.93427 179.1198
v -125.6335 -74.95825 184.6715
v -11.78659 -111.2309 283.5828
v -12.20612 -109.3521 277.959
v -116.0916 -71.59 175.4554
v -2.880546 -112.1117 285.5419
v -2.774346 -113.998 291.0708
v 4.461156 -111.7757 284.7891
v -12.79106 -108.1984 274.2181
v -113.7467 -70.88126 173.5961
v -13.21051 -107.3446 272.2414
v -3.012412 -110.819 281.9442
v -3.136914 -110.014 280.0316
v 4.130015 -109.8781 279.2348
v 3.894348 -108.6477 275.5223
v 3.659573 -107.8779 273.5545
v 104.2134 -67.77245 206.9372
v 101.8463 -66.80814 206.0712
v 108.3011 -69.63608 208.4437
v 114.2525 -72.54853 210.584
v -11.85129 -93.07932 284.3578
v -125.413 -59.33942 190.5788
v -122.423 -57.84328 187.582
v -11.4086 -95.51699 289.4203
v -2.944896 -96.40427 291.378
v -2.758636 -98.1645 296.8803
v 3.415274 -94.21252 285.5984
v 3.925797 -96.42093 290.8863
v 109.622 -56.70681 206.712
v 113.3573 -58.9106 208.3677
v 114.2525 -72.54853 210.584
v 4.461156 -111.7757 284.7891
v -2.758636 -98.1645 296.8803
v -2.774346 -113.998 291.0708
v -122.423 -57.84328 187.582
v -125.413 -59.33942 190.5788
v -125.6335 -74.95825 184.6715
v -120.0349 -72.93427 179.1198
v -116.0916 -71.59 175.4554
v -116.0147 -55.66477 181.4269
v -113.5233 -55.3397 179.5303
v -113.7467 -70.88126 173.5961
v 108.3011 -69.63608 208.4437
v 114.2525 -72.54853 210.584
v 113.3573 -58.9106 208.3677
v 109.622 -56.70681 206.712
v 104.2134 -67.77245 206.9372
v 105.7496 -54.80027 205.1073
v 101.8463 -66.80814 206.0712
v 102.7731 -53.50009 203.8808
v -114.3264 104.0269 235.6891
v -112.1424 104.0269 233.5052
v -5.602236 103.2976 341.7805
v -5.681608 103.1821 343.9149
v -118.2608 104.0269 239.6236
v 1.605184 103.1597 351.1207
v 1.621168 103.1992 349.0052
v 6.989771 103.8481 342.8499
v -5.920033 103.0632 347.7389
v -123.9716 104.0269 245.5316
v -6.545348 103.1298 353.4228
v 1.43276 103.2088 354.9012
v 1.106861 103.3513 360.5677
v 7.259233 103.6648 344.9995
v 7.637505 103.425 348.8471
v 7.952709 103.2781 354.5761
v 111.8804 103.7027 236.9637
v 109.0895 103.9869 234.9485
v 116.2299 103.693 240.6529
v 122.1835 103.8701 246.231
v -3.888888 88.79736 345.9047
v -112.1424 89.31627 233.5052
v -114.3264 89.31627 235.6891
v -3.869779 89.028 343.8036
v 3.213441 88.68103 352.8844
v 3.319157 88.74009 350.8513
v 8.958039 89.3742 346.9412
v 8.639649 89.65805 344.8272
v 103.9158 95.61274 233.68
v 100.4502 97.43686 231.8353
v 94.91254 11.97505 209.7509
v 103.9158 95.61274 233.68
v 8.958039 89.3742 346.9412
v -0.7279034 23.86708 321.9432
v 105.7496 -54.80027 205.1073
v 3.213441 88.68103 352.8844
v 3.180375 -92.6579 281.856
v -3.925832 21.18929 330.2743
v -3.142493 -94.72047 287.836
v -12.04819 -91.32848 280.2237
v -3.925832 21.18929 330.2743
v -11.51881 20.45251 322.956
v 3.213441 88.68103 352.8844
v -3.888888 88.79736 345.9047
v -45.95371 -54.73372 258.9789
v -81.14732 -44.33447 228.8539
v -30.089 11.86356 300.2018
v -116.0147 -55.66477 181.4269
v -39.00012 59.13993 305.3773
v -83.50461 -0.9945519 243.1468
v -114.3264 89.31627 235.6891
v -113.9938 -12.06608 207.5275
v -89.65444 35.64632 248.8859
v -10.70092 18.25819 330.4495
v -2.92463 -96.59579 291.9767
v -11.52297 -93.98878 286.2003
v -1.363882 19.3998 337.226
v -6.966626 88.48167 352.1491
v 2.796191 88.56451 359.0522
v -2.944896 -96.40427 291.378
v 3.53437 -94.72769 286.832
v 3.415274 -94.21252 285.5984
v -2.92463 -96.59579 291.9767
v -11.85129 -93.07932 284.3578
v -11.52297 -93.98878 286.2003
v 4.621292 20.19147 323.2034
v 11.80241 88.95728 353.1871
v 9.339772 89.0006 350.6924
v 5.634201 20.79187 326.7775
v 3.415274 -94.21252 285.5984
v 3.53437 -94.72769 286.832
v 9.339772 89.0006 350.6924
v 11.80241 88.95728 353.1871
v 2.796191 88.56451 359.0522
v 2.973803 88.60849 356.5297
v -6.966626 88.48167 352.1491
v -5.989435 87.96761 351.4298
v -9.016819 20.1781 325.4975
v -11.52297 -93.98878 286.2003
v -11.85129 -93.07932 284.3578
v -10.70092 18.25819 330.4495
v -5.989435 87.96761 351.4298
v -6.966626 88.48167 352.1491
v 101.0098 9.678436 214.548
v 9.339772 89.0006 350.6924
v 109.3602 93.82942 238.2315
v 4.621292 20.19147 323.2034
v 109.622 -56.70681 206.712
v 3.415274 -94.21252 285.5984
v 3.708158 80.27212 354.0445
v 1.060922 104.3354 350.7739
v 1.893874 104.3507 350.7613
v 4.537361 80.29659 354.0303
v 12.44501 84.3282 339.1074
v 11.45462 106.7546 336.0102
v 2.857491 102.9821 277.1898
v 4.901897 113.7469 279.9931
v 2.642742 98.02819 220.5968
v 5.05889 118.572 231.4195
v 4.210279 95.14297 183.5554
v 5.670909 117.0335 182.7623
v 13.89629 94.78913 138.318
v 6.930567 116.3436 144.2348
v -21.19764 113.9872 182.6776
v -20.40583 115.5033 147.2373
v 6.930567 116.3436 144.2348
v 5.670909 117.0335 182.7623
v -15.6503 115.1435 232.0167
v 5.05889 118.572 231.4195
v -10.46372 111.0991 282.0913
v 4.901897 113.7469 279.9931
v -10.88978 104.7236 336.7385
v 11.45462 106.7546 336.0102
v 1.060922 104.3354 350.7739
v 1.893874 104.3507 350.7613
v -20.40583 115.5033 147.2373
v -14.71859 92.03876 137.2961
v 13.89629 94.78913 138.318
v 6.930567 116.3436 144.2348
v -9.02123 81.79441 340.0151
v 3.708158 80.27212 354.0445
v 4.537361 80.29659 354.0303
v 12.44501 84.3282 339.1074
v -12.70502 99.12292 280.527
v 2.857491 102.9821 277.1898
v -18.6664 93.99997 221.2252
v 2.642742 98.02819 220.5968
v -21.90369 92.84457 185.3636
v 4.210279 95.14297 183.5554
v -14.71859 92.03876 137.2961
v 13.89629 94.78913 138.318
v -10.88978 104.7236 336.7385
v 1.060922 104.3354 350.7739
v 3.708158 80.27212 354.0445
v -9.02123 81.79441 340.0151
v -10.46372 111.0991 282.0913
v -12.70502 99.12292 280.527
v -15.6503 115.1435 232.0167
v -18.6664 93.99997 221.2252
v -21.19764 113.9872 182.6776
v -21.90369 92.84457 185.3636
v -20.40583 115.5033 147.2373
v -14.71859 92.03876 137.2961
v -1.645298 -92.21673 289.6158
v -1.558944 -69.78967 287.0038
v -0.7003661 -69.90645 287.0499
v -0.2164897 -90.24687 288.3905
v 9.896464 -95.2886 275.4305
v 6.20169 -77.50005 273.7366
v -0.7607327 -109.323 244.1358
v -3.633996 -90.59133 243.0264
v -0.7056895 -116.9004 193.9358
v -0.7120728 -100.1325 190.554
v 5.253519 -121.4319 174.2758
v 4.875355 -104.544 168.4721
v 10.35173 -132.1176 133.8153
v 10.22911 -117.4059 100.7566
v -15.07653 -76.23476 272.5816
v -1.558944 -69.78967 287.0038
v -0.7003661 -69.90645 287.0499
v -24.67501 -87.96807 242.5692
v -0.7120728 -100.1325 190.554
v -16.35168 -101.4122 188.8808
v 4.875355 -104.544 168.4721
v -15.16076 -104.9714 169.6649
v 10.22911 -117.4059 100.7566
v -17.09063 -117.472 101.1861
v -17.09063 -117.472 101.1861
v -13.67179 -129.7783 136.2437
v 10.35173 -132.1176 133.8153
v 10.22911 -117.4059 100.7566
v -13.01486 -96.7218 277.3645
v -1.645298 -92.21673 289.6158
v -0.2164897 -90.24687 288.3905
v 9.896464 -95.2886 275.4305
v -22.6311 -108.6675 245.5905
v -0.7607327 -109.323 244.1358
v -15.18506 -118.4407 193.7191
v -0.7056895 -116.9004 193.9358
v -10.03431 -121.2862 173.7756
v 5.253519 -121.4319 174.2758
v -13.67179 -129.7783 136.2437
v 10.35173 -132.1176 133.8153
v -15.07653 -76.23476 272.5816
v -1.558944 -69.78967 287.0038
v -1.645298 -92.21673 289.6158
v -13.01486 -96.7218 277.3645
v -24.67501 -87.96807 242.5692
v -22.6311 -108.6675 245.5905
v -16.35168 -101.4122 188.8808
v -15.18506 -118.4407 193.7191
v -15.16076 -104.9714 169.6649
v -10.03431 -121.2862 173.7756
v -17.09063 -117.472 101.1861
v -13.67179 -129.7783 136.2437
v -45.95371 -54.73372 258.9789
v -47.01039 -54.48881 262.8595
v -83.34169 -43.77778 230.7677
v -81.14732 -44.33447 228.8539
v -89.65444 35.64632 248.8859
v -91.01289 36.09037 250.2719
v -39.44343 58.98418 308.7248
v -39.00012 59.13993 305.3773
v -11.36703 52.78936 206.3866
v -11.15845 -78.4528 227.3426
v -8.070936 -78.24266 227.9585
v -7.798279 53.27547 206.8827
v -5.333314 -77.87749 229.4844
v -4.589962 54.00363 208.4303
v -3.213567 -77.39303 231.7709
v -2.05613 54.90258 210.8778
v -1.919188 -76.8367 234.5942
v -0.4448118 55.8843 213.9856
v -1.576882 -76.26295 237.678
v 0.08626361 56.85271 217.4494
v -2.220156 -75.72797 240.7204
v -0.5148869 57.71301 220.9304
v -3.786042 -75.2841 243.4236
v -2.18942 58.38099 224.0876
v -6.121259 -74.97481 245.523
v -4.773419 58.79125 226.6122
v -8.997221 -74.83035 246.813
v -8.013946 58.90365 228.2568
v -12.13241 -74.86489 247.1674
v -11.59379 58.70718 228.8606
v -15.21993 -75.07503 246.5516
v -15.16255 58.22107 228.3644
v -17.95755 -75.4402 245.0257
v -18.37086 57.4929 226.8168
v -20.07729 -75.92467 242.7392
v -20.90469 56.59396 224.3694
v -21.37167 -76.481 239.9158
v -22.51601 55.61224 221.2616
v -21.71398 -77.05474 236.832
v -23.04709 54.64382 217.7977
v -21.07071 -77.58972 233.7896
v -22.44594 53.78352 214.3167
v -19.50482 -78.03359 231.0864
v -20.7714 53.11555 211.1595
v -17.1696 -78.34288 228.9871
v -18.1874 52.70528 208.635
v -14.29364 -78.48733 227.697
v -14.94688 52.59288 206.9904
v -11.15845 -78.4528 227.3426
v -11.36703 52.78936 206.3866
v -12.60053 -74.63922 235.0433
v -7.096225 -118.81 221.3757
v -5.010711 -119.1358 221.9616
v -11.21719 -74.66238 235.4328
v -3.717006 -120.0521 223.4734
v -10.31434 -74.44633 236.5301
v -3.709262 -121.2088 225.3337
v -10.23685 -74.0736 237.9161
v -4.990436 -122.1641 226.832
v -11.0143 -73.68656 239.0613
v -7.071164 -122.5531 227.3958
v -12.34975 -73.43304 239.5284
v -9.156678 -122.2273 226.81
v -13.73309 -73.40988 239.1389
v -10.45038 -121.3111 225.2982
v -14.63593 -73.62594 238.0416
v -10.45813 -120.1544 223.4379
v -14.71343 -73.99866 236.6556
v -9.176953 -119.1991 221.9396
v -13.93597 -74.38571 235.5104
v -7.096225 -118.81 221.3757
v -12.60053 -74.63922 235.0433
v -7.652225 83.15703 224.8067
v -11.68473 51.4868 218.7487
v -10.2169 52.03025 218.9814
v -6.135963 83.56374 225.2096
v -9.246202 52.6787 220.0497
v -3.60439 111.9054 212.0752
v -5.308509 111.5716 211.4313
v -4.341894 125.7453 211.2207
v -2.615512 125.7453 211.8646
v -2.612522 112.1874 213.6136
v -1.584652 125.7453 213.403
v -5.167529 83.94881 226.4509
v -9.143421 53.18448 221.5456
v -2.711763 112.3098 215.459
v -1.643068 125.7453 215.2483
v -5.116828 84.16514 228.0563
v -9.947812 53.35438 222.8977
v -3.864207 112.2259 216.9063
v -2.768446 125.7453 216.6957
v -6.003229 84.13011 229.4128
v -11.35212 53.12352 223.5895
v -5.62966 111.9678 217.4029
v -4.53093 125.7453 217.1922
v -7.488154 83.85711 230.002
v -12.81996 52.58008 223.3568
v -7.333778 111.634 216.759
v -6.257311 125.7453 216.5483
v -9.004415 83.45039 229.5991
v -13.79065 51.93162 222.2885
v -8.325646 111.3521 215.2206
v -7.288173 125.7453 215.0099
v -9.97285 83.06534 228.3579
v -13.89343 51.42584 220.7926
v -8.226406 111.2296 213.3753
v -7.229756 125.7453 213.1646
v -10.02355 82.849 226.7525
v -13.08904 51.25594 219.4405
v -7.073962 111.3135 211.9279
v -6.104379 125.7453 211.7173
v -9.137151 82.88402 225.396
v -11.68473 51.4868 218.7487
v -7.652225 83.15703 224.8067
v -5.308509 111.5716 211.4313
v -4.341894 125.7453 211.2207
v -33.68133 -52.99069 269.4366
v -61.64061 70.81458 285.0505
v -65.70506 69.41503 288.8698
v -37.74577 -54.39026 273.2559
v -61.64061 70.81458 285.0505
v -46.90042 72.10548 301.2096
v -50.96487 70.70589 305.029
v -65.70506 69.41503 288.8698
v -46.90042 72.10548 301.2096
v -18.94113 -51.69982 285.5957
v -23.00558 -53.09938 289.4151
v -50.96487 70.70589 305.029
v -18.94113 -51.69982 285.5957
v -33.68133 -52.99069 269.4366
v -37.74577 -54.39026 273.2559
v -23.00558 -53.09938 289.4151
v -61.64061 70.81458 285.0505
v -33.68133 -52.99069 269.4366
v -18.94113 -51.69982 285.5957
v -46.90042 72.10548 301.2096
v -50.96487 70.70589 305.029
v -23.00558 -53.09938 289.4151
v -37.74577 -54.39026 273.2559
v -65.70506 69.41503 288.8698
v -71.95864 -56.31366 230.8598
v -81.061 66.27836 266.0963
v -85.12543 64.87881 269.9156
v -76.02309 -57.71324 234.6792
v -81.061 66.27836 266.0963
v -65.64058 63.04696 281.3221
v -69.70503 61.64738 285.1415
v -85.12543 64.87881 269.9156
v -65.64058 63.04696 281.3221
v -56.53823 -59.54509 246.0858
v -60.60268 -60.94463 249.9051
v -69.70503 61.64738 285.1415
v -56.53823 -59.54509 246.0858
v -71.95864 -56.31366 230.8598
v -76.02309 -57.71324 234.6792
v -60.60268 -60.94463 249.9051
v -81.061 66.27836 266.0963
v -71.95864 -56.31366 230.8598
v -56.53823 -59.54509 246.0858
v -65.64058 63.04696 281.3221
v -69.70503 61.64738 285.1415
v -60.60268 -60.94463 249.9051
v -76.02309 -57.71324 234.6792
v -85.12543 64.87881 269.9156
v -127.3878 -25.82578 123.0936
v -129.7737 6.888991 123.3789
v -128.6087 6.888991 133.1184
v -126.2229 -25.82578 132.833
v -129.7737 6.888991 123.3789
v 126.2229 25.82578 92.75907
v 127.3878 25.82578 102.4985
v -128.6087 6.888991 133.1184
v 126.2229 25.82578 92.75907
v 128.6087 -6.888991 92.47369
v 129.7737 -6.888991 102.2131
v 127.3878 25.82578 102.4985
v 128.6087 -6.888991 92.47369
v -127.3878 -25.82578 123.0936
v -126.2229 -25.82578 132.833
v 129.7737 -6.888991 102.2131
v -129.7737 6.888991 123.3789
v -127.3878 -25.82578 123.0936
v 128.6087 -6.888991 92.47369
v 126.2229 25.82578 92.75907
v 127.3878 25.82578 102.4985
v 129.7737 -6.888991 102.2131
v -126.2229 -25.82578 132.833
v -128.6087 6.888991 133.1184
v -120.5716 -34.22582 123.523
v -119.1522 -66.99799 123.5174
v 139.1195 -55.81107 122.5045
v 137.7 -23.03892 122.51
v -119.1522 -66.99799 123.5174
v -120.5716 -34.22582 123.523
v -120.5332 -34.22582 133.3318
v -119.1137 -66.99799 133.3262
v 139.1195 -55.81107 122.5045
v -119.1522 -66.99799 123.5174
v -119.1137 -66.99799 133.3262
v 139.158 -55.81107 132.3133
v 137.7 -23.03892 122.51
v 139.1195 -55.81107 122.5045
v 139.158 -55.81107 132.3133
v 137.7385 -23.03892 132.3188
v 137.7385 -23.03892 132.3188
v 139.158 -55.81107 132.3133
v -119.1137 -66.99799 133.3262
v -120.5332 -34.22582 133.3318
v -120.5716 -34.22582 123.523
v 137.7 -23.03892 122.51
v 137.7385 -23.03892 132.3188
v -120.5332 -34.22582 133.3318
v -0.5148869 57.71301 220.9304
v -11.48041 55.74826 217.6236
v 0.08626361 56.85271 217.4494
v -2.18942 58.38099 224.0876
v -0.4448118 55.8843 213.9856
v -4.773419 58.79125 226.6122
v -2.05613 54.90258 210.8778
v -8.013946 58.90365 228.2568
v -4.589962 54.00363 208.4303
v -11.59379 58.70718 228.8606
v -7.798279 53.27547 206.8827
v -15.16255 58.22107 228.3644
v -11.36703 52.78936 206.3866
v -18.37086 57.4929 226.8168
v -14.94688 52.59288 206.9904
v -20.90469 56.59396 224.3694
v -18.1874 52.70528 208.635
v -22.51601 55.61224 221.2616
v -20.7714 53.11555 211.1595
v -23.04709 54.64382 217.7977
v -22.44594 53.78352 214.3167
v -6.121259 -74.97481 245.523
v -11.64543 -76.65885 237.255
v -8.997221 -74.83035 246.813
v -3.786042 -75.2841 243.4236
v -12.13241 -74.86489 247.1674
v -2.220156 -75.72797 240.7204
v -15.21993 -75.07503 246.5516
v -1.576882 -76.26295 237.678
v -17.95755 -75.4402 245.0257
v -1.919188 -76.8367 234.5942
v -20.07729 -75.92467 242.7392
v -3.213567 -77.39303 231.7709
v -21.37167 -76.481 239.9158
v -5.333314 -77.87749 229.4844
v -21.71398 -77.05474 236.832
v -8.070936 -78.24266 227.9585
v -21.07071 -77.58972 233.7896
v -11.15845 -78.4528 227.3426
v -19.50482 -78.03359 231.0864
v -14.29364 -78.48733 227.697
v -17.1696 -78.34288 228.9871
v -1.643068 125.7453 215.2483
v -4.436414 125.7453 214.2064
v -1.584652 125.7453 213.403
v -2.768446 125.7453 216.6957
v -2.615512 125.7453 211.8646
v -4.53093 125.7453 217.1922
v -4.341894 125.7453 211.2207
v -6.257311 125.7453 216.5483
v -6.104379 125.7453 211.7173
v -7.288173 125.7453 215.0099
v -7.229756 125.7453 213.1646
v -5.010711 -119.1358 221.9616
v -7.096225 -118.81 221.3757
v -7.083695 -120.6816 224.3858
v -3.717006 -120.0521 223.4734
v -9.176953 -119.1991 221.9396
v -3.709262 -121.2088 225.3337
v -10.45813 -120.1544 223.4379
v -4.990436 -122.1641 226.832
v -10.45038 -121.3111 225.2982
v -7.071164 -122.5531 227.3958
v -9.156678 -122.2273 226.81
v -91.01289 36.09037 250.2719
v -119.1507 89.00976 240.5287
v -5.989435 87.96761 351.4298
v -84.61722 -0.2205911 244.2636
v -39.44343 58.98418 308.7248
v -116.1653 -10.96959 209.6073
v -9.016819 20.1781 325.4975
v -83.34169 -43.77778 230.7677
v -29.21673 11.82366 302.809
v -122.423 -57.84328 187.582
v -11.85129 -93.07932 284.3578
v -47.01039 -54.48881 262.8595

vn -0.6768499 0.004377032 0.7361081
vn -0.6768499 0.004377032 0.7361081
vn -0.6781083 0.004808846 0.7349463
vn -0.6783789 0.004901819 0.7346959
vn -0.6796266 0.005330848 0.7335388
vn -0.6796266 0.005330848 0.7335388
vn 0.6443997 0.1423536 0.7513217
vn 0.6443997 0.1423536 0.7513217
vn 0.6770105 0.03682748 0.7350513
vn 0.6765139 0.03867238 0.7354137
vn 0.7012152 -0.06932855 0.7095709
vn 0.7012152 -0.06932855 0.7095709
vn 0.7131876 -0.006296295 -0.700945
vn 0.7089272 -0.008674858 -0.7052283
vn 0.7131876 -0.006296295 -0.700945
vn 0.7077199 -0.009345741 -0.7064313
vn 0.70344 -0.01171348 -0.7106581
vn 0.70344 -0.01171348 -0.7106581
vn -0.7472901 0.03781777 -0.6634209
vn -0.7290092 -0.1735557 -0.662136
vn -0.7290092 -0.1735557 -0.662136
vn -0.7472146 0.06398988 -0.661495
vn -0.7265624 0.2792353 -0.6278014
vn -0.7265624 0.2792353 -0.6278014
vn -0.664169 0.1782678 -0.7260166
vn 0.02703435 0.8897998 -0.4555495
vn -0.7093986 0.2410767 -0.6622958
vn -0.5771537 0.7296959 -0.3666573
vn -0.1437318 -0.3694045 -0.9180857
vn -0.1625899 -0.03864955 -0.9859365
vn -0.07611525 0.7384164 -0.6700355
vn -0.6371487 0.7005736 -0.321307
vn -0.09813092 0.9339463 0.3436782
vn -0.09813092 0.9339463 0.3436782
vn 0.5958666 0.6934087 -0.4051263
vn 0.6062722 0.665632 -0.4351645
vn 0.5720864 0.750905 -0.3299374
vn 0.2737636 0.9594583 0.06703208
vn 0.6895487 0.2283236 -0.6873071
vn 0.6547538 0.2407478 -0.716476
vn 0.7207724 0.2162199 -0.6585864
vn 0.7207724 0.2162199 -0.6585864
vn -0.6787561 -0.2463533 0.6918093
vn -0.6787561 -0.2463533 0.6918093
vn -0.6738303 -0.2482364 0.6959391
vn -0.67396 -0.2481871 0.6958312
vn -0.6690187 -0.2500542 0.6999192
vn -0.6690187 -0.2500542 0.6999192
vn 0.6224414 0.1505428 -0.7680518
vn 0.637988 -0.1166286 -0.7611631
vn 0.5757061 -0.07849572 -0.8138801
vn 0.6134905 0.1525257 -0.7748324
vn 0.4208503 -0.03583788 -0.906422
vn 0.3745107 -0.07538406 -0.9241531
vn -0.9974885 0.07057413 0.005997395
vn -0.8559465 -0.08284998 0.5103837
vn -0.9633588 0.2658187 -0.0357824
vn -0.8744155 -0.1617854 0.4574091
vn -0.9766126 -0.2053833 0.06360459
vn -0.7832779 -0.2384319 0.5741306
vn -0.6759043 0.2643487 -0.6879485
vn -0.7037216 0.3003757 -0.6438559
vn -0.6687202 0.3104838 -0.6755835
vn -0.6696711 0.3358538 -0.6623766
vn -0.7058335 0.06161262 -0.7056931
vn -0.7003265 0.0691178 -0.7104685
vn 0.6102508 -0.2180428 0.761611
vn 0.6102508 -0.2180428 0.761611
vn 0.6893232 -0.05485985 0.7223738
vn 0.6437197 -0.1550584 0.7493876
vn 0.7140132 0.01005946 0.70006
vn 0.7140132 0.01005946 0.70006
vn 0.727571 -0.2616974 0.634157
vn 0.699962 -0.2829619 0.6557331
vn 0.699962 -0.2829619 0.6557331
vn 0.7334345 -0.2569976 0.629306
vn 0.7596058 -0.235153 0.6063846
vn 0.7596058 -0.235153 0.6063846
vn -0.067546 -0.9957521 0.06257153
vn -0.067546 -0.9957521 0.06257153
vn -0.003059361 -0.9988828 0.04715685
vn -0.04978309 -0.9970543 0.05834598
vn 0.020308 -0.9997737 0.006332457
vn 0.01903359 -0.9997541 0.01137818
vn 0.002482806 -0.9989636 -0.04544956
vn -0.04586481 -0.9954903 -0.08303971
vn -0.07175598 -0.9920797 -0.1030965
vn -0.07175598 -0.9920797 -0.1030965
vn -0.7133145 1.345706E-05 -0.7008441
vn -0.7194974 0.0003920133 -0.694495
vn -0.7194974 0.0003920133 -0.694495
vn -0.7058335 0.06161262 -0.7056931
vn -0.7074077 -0.0001632639 -0.7068058
vn -0.7003265 0.0691178 -0.7104685
vn -0.7071012 0 -0.7071123
vn -0.7071012 0 -0.7071123
vn 0.637988 -0.1166286 -0.7611631
vn 0.6422006 -0.240232 -0.7279195
vn 0.6422006 -0.240232 -0.7279195
vn 0.6280467 -0.2434145 -0.7391256
vn 0.5757061 -0.07849572 -0.8138801
vn 0.5658447 -0.2276402 -0.7924643
vn 0.4772923 -0.1641172 -0.8632831
vn 0.4772923 -0.1641172 -0.8632831
vn -0.01546261 -0.9435211 -0.3309518
vn -0.01091871 -0.9424425 -0.33419
vn -0.02052227 -0.9463416 -0.3225157
vn -0.01500016 -0.9458911 -0.3241372
vn 0.0007932481 -0.9377599 -0.3472833
vn -0.006764444 -0.9470441 -0.3210323
vn -0.006556538 -0.9469962 -0.3211776
vn -0.001696842 -0.9238662 -0.382712
vn 0.01923719 -0.9333062 -0.3585661
vn 0.0225319 -0.9297791 -0.3674277
vn 0.03237364 -0.9267124 -0.3743742
vn -0.004129989 -0.9411072 -0.3380833
vn 0.005748052 -0.9224585 -0.3860534
vn -0.00895356 -0.9071472 -0.4207182
vn -0.02251975 -0.8987632 -0.4378558
vn -0.0196148 -0.8786637 -0.4770383
vn 0.1622191 -0.5649118 -0.8090486
vn -0.1437318 -0.3694045 -0.9180857
vn 0.1534421 -0.561789 -0.812926
vn 0.1367152 -0.5851693 -0.7993033
vn -0.05455306 0.9121479 0.4062147
vn -0.07608127 0.9053251 0.4178495
vn -0.07608127 0.9053251 0.4178495
vn -0.00897285 0.9246214 0.3807819
vn 0.01951701 0.9342341 0.356126
vn 0.01976444 0.93439 0.3557032
vn 0.06159391 0.8872622 0.4571345
vn 0.4506831 0.4881996 0.7473592
vn 0.07553072 0.861868 0.5014763
vn 0.4033036 0.4761669 0.7814162
vn 0.5976045 -0.0773388 0.7980524
vn 0.6423578 -0.1652951 0.7483674
vn 0.6794786 -0.2517725 0.6891441
vn 0.6794786 -0.2517725 0.6891441
vn -0.7037216 0.3003757 -0.6438559
vn -0.7325543 0.2453883 -0.6349399
vn -0.7325543 0.2453883 -0.6349399
vn -0.7197211 0.2497673 -0.6477792
vn -0.668714 0.2676087 -0.6936909
vn -0.6687202 0.3104838 -0.6755835
vn -0.6253846 0.2813488 -0.7278304
vn -0.6253846 0.2813488 -0.7278304
vn 0.1534421 -0.561789 -0.812926
vn 0.1367152 -0.5851693 -0.7993033
vn 0.2936214 -0.1451148 -0.9448429
vn 0.3745107 -0.07538406 -0.9241531
vn 0.1622191 -0.5649118 -0.8090486
vn 0.4208503 -0.03583788 -0.906422
vn -0.1437318 -0.3694045 -0.9180857
vn -0.1625899 -0.03864955 -0.9859365
vn -0.00863622 0.9998273 0.01645741
vn -0.01281927 0.9997177 0.02000524
vn -0.01660645 0.9995707 0.02414051
vn -0.01560837 0.9996438 0.02165035
vn 0.002271075 0.9999796 0.005978084
vn -0.02793158 0.9993196 0.02408711
vn -0.03555354 0.9983349 0.04542534
vn 0.03605076 0.9974706 0.06125863
vn -0.004377835 0.9999889 0.001741198
vn 0.008913733 0.9999599 -0.000867992
vn -0.001831432 0.9999063 -0.01357042
vn -0.01269665 0.9999162 -0.00253514
vn -0.008395406 0.9999171 -0.009765145
vn -0.003866191 0.9991969 0.0398803
vn -0.01242436 0.9998494 0.01211594
vn -0.008820335 0.9999611 0.0001739237
vn 0.04105769 0.9983258 0.04074197
vn 0.0655791 0.9958186 0.06359787
vn 0.007264725 0.9999255 0.009811331
vn -0.004196104 0.9999912 -0.0003443777
vn 0.03769005 -0.9974564 -0.06050051
vn 0.03326835 -0.9987741 -0.03665416
vn 0.03326835 -0.9987741 -0.03665416
vn 0.03478718 -0.9983885 -0.04483577
vn 0.04551502 -0.9960562 -0.07616039
vn 0.04633003 -0.9959443 -0.07712682
vn -0.02998943 -0.9903517 -0.1352931
vn -0.1669244 -0.9620391 -0.2159099
vn -0.2465106 -0.9332474 -0.2613079
vn -0.2465106 -0.9332474 -0.2613079
vn -0.710807 0.1944428 -0.6759774
vn -0.7260805 0.2947766 -0.6212198
vn -0.7926549 0.2842788 -0.5393364
vn -0.7870429 0.2226454 -0.5753195
vn -0.6932189 0.1177507 -0.7110431
vn -0.8429853 0.2726386 -0.4637282
vn -0.6371487 0.7005736 -0.321307
vn -0.8457077 0.2187132 -0.4867678
vn -0.07611525 0.7384164 -0.6700355
vn 0.6062722 0.665632 -0.4351645
vn 0.679681 0.2023869 -0.7050343
vn 0.6866896 0.2120312 -0.6953418
vn 0.684357 0.1638852 -0.7104907
vn 0.6899515 0.1633638 -0.7051803
vn 0.6434087 0.5759333 -0.5043076
vn 0.6548681 0.5550415 -0.5129099
vn 0.6969407 0.2254276 -0.6807759
vn 0.5720864 0.750905 -0.3299374
vn 0.6993935 0.1557597 -0.6975583
vn 0.7229125 0.235847 -0.649441
vn 0.7129526 0.1610325 -0.6824715
vn 0.7170255 0.2643647 -0.6449695
vn 0.7196971 0.1740565 -0.6721164
vn -0.5623251 -0.26532 0.7831959
vn -0.5637754 -0.2964039 0.77091
vn -0.5637754 -0.2964039 0.77091
vn -0.5613534 -0.2495082 0.7890678
vn -0.55897 -0.2181459 0.7999781
vn -0.55897 -0.2181459 0.7999781
vn -0.009926629 -0.9229658 -0.384754
vn -0.01051421 -0.9332201 -0.3591513
vn -0.01051421 -0.9332201 -0.3591513
vn -0.009924637 -0.9229301 -0.3848397
vn -0.009332526 -0.9120287 -0.4100203
vn -0.009332526 -0.9120287 -0.4100203
vn 0.9419994 0.08652046 -0.3242705
vn 0.8552986 0.1294395 -0.5017068
vn 0.8552986 0.1294395 -0.5017068
vn 0.9040367 0.1081563 -0.4135456
vn 0.9711639 0.06354202 -0.2297891
vn 0.9711639 0.06354202 -0.2297891
vn -0.02805434 0.9991512 0.03016258
vn -0.02805434 0.9991512 0.03016258
vn 0.009804036 0.998529 -0.05332813
vn 0.004889197 0.9990844 -0.0425043
vn 0.04379874 0.9907975 -0.1280704
vn 0.04379874 0.9907975 -0.1280704
vn -0.9523013 0.1288402 -0.2766268
vn -0.9834132 0.07795876 -0.1637707
vn -0.9834132 0.07795876 -0.1637707
vn -0.9538341 0.126858 -0.2722274
vn -0.9071906 0.1762861 -0.3820058
vn -0.9071906 0.1762861 -0.3820058
vn 0.6981918 -0.2055697 0.6857617
vn 0.7150764 -0.2759658 0.6422684
vn 0.7150764 -0.2759658 0.6422684
vn 0.7036726 -0.2264166 0.6734837
vn 0.6822607 -0.151808 0.7151746
vn 0.6822607 -0.151808 0.7151746
vn -0.3589481 0.0929424 0.9287184
vn -0.4423701 0.08032972 0.8932278
vn 0.4982097 0.1554308 0.8530113
vn 0.4464503 0.1552119 0.8812442
vn 0.9530955 0.07851536 0.2923085
vn 0.9879746 0.04191117 0.1488272
vn 0.9936131 -0.09221265 -0.06503728
vn 0.9935381 -0.08191329 -0.07856382
vn 0.9935175 -0.1118121 0.0205193
vn 0.9919913 -0.1258739 0.01043241
vn 0.9968275 0.005847396 0.07937609
vn 0.9967856 0.006809493 0.07982525
vn 0.9857414 0.1098777 0.1274391
vn 0.9857414 0.1098777 0.1274391
vn -0.1020985 0.9947608 -0.005178291
vn -0.07102291 0.9974325 0.009171753
vn -0.07102291 0.9974325 0.009171753
vn -0.1027571 0.9946913 -0.005482942
vn -0.1463968 0.9885936 0.03536421
vn -0.1466237 0.9885187 0.03650159
vn -0.1342213 0.984622 0.1118227
vn -0.1369999 0.9844384 0.1100549
vn -0.1022179 0.9878507 0.1170573
vn -0.1017331 0.9879451 0.1166824
vn -0.08420523 0.9910985 0.1031174
vn -0.08420523 0.9910985 0.1031174
vn -0.05392551 0.3182401 -0.9464752
vn -0.05392551 0.3182401 -0.9464752
vn -0.05392551 0.3182401 -0.9464752
vn -0.05392551 0.3182401 -0.9464752
vn 0.1201503 -0.957595 -0.2618697
vn 0.1032706 -0.9735194 -0.2039485
vn 0.1032706 -0.9735194 -0.2039485
vn 0.1190509 -0.9587607 -0.258079
vn 0.1720992 -0.9765044 -0.1296963
vn 0.1801994 -0.9790101 -0.09522327
vn 0.1735988 -0.9828636 0.06198967
vn 0.1747368 -0.982643 0.06228831
vn 0.1148871 -0.9925252 0.04116559
vn 0.1110407 -0.9930461 0.03910706
vn 0.09223538 -0.9953134 0.0290482
vn 0.09223538 -0.9953134 0.0290482
vn -0.946651 0.01653186 0.3218363
vn -0.4423701 0.08032972 0.8932278
vn -0.3589481 0.0929424 0.9287184
vn -0.8968251 0.01799665 0.442019
vn -0.9958161 0.06469632 0.06453583
vn -0.9955171 0.06745902 0.06629494
vn -0.9897988 0.1015985 0.09988038
vn -0.9913351 0.08493924 0.1002002
vn -0.9997738 -0.02048745 -0.005709709
vn -0.9999256 -0.008236152 0.00899806
vn -0.9908778 -0.09512284 -0.09546059
vn -0.9908778 -0.09512284 -0.09546059
vn 0.3991609 0.08805519 0.9126428
vn 0.3991609 0.08805519 0.9126428
vn 0.6123694 0.1115183 0.7826668
vn 0.6293973 0.1132585 0.7687857
vn 0.9884918 0.1499354 -0.02008438
vn 0.7667452 0.6290271 -0.1281674
vn 0.982258 0.1086656 -0.1528434
vn 0.6464512 0.6888416 -0.3280212
vn 0.9878018 0.08158057 0.1326356
vn 0.9875848 0.08155646 0.1342567
vn 0.9817076 0.09200396 0.1666894
vn 0.9835156 0.09378441 0.1546015
vn 0.9917594 0.1053594 0.07288935
vn 0.9917594 0.1053594 0.07288935
vn 0.09325203 0.901419 -0.4227858
vn 0.08028258 0.8814906 -0.4653267
vn 0.08028258 0.8814906 -0.4653267
vn 0.07280418 0.9502138 -0.302974
vn 0.0009796916 0.9794778 -0.2015499
vn 0.001322908 0.9794695 -0.201588
vn -0.02838253 0.981571 -0.1889783
vn -0.03099015 0.9812582 -0.1901895
vn -0.01652568 0.9828897 -0.1834522
vn -0.01652568 0.9828897 -0.1834522
vn -0.0614567 -0.9288819 -0.3652417
vn -0.05829204 -0.9960304 -0.06727222
vn -0.05886849 -0.9934267 -0.09817356
vn -0.0614567 -0.9288819 -0.3652417
vn 0.08797086 -0.9288365 0.3598943
vn 0.1734523 -0.9238517 0.3411924
vn 0.1734523 -0.9238517 0.3411924
vn 0.09626558 -0.9286662 0.3582067
vn 0.03709692 -0.9619373 0.2707404
vn 0.03740399 -0.9607089 0.2750265
vn 0.03488615 -0.9829401 0.1805872
vn 0.03586861 -0.9825174 0.1826823
vn -0.00297197 -0.9764873 0.2155546
vn -0.009559495 -0.975745 0.2187012
vn -0.05829204 -0.9960304 -0.06727222
vn -0.05886849 -0.9934267 -0.09817356
vn -0.8609297 0.0259693 0.5080606
vn -0.7449702 0.07983571 0.6623033
vn -0.7449702 0.07983571 0.6623033
vn -0.8714628 0.0200464 0.4900519
vn -0.9906757 -0.07113373 0.1161966
vn -0.9939076 -0.07758129 0.07828718
vn -0.9787083 -0.1646215 -0.1225963
vn -0.9795504 -0.1594754 -0.1226724
vn -0.9805838 -0.1955944 -0.01408023
vn -0.980226 -0.1968275 -0.02039067
vn -0.9808035 -0.1749361 0.08615033
vn -0.9808035 -0.1749361 0.08615033
vn 0.6434087 0.5759333 -0.5043076
vn 0.2688872 0.9630101 0.01763834
vn 0.2688872 0.9630101 0.01763834
vn 0.6548681 0.5550415 -0.5129099
vn 0.2573117 -0.9536489 0.1560272
vn 0.2573117 -0.9536489 0.1560272
vn 0.2573117 -0.9536489 0.1560272
vn 0.2573117 -0.9536489 0.1560272
vn 0.03176607 -0.1575842 -0.9869944
vn 0.01936626 -0.1576065 -0.9873121
vn 0.327194 -0.1501577 -0.9329506
vn 0.3424632 -0.1493898 -0.9275784
vn 0.6040817 -0.1289193 -0.7864255
vn 0.618601 -0.1272947 -0.775325
vn 0.821861 -0.09584422 -0.5615678
vn 0.8323054 -0.09359566 -0.5463585
vn 0.9582179 -0.05423101 -0.2808515
vn 0.9629079 -0.05184411 -0.264803
vn 0.9995932 -0.008335216 0.02727439
vn 0.9991561 -0.006349151 0.04057878
vn 0.9425472 0.0371853 0.3319969
vn 0.9396148 0.03839337 0.3400732
vn 0.7934662 0.07782231 0.6036182
vn 0.7916191 0.07817782 0.605993
vn 0.5672274 0.1096513 0.8162289
vn 0.569658 0.1094026 0.8145679
vn 0.2855519 0.1296309 0.9495556
vn 0.2939135 0.1292554 0.9470522
vn -0.02467065 0.1358249 0.9904256
vn -0.01088926 0.1358567 0.9906687
vn -0.3333209 0.1275901 0.9341402
vn -0.3166828 0.1284233 0.9397976
vn -0.6096845 0.1057078 0.7855639
vn -0.5939115 0.1074415 0.7973239
vn -0.8257976 0.07237695 0.559303
vn -0.8143563 0.0747679 0.5755289
vn -0.9599731 0.0309948 0.278372
vn -0.9546891 0.03354951 0.295708
vn -0.9994862 -0.01427299 -0.02870001
vn -0.9998288 -0.01210352 -0.01399721
vn -0.9416073 -0.05900948 -0.331502
vn -0.9449497 -0.05761832 -0.3221026
vn -0.7930408 -0.0990052 -0.6010693
vn -0.7957217 -0.09848897 -0.5976011
vn -0.5684671 -0.1305791 -0.8122773
vn -0.5671685 -0.1307123 -0.813163
vn -0.2889813 -0.1507863 -0.9453852
vn -0.2819269 -0.1511073 -0.9474618
vn 0.01936626 -0.1576065 -0.9873121
vn 0.03176607 -0.1575842 -0.9869944
vn -0.03868599 0.2904234 -0.9561159
vn 0.01636735 0.2968324 -0.9547893
vn 0.5889809 0.3072671 -0.7474547
vn 0.5682864 0.3091133 -0.7625612
vn 0.9481435 0.2058017 -0.2422177
vn 0.9528843 0.20182 -0.2264514
vn 0.9274315 0.02949088 0.3728285
vn 0.9034536 0.01089382 0.4285474
vn 0.5536284 -0.1377935 0.8212847
vn 0.4860765 -0.1560718 0.8598669
vn 0.01966511 -0.2380468 0.9710546
vn -0.04001734 -0.2439998 0.9689493
vn -0.5152211 -0.2554399 0.8181062
vn -0.5326844 -0.254407 0.8071706
vn -0.9113538 -0.1787481 0.3707875
vn -0.8982239 -0.1848653 0.3987715
vn -0.9629264 -0.01049452 -0.2695598
vn -0.9788085 -0.03087085 -0.2024378
vn -0.5829673 0.1786691 -0.7926073
vn -0.6419576 0.1595206 -0.7499624
vn 0.01636735 0.2968324 -0.9547893
vn -0.03868599 0.2904234 -0.9561159
vn -0.03651299 -0.1197424 -0.9921334
vn -0.214958 0.2097891 -0.9538247
vn 0.3586161 0.1345664 -0.923735
vn 0.6074855 -0.1601565 -0.7780175
vn 0.8794221 -0.01865373 -0.4756773
vn 0.6088153 -0.2115929 -0.7645733
vn 0.05465514 -0.2219373 -0.973528
vn 0.05730997 -0.01915053 -0.9981728
vn 0.6336798 -0.05765615 -0.7714438
vn 0.9456019 -0.1449294 -0.2912602
vn 0.9623911 -0.07697264 -0.2605353
vn 0.960771 -0.1335409 -0.2430758
vn 0.9650553 -0.1677754 0.2012948
vn 0.9533076 -0.02287898 0.3011334
vn 0.9380409 -0.06860535 0.3396656
vn 0.9361918 -0.03842368 0.349383
vn 0.651715 -0.2353996 0.7210094
vn 0.5754747 0.12852 0.807658
vn 0.5683789 -0.03289839 0.8221089
vn 0.5866624 0.05959635 0.8076358
vn 0.0883484 -0.2130665 0.973035
vn -0.06297433 0.2267128 0.9719236
vn -0.02817076 0.01711004 0.9994567
vn 0.04398164 0.1023656 0.9937741
vn -0.5918669 -0.08844166 0.8011689
vn -0.6485327 0.2177864 0.7293657
vn -0.6188483 0.05837448 0.7833385
vn -0.5268258 0.1073209 0.8431706
vn -0.9710752 0.0744397 0.2268735
vn -0.9677883 0.1159369 0.2234828
vn -0.962054 0.07325649 0.2628414
vn -0.9229416 0.1030236 0.3708974
vn -0.9252471 0.1776496 -0.3351994
vn -0.9289325 -0.03536017 -0.3685566
vn -0.9333042 0.05948811 -0.3541251
vn -0.9691831 0.06071276 -0.2387428
vn -0.6479089 0.2190831 -0.7295318
vn -0.5345584 -0.1642606 -0.829015
vn -0.5455425 0.02473737 -0.8377179
vn -0.6484035 -0.03220252 -0.7606155
vn -0.214958 0.2097891 -0.9538247
vn -0.03651299 -0.1197424 -0.9921334
vn 0.05465514 -0.2219373 -0.973528
vn 0.05730997 -0.01915053 -0.9981728
vn -0.6727513 -0.05891692 -0.7375191
vn -0.6727513 -0.05891692 -0.7375191
vn -0.6727513 -0.05891692 -0.7375191
vn -0.6727513 -0.05891692 -0.7375191
vn -0.2186364 0.9681376 0.122098
vn -0.2186364 0.9681376 0.122098
vn -0.2186364 0.9681376 0.122098
vn -0.2186364 0.9681376 0.122098
vn 0.6727552 0.05891693 0.7375156
vn 0.6727552 0.05891693 0.7375156
vn 0.6727552 0.05891693 0.7375156
vn 0.6727552 0.05891693 0.7375156
vn 0.2186365 -0.9681376 -0.1220977
vn 0.2186365 -0.9681376 -0.1220977
vn 0.2186365 -0.9681376 -0.1220977
vn 0.2186365 -0.9681376 -0.1220977
vn 0.7068233 0.2433908 -0.6642001
vn 0.7068233 0.2433908 -0.6642001
vn 0.7068233 0.2433908 -0.6642001
vn 0.7068233 0.2433908 -0.6642001
vn -0.7068241 -0.2433906 0.6641994
vn -0.7068241 -0.2433906 0.6641994
vn -0.7068241 -0.2433906 0.6641994
vn -0.7068241 -0.2433906 0.6641994
vn -0.7037982 0.1474833 -0.694922
vn -0.7037982 0.1474833 -0.694922
vn -0.7037982 0.1474833 -0.694922
vn -0.7037982 0.1474833 -0.694922
vn -0.07117829 0.9586501 0.2755423
vn -0.07117829 0.9586501 0.2755423
vn -0.07117829 0.9586501 0.2755423
vn -0.07117829 0.9586501 0.2755423
vn 0.7038009 -0.1474831 0.6949195
vn 0.7038009 -0.1474831 0.6949195
vn 0.7038009 -0.1474831 0.6949195
vn 0.7038009 -0.1474831 0.6949195
vn 0.07117748 -0.9586501 -0.2755429
vn 0.07117748 -0.9586501 -0.2755429
vn 0.07117748 -0.9586501 -0.2755429
vn 0.07117748 -0.9586501 -0.2755429
vn 0.7068238 0.2433906 -0.6641995
vn 0.7068238 0.2433906 -0.6641995
vn 0.7068238 0.2433906 -0.6641995
vn 0.7068238 0.2433906 -0.6641995
vn -0.7068244 -0.2433904 0.664199
vn -0.7068244 -0.2433904 0.664199
vn -0.7068244 -0.2433904 0.664199
vn -0.7068244 -0.2433904 0.664199
vn -0.9902551 -0.07325161 0.1184446
vn -0.9902551 -0.07325161 0.1184446
vn -0.9902551 -0.07325161 0.1184446
vn -0.9902551 -0.07325161 0.1184446
vn -0.07273348 0.9973134 0.008699696
vn -0.07273348 0.9973134 0.008699696
vn -0.07273348 0.9973134 0.008699696
vn -0.07273348 0.9973134 0.008699696
vn 0.9902551 0.07325161 -0.1184446
vn 0.9902551 0.07325161 -0.1184446
vn 0.9902551 0.07325161 -0.1184446
vn 0.9902551 0.07325161 -0.1184446
vn 0.07273348 -0.9973134 -0.008699696
vn 0.07273348 -0.9973134 -0.008699696
vn 0.07273348 -0.9973134 -0.008699696
vn 0.07273348 -0.9973134 -0.008699696
vn -0.1187639 0 -0.9929225
vn -0.1187639 0 -0.9929225
vn -0.1187639 0 -0.9929225
vn -0.1187639 0 -0.9929225
vn 0.1187639 0 0.9929225
vn 0.1187639 0 0.9929225
vn 0.1187639 0 0.9929225
vn 0.1187639 0 0.9929225
vn -0.003922034 0 -0.9999924
vn -0.003922034 0 -0.9999924
vn -0.003922034 0 -0.9999924
vn -0.003922034 0 -0.9999924
vn -0.9990556 -0.04327396 0.003918164
vn -0.9990556 -0.04327396 0.003918164
vn -0.9990556 -0.04327396 0.003918164
vn -0.9990556 -0.04327396 0.003918164
vn 0.04327333 -0.9990633 -0.0001697234
vn 0.04327333 -0.9990633 -0.0001697234
vn 0.04327333 -0.9990633 -0.0001697234
vn 0.04327333 -0.9990633 -0.0001697234
vn 0.9990556 0.04327396 -0.003918172
vn 0.9990556 0.04327396 -0.003918172
vn 0.9990556 0.04327396 -0.003918172
vn 0.9990556 0.04327396 -0.003918172
vn 0.003922016 0 0.9999924
vn 0.003922016 0 0.9999924
vn 0.003922016 0 0.9999924
vn 0.003922016 0 0.9999924
vn -0.04327322 0.9990633 0.0001697274
vn -0.04327322 0.9990633 0.0001697274
vn -0.04327322 0.9990633 0.0001697274
vn -0.04327322 0.9990633 0.0001697274
vn -0.09572008 0.9623572 -0.2543742
vn -0.09571924 0.9623578 -0.2543727
vn -0.09571984 0.962357 -0.254375
vn -0.09571885 0.9623582 -0.2543709
vn -0.09571793 0.962358 -0.2543724
vn -0.09571701 0.9623582 -0.2543717
vn -0.09571972 0.9623575 -0.2543736
vn -0.09571893 0.9623578 -0.2543725
vn -0.09571961 0.9623575 -0.2543733
vn -0.09571879 0.9623576 -0.254373
vn -0.0957197 0.9623578 -0.2543722
vn -0.09571714 0.962358 -0.2543725
vn -0.09572075 0.9623575 -0.2543726
vn -0.09572061 0.9623575 -0.2543731
vn -0.09571894 0.9623579 -0.2543721
vn -0.0957201 0.9623576 -0.2543725
vn -0.09571907 0.9623578 -0.2543724
vn -0.09571846 0.9623581 -0.2543714
vn -0.09571891 0.962358 -0.2543719
vn -0.09572041 0.9623575 -0.2543733
vn -0.09572022 0.9623576 -0.2543725
vn 0.03111974 -0.9832686 0.1794837
vn 0.03112099 -0.983269 0.1794814
vn 0.03112216 -0.9832689 0.1794819
vn 0.03112211 -0.9832687 0.1794825
vn 0.03112216 -0.9832689 0.1794819
vn 0.03112341 -0.9832692 0.1794797
vn 0.03112035 -0.9832686 0.1794838
vn 0.03112197 -0.9832687 0.1794822
vn 0.03112102 -0.9832686 0.179483
vn 0.03112132 -0.9832693 0.1794795
vn 0.03112108 -0.9832695 0.179479
vn 0.03112047 -0.9832693 0.1794797
vn 0.03112106 -0.9832695 0.1794789
vn 0.03111921 -0.9832687 0.1794829
vn 0.03112168 -0.9832687 0.1794823
vn 0.03112037 -0.983269 0.1794815
vn 0.03112103 -0.9832689 0.179482
vn 0.03112105 -0.9832689 0.1794817
vn 0.03111986 -0.9832691 0.1794808
vn 0.03111979 -0.9832692 0.1794801
vn 0.03111983 -0.9832691 0.1794807
vn 0 1 0
vn 0 1 0
vn 0 1 0
vn 0 1 0
vn 0 1 0
vn 0 1 0
vn 0 1 0
vn 0 1 0
vn 0 1 0
vn 0 1 0
vn 0 1 0
vn 0.0156638 -0.8490967 -0.5280052
vn 0.01567391 -0.8491006 -0.5279985
vn 0.01566971 -0.849098 -0.5280029
vn 0.01566519 -0.849098 -0.528003
vn 0.01567404 -0.8491021 -0.5279962
vn 0.01567533 -0.8490998 -0.5279998
vn 0.01567019 -0.8490988 -0.5280015
vn 0.01567402 -0.8490961 -0.5280057
vn 0.01567141 -0.8490966 -0.5280051
vn 0.01566396 -0.8490947 -0.5280083
vn 0.01566522 -0.8490962 -0.5280059
vn -0.6814838 -0.2347308 0.6931676
vn -0.681484 -0.2347309 0.6931674
vn -0.681484 -0.2347308 0.6931673
vn -0.6814837 -0.2347309 0.6931677
vn -0.7832779 -0.2384319 0.5741306
vn -0.6814836 -0.234731 0.6931676
vn -0.681484 -0.2347309 0.6931674
vn -0.6814838 -0.234731 0.6931675
vn -0.8744155 -0.1617854 0.4574091
vn -0.6814837 -0.234731 0.6931675
vn -0.681484 -0.2347309 0.6931674
vn -0.8559465 -0.08284998 0.5103837

vt 0.5334342 0.458193
vt 0.5533109 0.4504504
vt 0.4709621 0.2439917
vt 0.453235 0.2455692
vt 0.4558715 0.2346117
vt 0.4664745 0.2356627
vt 0.4558715 0.2346117
vt 0.4664745 0.2356627
vt 0.4703167 0.228815
vt 0.4545784 0.2249019
vt 0.5364268 0.02923256
vt 0.5542749 0.0321205
vt 0.7110347 0.02453226
vt 0.6419682 0.2159484
vt 0.7288057 0.03285643
vt 0.6227655 0.2134318
vt 0.6381308 0.2279117
vt 0.6142716 0.2284069
vt 0.620681 0.2407323
vt 0.6381308 0.2279117
vt 0.6142716 0.2284069
vt 0.640447 0.2380657
vt 0.6947005 0.4299612
vt 0.7101837 0.4297071
vt 0.5894186 0.2012467
vt 0.5605078 0.2106679
vt 0.5867601 0.2133316
vt 0.5679169 0.1978258
vt 0.6225616 0.03589562
vt 0.6085032 0.02434561
vt 0.557262 0.2102746
vt 0.5649722 0.1983862
vt 0.604561 0.02177867
vt 0.6085032 0.02434561
vt 0.5658092 0.2305128
vt 0.5627956 0.2291354
vt 0.5963923 0.427382
vt 0.600453 0.4261529
vt 0.5878847 0.2297886
vt 0.5867601 0.2133316
vt 0.6225616 0.422563
vt 0.600453 0.4261529
vt 0.4510646 0.05418497
vt 0.4274309 0.0476774
vt 0.370496 0.2577248
vt 0.390175 0.2598234
vt 0.3862169 0.2697866
vt 0.3742105 0.2707674
vt 0.1604379 0.2939712
vt 0.04613453 0.273186
vt 0.0452956 0.2832878
vt 0.1628276 0.2835448
vt 0.2506881 0.2890849
vt 0.2535123 0.2839158
vt 0.5118212 0.9756314
vt 0.5797697 0.9806714
vt 0.5797697 0.9756314
vt 0.5118212 0.9806714
vt 0.4661204 0.9756314
vt 0.4661204 0.9806714
vt 0.2204224 0.7150598
vt 0.2978393 0.7109982
vt 0.2981588 0.7033637
vt 0.2230761 0.7072678
vt 0.06773838 0.7170687
vt 0.06914738 0.7092214
vt 0.6630162 0.9756314
vt 0.6630162 0.9806714
vt 0.6942855 0.9806714
vt 0.6942855 0.9756314
vt 0.740042 0.9806714
vt 0.740042 0.9756314
vt 0.1270196 0.07334825
vt 0.03552878 0.06097463
vt 0.03479987 0.07480851
vt 0.1273651 0.08937117
vt 0.2827988 0.09574246
vt 0.2813863 0.1062668
vt 0.5224549 0.4620605
vt 0.5334342 0.458193
vt 0.453235 0.2455692
vt 0.4476222 0.2504265
vt 0.4487194 0.2335353
vt 0.4558715 0.2346117
vt 0.4545784 0.2249019
vt 0.4506687 0.2190586
vt 0.522433 0.02387586
vt 0.5364268 0.02923256
vt 0.5576357 0.461553
vt 0.5533109 0.4504504
vt 0.5334342 0.458193
vt 0.5377591 0.4692956
vt 0.5605643 0.4690711
vt 0.5406877 0.4768138
vt 0.5621899 0.4732444
vt 0.5423133 0.480987
vt 0.7039291 0.4429668
vt 0.7140657 0.4538806
vt 0.7288057 0.4444739
vt 0.7199067 0.4376686
vt 0.6976743 0.4351069
vt 0.7137397 0.4328441
vt 0.6947005 0.4299612
vt 0.7101837 0.4297071
vt 0.4621244 0.05759847
vt 0.4510646 0.05418497
vt 0.390175 0.2598234
vt 0.3966552 0.2567425
vt 0.4695058 0.06015182
vt 0.390894 0.2692847
vt 0.3862169 0.2697866
vt 0.3909685 0.2768746
vt 0.4009993 0.2542005
vt 0.4734427 0.06186789
vt 0.4034168 0.2526015
vt 0.3949482 0.2686634
vt 0.3973257 0.2681916
vt 0.3980562 0.2774391
vt 0.403061 0.2777925
vt 0.4059046 0.2778967
vt 0.4708416 0.441852
vt 0.4734427 0.4391589
vt 0.466152 0.4464885
vt 0.4591829 0.4532706
vt 0.3653423 0.2519962
vt 0.4274309 0.0476774
vt 0.4164235 0.04459792
vt 0.370496 0.2577248
vt 0.3666977 0.2709354
vt 0.3742105 0.2707674
vt 0.3666298 0.2865669
vt 0.3723352 0.2811401
vt 0.4376268 0.4662722
vt 0.4441262 0.4657199
vt 0.4591829 0.4532706
vt 0.3909685 0.2768746
vt 0.3742105 0.2707674
vt 0.3862169 0.2697866
vt 0.4301282 0.03611615
vt 0.4274309 0.0476774
vt 0.4510646 0.05418497
vt 0.4542323 0.04266381
vt 0.4563788 0.03480747
vt 0.4322841 0.0282712
vt 0.4339824 0.02397391
vt 0.4575316 0.03044292
vt 0.4606334 0.4629878
vt 0.4591829 0.4532706
vt 0.4441262 0.4657199
vt 0.4446192 0.4722515
vt 0.4617936 0.4695723
vt 0.4455626 0.4786805
vt 0.4625993 0.4732941
vt 0.4464791 0.483493
vt 0.5712873 0.4426031
vt 0.5752521 0.4408125
vt 0.4856164 0.2465325
vt 0.4828129 0.2458874
vt 0.5641026 0.445836
vt 0.4752517 0.2352483
vt 0.4777724 0.2352239
vt 0.4847552 0.2266676
vt 0.4779311 0.2449628
vt 0.5533109 0.4504504
vt 0.4709621 0.2439917
vt 0.4711137 0.2354465
vt 0.4664745 0.2356627
vt 0.4819017 0.2270239
vt 0.4770304 0.2276706
vt 0.4703167 0.228815
vt 0.5713107 0.04102948
vt 0.5752521 0.04367489
vt 0.5644495 0.03717205
vt 0.5542749 0.0321205
vt 0.6200667 0.2142511
vt 0.7110347 0.02453226
vt 0.7072788 0.02281526
vt 0.6227655 0.2134318
vt 0.61114 0.2280018
vt 0.6142716 0.2284069
vt 0.6179045 0.239889
vt 0.620681 0.2407323
vt 0.689573 0.4329379
vt 0.6947005 0.4299612
vt 0.1604379 0.2939712
vt 0.0452956 0.2832878
vt 0.01200747 0.4802215
vt 0.1071426 0.4805956
vt 0.2506881 0.2890849
vt 0.01091182 0.4913366
vt 0.2746288 0.469178
vt 0.1072944 0.4932036
vt 0.2751839 0.4814684
vt 0.2754921 0.498114
vt 0.1072944 0.4932036
vt 0.1123325 0.50664
vt 0.01091182 0.4913366
vt 0.0144341 0.5042755
vt 0.2441876 0.5663256
vt 0.2511964 0.6336232
vt 0.136008 0.5413714
vt 0.2981588 0.7033637
vt 0.07295379 0.5634893
vt 0.1851299 0.6425346
vt 0.06914738 0.7092214
vt 0.2230761 0.7072678
vt 0.1331497 0.6568381
vt 0.1334888 0.0602209
vt 0.2827988 0.09574246
vt 0.2844577 0.08219367
vt 0.1270196 0.07334825
vt 0.04102159 0.04658297
vt 0.03552878 0.06097463
vt 0.2833463 0.09631026
vt 0.2813863 0.1062668
vt 0.2826214 0.1074104
vt 0.2827988 0.09574246
vt 0.2981589 0.0964309
vt 0.2961225 0.09434152
vt 0.1291515 0.0938136
vt 0.03479987 0.07480851
vt 0.03546894 0.07918656
vt 0.1273651 0.08937117
vt 0.2810947 0.1079611
vt 0.2813863 0.1062668
vt 0.03042883 0.0736753
vt 0.03479987 0.07480851
vt 0.03552878 0.06097463
vt 0.03283101 0.06280085
vt 0.02153456 0.05454287
vt 0.0204885 0.05926555
vt 0.1339539 0.05561617
vt 0.2844577 0.08219367
vt 0.2846866 0.07923353
vt 0.1334888 0.0602209
vt 0.04236734 0.04195786
vt 0.04102159 0.04658297
vt 0.1628276 0.2835448
vt 0.03546894 0.07918656
vt 0.04613453 0.273186
vt 0.1291515 0.0938136
vt 0.2535123 0.2839158
vt 0.2810947 0.1079611
vt 0.8108702 0.6143075
vt 0.8446774 0.6081864
vt 0.8443676 0.6070563
vt 0.8105747 0.6131784
vt 0.8134904 0.5889333
vt 0.8446212 0.5821044
vt 0.8331593 0.4991192
vt 0.8490813 0.5012195
vt 0.8121912 0.4242748
vt 0.8416361 0.4342369
vt 0.8035256 0.3743344
vt 0.8329715 0.3707752
vt 0.7976359 0.3116775
vt 0.8286573 0.3188842
vt 0.8685493 0.3681919
vt 0.866063 0.3211783
vt 0.8286573 0.3188842
vt 0.8329715 0.3707752
vt 0.8686704 0.4316087
vt 0.8416361 0.4342369
vt 0.8721644 0.5025288
vt 0.8490813 0.5012195
vt 0.875424 0.5819739
vt 0.8446212 0.5821044
vt 0.8598591 0.6019201
vt 0.8587162 0.6019548
vt 0.8942278 0.2727188
vt 0.8996351 0.3076889
vt 0.9386023 0.3065685
vt 0.931398 0.2756684
vt 0.9046642 0.5895971
vt 0.9227809 0.6062692
vt 0.9238492 0.6061524
vt 0.9323649 0.585333
vt 0.8904815 0.5010362
vt 0.9138349 0.4968217
vt 0.8953658 0.4168564
vt 0.9246922 0.4193052
vt 0.8954224 0.3710081
vt 0.9295473 0.3686095
vt 0.8996351 0.3076889
vt 0.9386023 0.3065685
vt 0.875424 0.5819739
vt 0.8736562 0.6058849
vt 0.9042856 0.6143075
vt 0.9046642 0.5895971
vt 0.8721644 0.5025288
vt 0.8904815 0.5010362
vt 0.8686704 0.4316087
vt 0.8953658 0.4168564
vt 0.8685493 0.3681919
vt 0.8954224 0.3710081
vt 0.866063 0.3211783
vt 0.8996351 0.3076889
vt 0.89156 0.9497341
vt 0.9208437 0.9512026
vt 0.9207659 0.9500786
vt 0.8944012 0.9476258
vt 0.8903395 0.9256696
vt 0.9137373 0.9294136
vt 0.8845032 0.8767852
vt 0.9113864 0.8798484
vt 0.8786106 0.8039379
vt 0.9037355 0.801689
vt 0.8771327 0.7737941
vt 0.9005032 0.769757
vt 0.8740329 0.7171137
vt 0.9027187 0.6785606
vt 0.9399884 0.9204333
vt 0.9294437 0.9453127
vt 0.9283645 0.9456401
vt 0.9415747 0.875246
vt 0.9037355 0.801689
vt 0.9253542 0.799782
vt 0.9005032 0.769757
vt 0.9261804 0.7741628
vt 0.9027187 0.6785606
vt 0.9390588 0.6831796
vt 0.9390588 0.6831796
vt 0.9415746 0.6332182
vt 0.9091657 0.6304774
vt 0.9027187 0.6785606
vt 0.8595315 0.9220352
vt 0.8702012 0.9427603
vt 0.8737472 0.9418188
vt 0.8903395 0.9256696
vt 0.855467 0.8770937
vt 0.8845032 0.8767852
vt 0.8582522 0.8076727
vt 0.8786106 0.8039379
vt 0.8564825 0.7781338
vt 0.8771327 0.7737941
vt 0.8427569 0.7262814
vt 0.8740329 0.7171137
vt 0.8313513 0.9267481
vt 0.8337524 0.9547473
vt 0.8627423 0.9452115
vt 0.8595315 0.9220352
vt 0.8287575 0.881376
vt 0.855467 0.8770937
vt 0.8340185 0.8064154
vt 0.8582522 0.8076727
vt 0.8318706 0.7808717
vt 0.8564825 0.7781338
vt 0.8074552 0.6910573
vt 0.8427569 0.7262814
vt 0.5797697 0.9756314
vt 0.5797697 0.9806714
vt 0.6630162 0.9806714
vt 0.6630162 0.9756314
vt 0.740042 0.9756314
vt 0.740042 0.9806714
vt 0.8307508 0.9806714
vt 0.8307508 0.9756314
vt 0.7918462 0.06160939
vt 0.7918462 0.245101
vt 0.7964545 0.245101
vt 0.7964545 0.06160939
vt 0.8010631 0.245101
vt 0.8010631 0.06160939
vt 0.8056712 0.245101
vt 0.8056712 0.06160939
vt 0.8102797 0.245101
vt 0.8102797 0.06160939
vt 0.814888 0.245101
vt 0.814888 0.06160939
vt 0.8194964 0.245101
vt 0.8194964 0.06160939
vt 0.8241048 0.245101
vt 0.8241048 0.06160939
vt 0.8287132 0.245101
vt 0.8287132 0.06160939
vt 0.8333215 0.245101
vt 0.8333215 0.06160939
vt 0.8379297 0.245101
vt 0.8379297 0.06160939
vt 0.8425381 0.245101
vt 0.8425381 0.06160939
vt 0.8471465 0.245101
vt 0.8471464 0.06160939
vt 0.8517547 0.245101
vt 0.8517547 0.06160939
vt 0.8563633 0.245101
vt 0.8563631 0.06160939
vt 0.8609714 0.245101
vt 0.8609713 0.06160939
vt 0.8655799 0.245101
vt 0.8655797 0.06160939
vt 0.8701882 0.245101
vt 0.870188 0.06160939
vt 0.8747964 0.245101
vt 0.8747963 0.06160939
vt 0.8794048 0.245101
vt 0.8794048 0.06160939
vt 0.8840131 0.245101
vt 0.8840129 0.06160939
vt 0.9505869 0.05156692
vt 0.950587 0.1180524
vt 0.9529572 0.1180523
vt 0.9529572 0.05156692
vt 0.9553272 0.1180524
vt 0.9553272 0.05156692
vt 0.9576971 0.1180523
vt 0.9576971 0.05156692
vt 0.9600672 0.1180523
vt 0.9600672 0.05156692
vt 0.9624374 0.1180523
vt 0.9624373 0.05156692
vt 0.9648074 0.1180523
vt 0.9648073 0.05156692
vt 0.9671774 0.1180524
vt 0.9671773 0.05156692
vt 0.9695475 0.1180523
vt 0.9695475 0.05156692
vt 0.9719175 0.1180523
vt 0.9719175 0.05156692
vt 0.9742876 0.1180524
vt 0.9742875 0.05156692
vt 0.9053012 0.09633347
vt 0.9053012 0.1363952
vt 0.9077153 0.1363952
vt 0.9077151 0.0963335
vt 0.9101325 0.1363952
vt 0.9077151 0.05737928
vt 0.9053012 0.05737928
vt 0.9053012 0.03986789
vt 0.9077152 0.03986789
vt 0.9101325 0.05737928
vt 0.9101323 0.03986789
vt 0.9101325 0.09633349
vt 0.9125478 0.1363952
vt 0.9125478 0.05737928
vt 0.9125477 0.03986789
vt 0.9125478 0.09633349
vt 0.914959 0.1363952
vt 0.914959 0.05737928
vt 0.914959 0.03986789
vt 0.9149589 0.09633347
vt 0.9173693 0.1363952
vt 0.9173692 0.05737928
vt 0.9173693 0.03986789
vt 0.9173692 0.09633349
vt 0.9197834 0.1363952
vt 0.9197833 0.05737928
vt 0.9197833 0.03986789
vt 0.9197832 0.09633347
vt 0.9222007 0.1363952
vt 0.9222007 0.05737928
vt 0.9222007 0.03986789
vt 0.9222007 0.09633349
vt 0.9246159 0.1363952
vt 0.9246159 0.05737928
vt 0.9246159 0.03986789
vt 0.9246159 0.09633349
vt 0.927027 0.1363952
vt 0.9270269 0.05737928
vt 0.927027 0.03986789
vt 0.927027 0.0963335
vt 0.9294373 0.1363952
vt 0.9294372 0.09633347
vt 0.9294372 0.05737928
vt 0.9294372 0.03986789
vt 0.7130106 0.6733668
vt 0.7130105 0.8481803
vt 0.7208713 0.8481804
vt 0.7208713 0.6733669
vt 0.7208713 0.8560411
vt 0.7508229 0.856041
vt 0.7508229 0.8481803
vt 0.7208713 0.8481804
vt 0.7586837 0.8481804
vt 0.7586837 0.6733669
vt 0.7508229 0.6733669
vt 0.7508229 0.8481803
vt 0.7508229 0.6655061
vt 0.7208713 0.6655061
vt 0.7208713 0.6733669
vt 0.7508229 0.6733669
vt 0.7130105 0.8481803
vt 0.7130106 0.6733668
vt 0.6830591 0.6733668
vt 0.683059 0.8481803
vt 0.7508229 0.8481803
vt 0.7508229 0.6733669
vt 0.7208713 0.6733669
vt 0.7208713 0.8481804
vt 0.6150162 0.6733668
vt 0.6150162 0.8481802
vt 0.6228769 0.8481802
vt 0.6228769 0.6733668
vt 0.6228768 0.856041
vt 0.6528285 0.856041
vt 0.6528285 0.8481802
vt 0.6228769 0.8481802
vt 0.6606892 0.8481802
vt 0.6606892 0.6733668
vt 0.6528286 0.6733668
vt 0.6528285 0.8481802
vt 0.6528286 0.6655061
vt 0.6228769 0.6655061
vt 0.6228769 0.6733668
vt 0.6528286 0.6733668
vt 0.6150162 0.8481802
vt 0.6150162 0.6733668
vt 0.5850646 0.6733668
vt 0.5850646 0.8481802
vt 0.6528285 0.8481802
vt 0.6528286 0.6733668
vt 0.6228769 0.6733668
vt 0.6228769 0.8481802
vt 0.3839493 0.8830994
vt 0.4287903 0.8830994
vt 0.4287903 0.869691
vt 0.3839493 0.869691
vt 0.4421987 0.869691
vt 0.4421987 0.5163058
vt 0.4287902 0.5163058
vt 0.4287903 0.869691
vt 0.4287902 0.5028974
vt 0.3839493 0.5028974
vt 0.3839493 0.5163058
vt 0.4287902 0.5163058
vt 0.3705409 0.5163058
vt 0.3705409 0.869691
vt 0.3839493 0.869691
vt 0.3839493 0.5163058
vt 0.3257001 0.869691
vt 0.3705409 0.869691
vt 0.3705409 0.5163058
vt 0.3257001 0.5163058
vt 0.4287902 0.5163058
vt 0.3839493 0.5163058
vt 0.3839493 0.869691
vt 0.4287903 0.869691
vt 0.455733 0.869691
vt 0.5005765 0.869691
vt 0.5005765 0.5162823
vt 0.455733 0.5162823
vt 0.5139863 0.8831006
vt 0.5588301 0.8831006
vt 0.5588301 0.869691
vt 0.5139863 0.869691
vt 0.5005765 0.5162823
vt 0.5005765 0.869691
vt 0.5139863 0.869691
vt 0.5139863 0.5162822
vt 0.5588301 0.5028728
vt 0.5139863 0.5028728
vt 0.5139863 0.5162822
vt 0.5588301 0.5162823
vt 0.5588301 0.5162823
vt 0.5139863 0.5162822
vt 0.5139863 0.869691
vt 0.5588301 0.869691
vt 0.5722395 0.869691
vt 0.5722395 0.5162823
vt 0.5588301 0.5162823
vt 0.5588301 0.869691
vt 0.9361706 0.2107339
vt 0.9204914 0.2132174
vt 0.9361706 0.2157007
vt 0.9346359 0.2060103
vt 0.9346359 0.2204244
vt 0.9317164 0.2019921
vt 0.9317164 0.2244425
vt 0.9276984 0.1990727
vt 0.9276984 0.2273619
vt 0.9229746 0.1975379
vt 0.9229746 0.2288968
vt 0.9180079 0.1975379
vt 0.9180079 0.2288968
vt 0.9132841 0.1990727
vt 0.9132841 0.2273619
vt 0.9092659 0.2019921
vt 0.9092659 0.2244425
vt 0.9063466 0.2060103
vt 0.9063466 0.2204244
vt 0.9048118 0.2107339
vt 0.9048118 0.2157007
vt 0.9444203 0.2179332
vt 0.9566959 0.2116784
vt 0.9430885 0.2138337
vt 0.9469541 0.2214205
vt 0.9430885 0.2095231
vt 0.9504415 0.2239541
vt 0.9444205 0.2054236
vt 0.9545408 0.2252862
vt 0.9469543 0.2019363
vt 0.9588515 0.2252862
vt 0.9504415 0.1994026
vt 0.9629511 0.2239542
vt 0.954541 0.1980706
vt 0.9664384 0.2214206
vt 0.9588515 0.1980707
vt 0.968972 0.2179333
vt 0.9629511 0.1994027
vt 0.970304 0.2138337
vt 0.9664384 0.2019363
vt 0.970304 0.2095232
vt 0.968972 0.2054237
vt 0.9450402 0.1732982
vt 0.9421797 0.1761974
vt 0.9461752 0.1755505
vt 0.9428127 0.1721533
vt 0.9457843 0.1780499
vt 0.9403434 0.1725531
vt 0.9440164 0.1798418
vt 0.9385755 0.1743449
vt 0.941547 0.1802415
vt 0.9381844 0.1768443
vt 0.9393194 0.1790967
vt 0.9284099 0.1768887
vt 0.9279417 0.1739329
vt 0.9236274 0.176131
vt 0.9270512 0.1795551
vt 0.9258257 0.1718168
vt 0.924385 0.1809136
vt 0.9228699 0.1713487
vt 0.921429 0.1804455
vt 0.9202035 0.1727072
vt 0.919313 0.1783294
vt 0.9188449 0.1753737
vt 0.1355962 0.7686181
vt 0.06773838 0.7170687
vt 0.02217615 0.9337167
vt 0.1882454 0.7805142
vt 0.07906151 0.8693064
vt 0.2204224 0.7150598
vt 0.1230292 0.9273862
vt 0.2547709 0.7847154
vt 0.1446911 0.8889349
vt 0.2978393 0.7109982
vt 0.2913805 0.9252884
vt 0.2519242 0.8561084

f 3/3/3 2/2/2 1/1/1
f 4/4/4 3/3/3 1/1/1
f 4/4/4 5/5/5 3/3/3
f 5/5/5 6/6/6 3/3/3
f 9/9/9 8/8/8 7/7/7
f 10/10/10 9/9/9 7/7/7
f 10/10/10 11/11/11 9/9/9
f 11/11/11 12/12/12 9/9/9
f 15/15/15 14/14/14 13/13/13
f 14/14/14 16/16/16 13/13/13
f 14/14/14 17/17/17 16/16/16
f 17/17/17 18/18/18 16/16/16
f 21/21/21 20/20/20 19/19/19
f 20/20/20 22/22/22 19/19/19
f 19/19/19 22/22/22 23/23/23
f 22/22/22 24/24/24 23/23/23
f 27/27/27 26/26/26 25/25/25
f 26/26/26 28/28/28 25/25/25
f 25/25/25 28/28/28 29/29/29
f 28/28/28 30/30/30 29/29/29
f 28/28/28 26/26/26 31/31/31
f 32/32/32 28/28/28 31/31/31
f 32/32/32 33/33/33 28/28/28
f 33/33/33 34/34/34 28/28/28
f 31/31/31 26/26/26 35/35/35
f 36/36/36 31/31/31 35/35/35
f 36/36/36 35/35/35 37/37/37
f 35/35/35 38/38/38 37/37/37
f 35/35/35 26/26/26 39/39/39
f 26/26/26 40/40/40 39/39/39
f 35/35/35 39/39/39 41/41/41
f 42/42/42 35/35/35 41/41/41
f 45/45/45 44/44/44 43/43/43
f 46/46/46 45/45/45 43/43/43
f 46/46/46 47/47/47 45/45/45
f 47/47/47 48/48/48 45/45/45
f 51/51/51 50/50/50 49/49/49
f 50/50/50 52/52/52 49/49/49
f 49/49/49 52/52/52 53/53/53
f 52/52/52 54/54/54 53/53/53
f 57/57/57 56/56/56 55/55/55
f 56/56/56 58/58/58 55/55/55
f 55/55/55 58/58/58 59/59/59
f 58/58/58 60/60/60 59/59/59
f 63/63/63 62/62/62 61/61/61
f 64/64/64 63/63/63 61/61/61
f 64/64/64 61/61/61 65/65/65
f 66/66/66 64/64/64 65/65/65
f 69/69/69 68/68/68 67/67/67
f 70/70/70 69/69/69 67/67/67
f 71/71/71 69/69/69 70/70/70
f 72/72/72 71/71/71 70/70/70
f 75/75/75 74/74/74 73/73/73
f 76/76/76 75/75/75 73/73/73
f 76/76/76 73/73/73 77/77/77
f 78/78/78 76/76/76 77/77/77
f 81/81/81 80/80/80 79/79/79
f 82/82/82 81/81/81 79/79/79
f 82/82/82 83/83/83 81/81/81
f 83/83/83 84/84/84 81/81/81
f 85/85/85 84/84/84 83/83/83
f 86/86/86 85/85/85 83/83/83
f 86/86/86 87/87/87 85/85/85
f 87/87/87 88/88/88 85/85/85
f 91/91/91 90/90/90 89/89/89
f 92/92/92 91/91/91 89/89/89
f 92/92/92 89/89/89 93/93/93
f 94/94/94 92/92/92 93/93/93
f 93/93/93 95/95/95 94/94/94
f 95/95/95 96/96/96 94/94/94
f 99/99/99 98/98/98 97/97/97
f 100/100/100 99/99/99 97/97/97
f 100/100/100 97/97/97 101/101/101
f 102/102/102 100/100/100 101/101/101
f 101/101/101 103/103/103 102/102/102
f 103/103/103 104/104/104 102/102/102
f 107/107/107 106/106/106 105/105/105
f 108/108/108 107/107/107 105/105/105
f 108/108/108 105/105/105 109/109/109
f 108/108/108 110/110/110 107/107/107
f 110/110/110 111/111/111 107/107/107
f 112/112/112 111/111/111 110/110/110
f 113/113/113 108/108/108 109/109/109
f 109/109/109 114/114/114 113/113/113
f 114/114/114 115/115/115 113/113/113
f 113/113/113 116/116/116 108/108/108
f 113/113/113 115/115/115 116/116/116
f 116/116/116 110/110/110 108/108/108
f 115/115/115 117/117/117 116/116/116
f 118/118/118 112/112/112 110/110/110
f 118/118/118 110/110/110 116/116/116
f 116/116/116 117/117/117 119/119/119
f 119/119/119 118/118/118 116/116/116
f 117/117/117 120/120/120 119/119/119
f 119/119/119 120/120/120 121/121/121
f 119/119/119 121/121/121 118/118/118
f 120/120/120 122/122/122 121/121/121
f 121/121/121 123/123/123 118/118/118
f 118/118/118 123/123/123 112/112/112
f 123/123/123 124/124/124 112/112/112
f 127/127/127 126/126/126 125/125/125
f 126/126/126 128/128/128 125/125/125
f 125/125/125 128/128/128 129/129/129
f 128/128/128 130/130/130 129/129/129
f 129/129/129 130/130/130 131/131/131
f 130/130/130 132/132/132 131/131/131
f 131/131/131 132/132/132 133/133/133
f 132/132/132 134/134/134 133/133/133
f 135/135/135 134/134/134 132/132/132
f 136/136/136 135/135/135 132/132/132
f 136/136/136 132/132/132 137/137/137
f 138/138/138 136/136/136 137/137/137
f 141/141/141 140/140/140 139/139/139
f 142/142/142 141/141/141 139/139/139
f 143/143/143 142/142/142 139/139/139
f 144/144/144 143/143/143 139/139/139
f 144/144/144 145/145/145 143/143/143
f 145/145/145 146/146/146 143/143/143
f 149/149/149 148/148/148 147/147/147
f 150/150/150 149/149/149 147/147/147
f 150/150/150 147/147/147 151/151/151
f 152/152/152 150/150/150 151/151/151
f 151/151/151 153/153/153 152/152/152
f 153/153/153 154/154/154 152/152/152
f 157/157/157 156/156/156 155/155/155
f 158/158/158 157/157/157 155/155/155
f 155/155/155 159/159/159 158/158/158
f 158/158/158 160/160/160 157/157/157
f 160/160/160 161/161/161 157/157/157
f 162/162/162 161/161/161 160/160/160
f 159/159/159 163/163/163 158/158/158
f 158/158/158 163/163/163 160/160/160
f 159/159/159 164/164/164 163/163/163
f 164/164/164 165/165/165 163/163/163
f 163/163/163 165/165/165 166/166/166
f 163/163/163 166/166/166 160/160/160
f 165/165/165 167/167/167 166/166/166
f 168/168/168 162/162/162 160/160/160
f 160/160/160 166/166/166 168/168/168
f 166/166/166 167/167/167 169/169/169
f 166/166/166 169/169/169 168/168/168
f 167/167/167 170/170/170 169/169/169
f 168/168/168 171/171/171 162/162/162
f 168/168/168 169/169/169 171/171/171
f 171/171/171 172/172/172 162/162/162
f 169/169/169 173/173/173 171/171/171
f 169/169/169 170/170/170 173/173/173
f 170/170/170 174/174/174 173/173/173
f 177/177/177 176/176/176 175/175/175
f 176/176/176 178/178/178 175/175/175
f 175/175/175 178/178/178 179/179/179
f 178/178/178 180/180/180 179/179/179
f 179/179/179 180/180/180 181/181/181
f 180/180/180 182/182/182 181/181/181
f 181/181/181 182/182/182 183/183/183
f 182/182/182 184/184/184 183/183/183
f 187/187/187 186/186/186 185/185/185
f 188/188/188 187/187/187 185/185/185
f 188/188/188 185/185/185 189/189/189
f 190/190/190 187/187/187 188/188/188
f 191/191/191 188/188/188 189/189/189
f 192/192/192 190/190/190 188/188/188
f 192/192/192 188/188/188 191/191/191
f 193/193/193 192/192/192 191/191/191
f 195/195/195 193/193/193 194/194/194
f 196/196/196 195/195/195 194/194/194
f 197/197/197 195/195/195 196/196/196
f 198/198/198 197/197/197 196/196/196
f 196/196/196 194/194/194 199/199/199
f 199/199/199 194/194/194 200/200/200
f 201/201/201 196/196/196 199/199/199
f 198/198/198 196/196/196 201/201/201
f 194/194/194 202/202/202 200/200/200
f 203/203/203 198/198/198 201/201/201
f 200/200/200 202/202/202 204/204/204
f 205/205/205 198/198/198 203/203/203
f 202/202/202 206/206/206 204/204/204
f 207/207/207 205/205/205 203/203/203
f 204/204/204 206/206/206 207/207/207
f 206/206/206 205/205/205 207/207/207
f 210/210/210 209/209/209 208/208/208
f 209/209/209 211/211/211 208/208/208
f 208/208/208 211/211/211 212/212/212
f 211/211/211 213/213/213 212/212/212
f 216/216/216 215/215/215 214/214/214
f 215/215/215 217/217/217 214/214/214
f 214/214/214 217/217/217 218/218/218
f 217/217/217 219/219/219 218/218/218
f 222/222/222 221/221/221 220/220/220
f 221/221/221 223/223/223 220/220/220
f 220/220/220 223/223/223 224/224/224
f 223/223/223 225/225/225 224/224/224
f 228/228/228 227/227/227 226/226/226
f 229/229/229 228/228/228 226/226/226
f 230/230/230 228/228/228 229/229/229
f 231/231/231 230/230/230 229/229/229
f 234/234/234 233/233/233 232/232/232
f 233/233/233 235/235/235 232/232/232
f 232/232/232 235/235/235 236/236/236
f 235/235/235 237/237/237 236/236/236
f 240/240/240 239/239/239 238/238/238
f 239/239/239 241/241/241 238/238/238
f 238/238/238 241/241/241 242/242/242
f 241/241/241 243/243/243 242/242/242
f 246/246/246 245/245/245 244/244/244
f 247/247/247 246/246/246 244/244/244
f 246/246/246 247/247/247 248/248/248
f 249/249/249 246/246/246 248/248/248
f 249/249/249 248/248/248 250/250/250
f 251/251/251 249/249/249 250/250/250
f 251/251/251 250/250/250 252/252/252
f 253/253/253 251/251/251 252/252/252
f 253/253/253 252/252/252 254/254/254
f 255/255/255 253/253/253 254/254/254
f 255/255/255 254/254/254 256/256/256
f 257/257/257 255/255/255 256/256/256
f 260/260/260 259/259/259 258/258/258
f 261/261/261 260/260/260 258/258/258
f 261/261/261 258/258/258 262/262/262
f 263/263/263 261/261/261 262/262/262
f 263/263/263 262/262/262 264/264/264
f 265/265/265 263/263/263 264/264/264
f 265/265/265 264/264/264 266/266/266
f 267/267/267 265/265/265 266/266/266
f 267/267/267 266/266/266 268/268/268
f 269/269/269 267/267/267 268/268/268
f 272/272/272 271/271/271 270/270/270
f 273/273/273 272/272/272 270/270/270
f 276/276/276 275/275/275 274/274/274
f 277/277/277 276/276/276 274/274/274
f 277/277/277 274/274/274 278/278/278
f 279/279/279 277/277/277 278/278/278
f 279/279/279 278/278/278 280/280/280
f 281/281/281 279/279/279 280/280/280
f 281/281/281 280/280/280 282/282/282
f 283/283/283 281/281/281 282/282/282
f 283/283/283 282/282/282 284/284/284
f 285/285/285 283/283/283 284/284/284
f 288/288/288 287/287/287 286/286/286
f 289/289/289 288/288/288 286/286/286
f 289/289/289 286/286/286 290/290/290
f 291/291/291 289/289/289 290/290/290
f 291/291/291 290/290/290 292/292/292
f 293/293/293 291/291/291 292/292/292
f 293/293/293 292/292/292 294/294/294
f 295/295/295 293/293/293 294/294/294
f 295/295/295 294/294/294 296/296/296
f 297/297/297 295/295/295 296/296/296
f 300/300/300 299/299/299 298/298/298
f 301/301/301 300/300/300 298/298/298
f 300/300/300 301/301/301 302/302/302
f 303/303/303 300/300/300 302/302/302
f 303/303/303 302/302/302 304/304/304
f 305/305/305 303/303/303 304/304/304
f 305/305/305 304/304/304 306/306/306
f 307/307/307 305/305/305 306/306/306
f 307/307/307 306/306/306 308/308/308
f 309/309/309 307/307/307 308/308/308
f 309/309/309 308/308/308 310/310/310
f 311/311/311 309/309/309 310/310/310
f 303/303/303 305/305/305 312/312/312
f 303/303/303 312/312/312 313/313/313
f 314/314/314 303/303/303 313/313/313
f 305/305/305 315/315/315 312/312/312
f 305/305/305 316/316/316 315/315/315
f 316/316/316 317/317/317 315/315/315
f 316/316/316 318/318/318 317/317/317
f 318/318/318 319/319/319 317/317/317
f 318/318/318 320/320/320 319/319/319
f 320/320/320 321/321/321 319/319/319
f 324/324/324 323/323/323 322/322/322
f 325/325/325 324/324/324 322/322/322
f 328/328/328 327/327/327 326/326/326
f 329/329/329 328/328/328 326/326/326
f 329/329/329 326/326/326 330/330/330
f 331/331/331 329/329/329 330/330/330
f 331/331/331 330/330/330 332/332/332
f 333/333/333 331/331/331 332/332/332
f 333/333/333 332/332/332 334/334/334
f 335/335/335 333/333/333 334/334/334
f 335/335/335 334/334/334 336/336/336
f 337/337/337 335/335/335 336/336/336
f 340/340/340 339/339/339 338/338/338
f 341/341/341 340/340/340 338/338/338
f 341/341/341 338/338/338 342/342/342
f 343/343/343 341/341/341 342/342/342
f 343/343/343 342/342/342 344/344/344
f 345/345/345 343/343/343 344/344/344
f 345/345/345 344/344/344 346/346/346
f 347/347/347 345/345/345 346/346/346
f 347/347/347 346/346/346 348/348/348
f 349/349/349 347/347/347 348/348/348
f 352/352/352 351/351/351 350/350/350
f 353/353/353 352/352/352 350/350/350
f 356/356/356 355/355/355 354/354/354
f 357/357/357 356/356/356 354/354/354
f 360/360/360 359/359/359 358/358/358
f 361/361/361 360/360/360 358/358/358
f 362/362/362 360/360/360 361/361/361
f 363/363/363 362/362/362 361/361/361
f 364/364/364 362/362/362 363/363/363
f 365/365/365 364/364/364 363/363/363
f 366/366/366 364/364/364 365/365/365
f 367/367/367 366/366/366 365/365/365
f 368/368/368 366/366/366 367/367/367
f 369/369/369 368/368/368 367/367/367
f 370/370/370 368/368/368 369/369/369
f 371/371/371 370/370/370 369/369/369
f 372/372/372 370/370/370 371/371/371
f 373/373/373 372/372/372 371/371/371
f 374/374/374 372/372/372 373/373/373
f 375/375/375 374/374/374 373/373/373
f 376/376/376 374/374/374 375/375/375
f 377/377/377 376/376/376 375/375/375
f 378/378/378 376/376/376 377/377/377
f 379/379/379 378/378/378 377/377/377
f 380/380/380 378/378/378 379/379/379
f 381/381/381 380/380/380 379/379/379
f 382/382/382 380/380/380 381/381/381
f 383/383/383 382/382/382 381/381/381
f 384/384/384 382/382/382 383/383/383
f 385/385/385 384/384/384 383/383/383
f 386/386/386 384/384/384 385/385/385
f 387/387/387 386/386/386 385/385/385
f 388/388/388 386/386/386 387/387/387
f 389/389/389 388/388/388 387/387/387
f 390/390/390 388/388/388 389/389/389
f 391/391/391 390/390/390 389/389/389
f 392/392/392 390/390/390 391/391/391
f 393/393/393 392/392/392 391/391/391
f 394/394/394 392/392/392 393/393/393
f 395/395/395 394/394/394 393/393/393
f 396/396/396 394/394/394 395/395/395
f 397/397/397 396/396/396 395/395/395
f 398/398/398 396/396/396 397/397/397
f 399/399/399 398/398/398 397/397/397
f 402/402/402 401/401/401 400/400/400
f 403/403/403 402/402/402 400/400/400
f 404/404/404 402/402/402 403/403/403
f 405/405/405 404/404/404 403/403/403
f 406/406/406 404/404/404 405/405/405
f 407/407/407 406/406/406 405/405/405
f 408/408/408 406/406/406 407/407/407
f 409/409/409 408/408/408 407/407/407
f 410/410/410 408/408/408 409/409/409
f 411/411/411 410/410/410 409/409/409
f 412/412/412 410/410/410 411/411/411
f 413/413/413 412/412/412 411/411/411
f 414/414/414 412/412/412 413/413/413
f 415/415/415 414/414/414 413/413/413
f 416/416/416 414/414/414 415/415/415
f 417/417/417 416/416/416 415/415/415
f 418/418/418 416/416/416 417/417/417
f 419/419/419 418/418/418 417/417/417
f 420/420/420 418/418/418 419/419/419
f 421/421/421 420/420/420 419/419/419
f 424/424/424 423/423/423 422/422/422
f 425/425/425 424/424/424 422/422/422
f 426/426/426 424/424/424 425/425/425
f 425/425/425 422/422/422 427/427/427
f 422/422/422 428/428/428 427/427/427
f 428/428/428 429/429/429 427/427/427
f 429/429/429 430/430/430 427/427/427
f 427/427/427 430/430/430 431/431/431
f 425/425/425 427/427/427 431/431/431
f 430/430/430 432/432/432 431/431/431
f 433/433/433 426/426/426 425/425/425
f 433/433/433 425/425/425 431/431/431
f 434/434/434 426/426/426 433/433/433
f 431/431/431 432/432/432 435/435/435
f 433/433/433 431/431/431 435/435/435
f 432/432/432 436/436/436 435/435/435
f 437/437/437 434/434/434 433/433/433
f 437/437/437 433/433/433 435/435/435
f 438/438/438 434/434/434 437/437/437
f 435/435/435 436/436/436 439/439/439
f 437/437/437 435/435/435 439/439/439
f 436/436/436 440/440/440 439/439/439
f 441/441/441 438/438/438 437/437/437
f 441/441/441 437/437/437 439/439/439
f 442/442/442 438/438/438 441/441/441
f 439/439/439 440/440/440 443/443/443
f 441/441/441 439/439/439 443/443/443
f 440/440/440 444/444/444 443/443/443
f 445/445/445 442/442/442 441/441/441
f 445/445/445 441/441/441 443/443/443
f 446/446/446 442/442/442 445/445/445
f 443/443/443 444/444/444 447/447/447
f 445/445/445 443/443/443 447/447/447
f 444/444/444 448/448/448 447/447/447
f 449/449/449 446/446/446 445/445/445
f 449/449/449 445/445/445 447/447/447
f 450/450/450 446/446/446 449/449/449
f 447/447/447 448/448/448 451/451/451
f 449/449/449 447/447/447 451/451/451
f 448/448/448 452/452/452 451/451/451
f 453/453/453 450/450/450 449/449/449
f 453/453/453 449/449/449 451/451/451
f 454/454/454 450/450/450 453/453/453
f 451/451/451 452/452/452 455/455/455
f 453/453/453 451/451/451 455/455/455
f 452/452/452 456/456/456 455/455/455
f 457/457/457 454/454/454 453/453/453
f 457/457/457 453/453/453 455/455/455
f 458/458/458 454/454/454 457/457/457
f 455/455/455 456/456/456 459/459/459
f 457/457/457 455/455/455 459/459/459
f 456/456/456 460/460/460 459/459/459
f 461/461/461 458/458/458 457/457/457
f 461/461/461 457/457/457 459/459/459
f 462/462/462 458/458/458 461/461/461
f 463/463/463 462/462/462 461/461/461
f 463/463/463 461/461/461 464/464/464
f 461/461/461 459/459/459 464/464/464
f 459/459/459 460/460/460 464/464/464
f 460/460/460 465/465/465 464/464/464
f 468/468/468 467/467/467 466/466/466
f 469/469/469 468/468/468 466/466/466
f 472/472/472 471/471/471 470/470/470
f 473/473/473 472/472/472 470/470/470
f 476/476/476 475/475/475 474/474/474
f 477/477/477 476/476/476 474/474/474
f 480/480/480 479/479/479 478/478/478
f 481/481/481 480/480/480 478/478/478
f 484/484/484 483/483/483 482/482/482
f 485/485/485 484/484/484 482/482/482
f 488/488/488 487/487/487 486/486/486
f 489/489/489 488/488/488 486/486/486
f 492/492/492 491/491/491 490/490/490
f 493/493/493 492/492/492 490/490/490
f 496/496/496 495/495/495 494/494/494
f 497/497/497 496/496/496 494/494/494
f 500/500/500 499/499/499 498/498/498
f 501/501/501 500/500/500 498/498/498
f 504/504/504 503/503/503 502/502/502
f 505/505/505 504/504/504 502/502/502
f 508/508/508 507/507/507 506/506/506
f 509/509/509 508/508/508 506/506/506
f 512/512/512 511/511/511 510/510/510
f 513/513/513 512/512/512 510/510/510
f 516/516/516 515/515/515 514/514/514
f 517/517/517 516/516/516 514/514/514
f 520/520/520 519/519/519 518/518/518
f 521/521/521 520/520/520 518/518/518
f 524/524/524 523/523/523 522/522/522
f 525/525/525 524/524/524 522/522/522
f 528/528/528 527/527/527 526/526/526
f 529/529/529 528/528/528 526/526/526
f 532/532/532 531/531/531 530/530/530
f 533/533/533 532/532/532 530/530/530
f 536/536/536 535/535/535 534/534/534
f 537/537/537 536/536/536 534/534/534
f 540/540/540 539/539/539 538/538/538
f 541/541/541 540/540/540 538/538/538
f 544/544/544 543/543/543 542/542/542
f 545/545/545 544/544/544 542/542/542
f 548/548/548 547/547/547 546/546/546
f 549/549/549 548/548/548 546/546/546
f 552/552/552 551/551/551 550/550/550
f 553/553/553 552/552/552 550/550/550
f 556/556/556 555/555/555 554/554/554
f 557/557/557 556/556/556 554/554/554
f 560/560/560 559/559/559 558/558/558
f 561/561/561 560/560/560 558/558/558
f 564/564/564 563/563/563 562/562/562
f 562/562/562 563/563/563 565/565/565
f 566/566/566 563/563/563 564/564/564
f 565/565/565 563/563/563 567/567/567
f 568/568/568 563/563/563 566/566/566
f 567/567/567 563/563/563 569/569/569
f 570/570/570 563/563/563 568/568/568
f 569/569/569 563/563/563 571/571/571
f 572/572/572 563/563/563 570/570/570
f 571/571/571 563/563/563 573/573/573
f 574/574/574 563/563/563 572/572/572
f 573/573/573 563/563/563 575/575/575
f 576/576/576 563/563/563 574/574/574
f 575/575/575 563/563/563 577/577/577
f 578/578/578 563/563/563 576/576/576
f 577/577/577 563/563/563 579/579/579
f 580/580/580 563/563/563 578/578/578
f 579/579/579 563/563/563 581/581/581
f 582/582/582 563/563/563 580/580/580
f 581/581/581 563/563/563 582/582/582
f 585/585/585 584/584/584 583/583/583
f 583/583/583 584/584/584 586/586/586
f 587/587/587 584/584/584 585/585/585
f 586/586/586 584/584/584 588/588/588
f 589/589/589 584/584/584 587/587/587
f 588/588/588 584/584/584 590/590/590
f 591/591/591 584/584/584 589/589/589
f 590/590/590 584/584/584 592/592/592
f 593/593/593 584/584/584 591/591/591
f 592/592/592 584/584/584 594/594/594
f 595/595/595 584/584/584 593/593/593
f 594/594/594 584/584/584 596/596/596
f 597/597/597 584/584/584 595/595/595
f 596/596/596 584/584/584 598/598/598
f 599/599/599 584/584/584 597/597/597
f 598/598/598 584/584/584 600/600/600
f 601/601/601 584/584/584 599/599/599
f 600/600/600 584/584/584 602/602/602
f 603/603/603 584/584/584 601/601/601
f 602/602/602 584/584/584 603/603/603
f 606/606/606 605/605/605 604/604/604
f 604/604/604 605/605/605 607/607/607
f 608/608/608 605/605/605 606/606/606
f 607/607/607 605/605/605 609/609/609
f 610/610/610 605/605/605 608/608/608
f 609/609/609 605/605/605 611/611/611
f 612/612/612 605/605/605 610/610/610
f 611/611/611 605/605/605 613/613/613
f 614/614/614 605/605/605 612/612/612
f 613/613/613 605/605/605 614/614/614
f 617/617/617 616/616/616 615/615/615
f 617/617/617 615/615/615 618/618/618
f 617/617/617 619/619/619 616/616/616
f 620/620/620 617/617/617 618/618/618
f 617/617/617 621/621/621 619/619/619
f 617/617/617 620/620/620 622/622/622
f 621/621/621 617/617/617 623/623/623
f 617/617/617 622/622/622 624/624/624
f 623/623/623 617/617/617 625/625/625
f 617/617/617 624/624/624 625/625/625
f 628/628/628 627/627/627 626/626/626
f 626/626/626 627/627/627 629/629/629
f 630/630/630 628/628/628 626/626/626
f 627/627/627 631/631/631 629/629/629
f 632/632/632 628/628/628 630/630/630
f 629/629/629 631/631/631 633/633/633
f 634/634/634 632/632/632 630/630/630
f 631/631/631 635/635/635 633/633/633
f 636/636/636 632/632/632 634/634/634
f 633/633/633 635/635/635 637/637/637
f 637/637/637 636/636/636 634/634/634
f 635/635/635 636/636/636 637/637/637
