# WaveFront *.obj file (generated by Cinema 4D)

mtllib ./BigFuelTankL.mtl

v 0.000000 234.285244 444.915964
v 0.000000 234.285244 -281.383153
v 51.353601 234.285244 436.952075
v 99.390921 234.285244 413.574692
v 141.009836 234.285244 376.293468
v 141.009836 234.285244 376.293468
v 141.009836 234.285244 -212.760656
v 141.009836 234.285244 -212.760656
v 99.390921 234.285244 -250.041881
v 51.353601 234.285244 -273.419263
v 46.267995 212.003752 436.952075
v 89.548125 191.161140 413.574692
v 127.045472 173.103369 376.293468
v 127.045472 173.103369 376.293468
v 127.045472 173.103369 -212.760656
v 127.045472 173.103369 -212.760656
v 89.548125 191.161140 -250.041881
v 46.267995 212.003752 -273.419263
v 32.018446 194.135383 436.952075
v 61.969225 156.578294 413.574692
v 87.918195 124.039315 376.293468
v 87.918195 124.039315 376.293468
v 87.918195 124.039315 -212.760656
v 87.918195 124.039315 -212.760656
v 61.969225 156.578294 -250.041881
v 32.018446 194.135383 -273.419263
v 11.427251 184.219186 436.952075
v 22.116560 137.386262 413.574692
v 31.377640 96.810819 376.293468
v 31.377640 96.810819 376.293468
v 31.377640 96.810819 -212.760656
v 31.377640 96.810819 -212.760656
v 22.116560 137.386262 -250.041881
v 11.427251 184.219186 -273.419263
v -11.427251 184.219186 436.952075
v -22.116560 137.386262 413.574692
v -31.377640 96.810819 376.293468
v -31.377640 96.810819 376.293468
v -31.377640 96.810819 -212.760656
v -31.377640 96.810819 -212.760656
v -22.116560 137.386262 -250.041881
v -11.427251 184.219186 -273.419263
v -32.018446 194.135383 436.952075
v -61.969225 156.578294 413.574692
v -87.918195 124.039315 376.293468
v -87.918195 124.039315 376.293468
v -87.918195 124.039315 -212.760656
v -87.918195 124.039315 -212.760656
v -61.969225 156.578294 -250.041881
v -32.018446 194.135383 -273.419263
v -46.267995 212.003752 436.952075
v -89.548125 191.161140 413.574692
v -127.045472 173.103369 376.293468
v -127.045472 173.103369 376.293468
v -127.045472 173.103369 -212.760656
v -127.045472 173.103369 -212.760656
v -89.548125 191.161140 -250.041881
v -46.267995 212.003752 -273.419263
v -51.353601 234.285244 436.952075
v -99.390921 234.285244 413.574692
v -141.009836 234.285244 376.293468
v -141.009836 234.285244 376.293468
v -141.009836 234.285244 -212.760656
v -141.009836 234.285244 -212.760656
v -99.390921 234.285244 -250.041881
v -51.353601 234.285244 -273.419263
v -46.267995 256.566736 436.952075
v -89.548125 277.409348 413.574692
v -127.045472 295.467119 376.293468
v -127.045472 295.467119 376.293468
v -127.045472 295.467119 -212.760656
v -127.045472 295.467119 -212.760656
v -89.548125 277.409348 -250.041881
v -46.267995 256.566736 -273.419263
v -32.018446 274.435106 436.952075
v -61.969225 311.992195 413.574692
v -87.918195 344.531173 376.293468
v -87.918195 344.531173 376.293468
v -87.918195 344.531173 -212.760656
v -87.918195 344.531173 -212.760656
v -61.969225 311.992195 -250.041881
v -32.018446 274.435106 -273.419263
v -11.427251 284.351303 436.952075
v -22.116560 331.184227 413.574692
v -31.377640 371.759669 376.293468
v -31.377640 371.759669 376.293468
v -31.377640 371.759669 -212.760656
v -31.377640 371.759669 -212.760656
v -22.116560 331.184227 -250.041881
v -11.427251 284.351303 -273.419263
v 11.427251 284.351303 436.952075
v 22.116560 331.184227 413.574692
v 31.377640 371.759669 376.293468
v 31.377640 371.759669 376.293468
v 31.377640 371.759669 -212.760656
v 31.377640 371.759669 -212.760656
v 22.116560 331.184227 -250.041881
v 11.427251 284.351303 -273.419263
v 32.018446 274.435106 436.952075
v 61.969225 311.992195 413.574692
v 87.918195 344.531173 376.293468
v 87.918195 344.531173 376.293468
v 87.918195 344.531173 -212.760656
v 87.918195 344.531173 -212.760656
v 61.969225 311.992195 -250.041881
v 32.018446 274.435106 -273.419263
v 46.267995 256.566736 436.952075
v 89.548125 277.409348 413.574692
v 127.045472 295.467119 376.293468
v 127.045472 295.467119 376.293468
v 127.045472 295.467119 -212.760656
v 127.045472 295.467119 -212.760656
v 89.548125 277.409348 -250.041881
v 46.267995 256.566736 -273.419263
v -193.400497 -52.622132 433.765477
v -193.400497 52.622132 433.765477
v 193.400497 -52.622132 433.765477
v 193.400497 52.622132 433.765477
v 193.400497 -52.622132 -270.232666
v 193.400497 52.622132 -270.232666
v -193.400497 -52.622132 -270.232666
v -193.400497 52.622132 -270.232666
v -9.924434 364.119559 293.757389
v -0.000000 399.045846 250.275604
v -9.924434 381.263044 293.757389
v -9.924434 381.263044 293.757389
v 44.600000 364.119559 250.275604
v 44.600000 364.119559 250.275604
v 44.600000 381.263044 250.275604
v 44.600000 381.263044 250.275604
v 30.164173 388.521416 250.275604
v 10.131345 392.926719 250.275604
v -6.712160 388.521416 279.683499
v -2.254436 392.926719 260.152935
v 40.183212 364.119559 230.924389
v 40.183212 364.119559 230.924389
v 40.183212 381.263044 230.924389
v 40.183212 381.263044 230.924389
v 27.176981 388.521416 237.187860
v 9.128026 392.926719 245.879778
v 9.924434 364.119559 293.757389
v 9.924434 364.119559 293.757389
v 27.807645 364.119559 215.405920
v 27.807645 364.119559 215.405920
v 27.807645 381.263044 215.405920
v 27.807645 381.263044 215.405920
v 18.807054 388.521416 226.692304
v 6.316790 392.926719 242.354600
v 9.924434 381.263044 293.757389
v 9.924434 381.263044 293.757389
v 9.924434 364.119559 206.793819
v 9.924434 364.119559 206.793819
v 9.924434 381.263044 206.793819
v 9.924434 381.263044 206.793819
v 6.712160 388.521416 220.867709
v 2.254436 392.926719 240.398273
v 6.712160 388.521416 279.683499
v 2.254436 392.926719 260.152935
v -9.924434 364.119559 206.793819
v -9.924434 364.119559 206.793819
v -9.924434 381.263044 206.793819
v -9.924434 381.263044 206.793819
v -6.712160 388.521416 220.867709
v -2.254436 392.926719 240.398273
v 27.807645 364.119559 285.145288
v 27.807645 364.119559 285.145288
v -27.807645 364.119559 215.405920
v -27.807645 364.119559 215.405920
v -27.807645 381.263044 215.405920
v -27.807645 381.263044 215.405920
v -18.807054 388.521416 226.692304
v -6.316790 392.926719 242.354600
v 27.807645 381.263044 285.145288
v 27.807645 381.263044 285.145288
v -40.183212 364.119559 230.924389
v -40.183212 364.119559 230.924389
v -40.183212 381.263044 230.924389
v -40.183212 381.263044 230.924389
v -27.176981 388.521416 237.187860
v -9.128026 392.926719 245.879778
v 18.807054 388.521416 273.858904
v 6.316790 392.926719 258.196608
v -44.600000 364.119559 250.275604
v -44.600000 364.119559 250.275604
v -44.600000 381.263044 250.275604
v -44.600000 381.263044 250.275604
v -30.164173 388.521416 250.275604
v -10.131345 392.926719 250.275604
v 40.183212 364.119559 269.626819
v 40.183212 364.119559 269.626819
v -40.183212 364.119559 269.626819
v -40.183212 364.119559 269.626819
v -40.183212 381.263044 269.626819
v -40.183212 381.263044 269.626819
v -27.176981 388.521416 263.363348
v -9.128026 392.926719 254.671430
v 40.183212 381.263044 269.626819
v 40.183212 381.263044 269.626819
v -27.807645 364.119559 285.145288
v -27.807645 364.119559 285.145288
v -27.807645 381.263044 285.145288
v -27.807645 381.263044 285.145288
v -18.807054 388.521416 273.858904
v -6.316790 392.926719 258.196608
v 27.176981 388.521416 263.363348
v 9.128026 392.926719 254.671430
v -9.924434 364.119559 293.757389
v 10.131345 399.045020 250.275604
v -2.254436 399.045020 260.152935
v 9.128026 399.045020 245.879778
v 6.316790 399.045020 242.354600
v 2.254436 399.045020 240.398273
v 2.254436 399.045020 260.152935
v -2.254436 399.045020 240.398273
v -6.316790 399.045020 242.354600
v -9.128026 399.045020 245.879778
v 6.316790 399.045020 258.196608
v -10.131345 399.045020 250.275604
v -9.128026 399.045020 254.671430
v -6.316790 399.045020 258.196608
v 9.128026 399.045020 254.671430
v 107.051090 32.634973 330.999958
v 0.000000 95.977803 -167.467146
v 138.036998 32.634973 330.999958
v 0.000000 95.977803 -107.035986
v 138.036998 32.634973 -167.467146
v 0.000000 85.249522 -107.035986
v 107.051090 32.634973 -167.467146
v 0.000000 85.249522 -167.467146
v 138.036998 67.079413 -107.035986
v 138.036998 32.634973 -107.035986
v 107.051090 67.079413 -107.035986
v 107.051090 32.634973 -107.035986
v 138.036998 67.079413 270.568797
v 138.036998 32.634973 270.568797
v 107.051090 67.079413 270.568797
v 107.051090 32.634973 270.568797
v 0.000000 95.977803 270.568797
v 107.051090 133.405704 -167.467146
v 0.000000 95.977803 330.999958
v 107.051090 133.405704 -107.035986
v 107.051090 133.405704 330.999958
v 0.000000 85.249522 330.999958
v 0.000000 85.249522 270.568797
v 107.051090 133.405704 270.568797
v 138.036998 146.912576 -167.467146
v 107.051090 146.912576 -167.467146
v 138.036998 146.912576 -107.035986
v 107.051090 146.912576 -107.035986
v 107.051090 146.912576 330.999958
v 138.036998 146.912576 330.999958
v 138.036998 146.912576 270.568797
v 107.051090 146.912576 270.568797
v 83.422691 110.179258 -167.467146
v 83.422691 110.179258 -107.035986
v 77.585434 120.795671 -167.467146
v 77.585434 120.795671 -107.035986
v 83.422691 110.179258 330.999958
v 83.422691 110.179258 270.568797
v 77.585434 120.795671 330.999958
v 77.585434 120.795671 270.568797
v 45.468097 92.105368 -167.467146
v 45.468097 92.105368 -107.035986
v 42.627963 104.534812 -167.467146
v 42.627963 104.534812 -107.035986
v 45.468097 92.105368 330.999958
v 45.468097 92.105368 270.568797
v 42.627963 104.534812 330.999958
v 42.627963 104.534812 270.568797
v -107.051090 32.634973 330.999958
v -138.036998 32.634973 330.999958
v -138.036998 32.634973 -167.467146
v -107.051090 32.634973 -167.467146
v -138.036998 67.079413 -107.035986
v -138.036998 32.634973 -107.035986
v -107.051090 67.079413 -107.035986
v -107.051090 32.634973 -107.035986
v -138.036998 67.079413 270.568797
v -138.036998 32.634973 270.568797
v -107.051090 67.079413 270.568797
v -107.051090 32.634973 270.568797
v -107.051090 133.405704 -167.467146
v -107.051090 133.405704 -107.035986
v -107.051090 133.405704 330.999958
v -107.051090 133.405704 270.568797
v -138.036998 146.912576 -167.467146
v -107.051090 146.912576 -167.467146
v -138.036998 146.912576 -107.035986
v -107.051090 146.912576 -107.035986
v -107.051090 146.912576 330.999958
v -138.036998 146.912576 330.999958
v -138.036998 146.912576 270.568797
v -107.051090 146.912576 270.568797
v -83.422691 110.179258 -167.467146
v -83.422691 110.179258 -107.035986
v -77.585434 120.795671 -167.467146
v -77.585434 120.795671 -107.035986
v -83.422691 110.179258 330.999958
v -83.422691 110.179258 270.568797
v -77.585434 120.795671 330.999958
v -77.585434 120.795671 270.568797
v -45.468097 92.105368 -167.467146
v -45.468097 92.105368 -107.035986
v -42.627963 104.534812 -167.467146
v -42.627963 104.534812 -107.035986
v -45.468097 92.105368 330.999958
v -45.468097 92.105368 270.568797
v -42.627963 104.534812 330.999958
v -42.627963 104.534812 270.568797
# 309 vertices

vn 0.000000 0.000000 1.000000
vn 0.298437 -0.000000 0.954429
vn 0.268882 -0.129487 0.954429
vn 0.557391 -0.000000 0.830250
vn 0.502192 -0.241843 0.830250
vn 0.667225 -0.000000 0.744856
vn 0.601149 -0.289498 0.744856
vn 1.000000 0.000000 0.000000
vn 0.900969 -0.433884 0.000000
vn 0.667225 0.000000 -0.744856
vn 0.557391 0.000000 -0.830250
vn 0.502192 -0.241843 -0.830250
vn 0.601149 -0.289498 -0.744856
vn 0.298437 0.000000 -0.954429
vn 0.268882 -0.129487 -0.954429
vn 0.000000 0.000000 -1.000000
vn 0.186072 -0.233327 0.954429
vn 0.347527 -0.435786 0.830250
vn 0.416008 -0.521657 0.744856
vn 0.623490 -0.781832 0.000000
vn 0.347527 -0.435786 -0.830250
vn 0.416008 -0.521657 -0.744856
vn 0.186072 -0.233327 -0.954429
vn 0.066408 -0.290954 0.954429
vn 0.124031 -0.543416 0.830250
vn 0.148471 -0.650496 0.744856
vn 0.222521 -0.974928 0.000000
vn 0.124031 -0.543416 -0.830250
vn 0.148471 -0.650496 -0.744856
vn 0.066408 -0.290955 -0.954429
vn -0.066408 -0.290954 0.954429
vn -0.124031 -0.543416 0.830250
vn -0.148471 -0.650496 0.744856
vn -0.222521 -0.974928 0.000000
vn -0.124031 -0.543416 -0.830250
vn -0.148471 -0.650496 -0.744856
vn -0.066408 -0.290955 -0.954429
vn -0.186072 -0.233327 0.954429
vn -0.347527 -0.435786 0.830250
vn -0.416008 -0.521657 0.744856
vn -0.623490 -0.781832 0.000000
vn -0.347527 -0.435786 -0.830250
vn -0.416008 -0.521657 -0.744856
vn -0.186072 -0.233327 -0.954429
vn -0.268882 -0.129487 0.954429
vn -0.502192 -0.241843 0.830250
vn -0.601149 -0.289498 0.744856
vn -0.900969 -0.433884 0.000000
vn -0.502192 -0.241843 -0.830250
vn -0.601149 -0.289498 -0.744856
vn -0.268883 -0.129487 -0.954429
vn -0.298437 0.000000 0.954429
vn -0.557391 0.000000 0.830250
vn -0.667225 0.000000 0.744856
vn -1.000000 0.000000 0.000000
vn -0.557391 -0.000000 -0.830250
vn -0.667225 -0.000000 -0.744856
vn -0.298437 -0.000000 -0.954429
vn -0.268882 0.129487 0.954429
vn -0.502192 0.241843 0.830250
vn -0.601149 0.289498 0.744856
vn -0.900969 0.433884 0.000000
vn -0.502192 0.241843 -0.830250
vn -0.601149 0.289498 -0.744856
vn -0.268882 0.129487 -0.954429
vn -0.186072 0.233327 0.954429
vn -0.347528 0.435786 0.830250
vn -0.416008 0.521657 0.744856
vn -0.623490 0.781831 0.000000
vn -0.347527 0.435786 -0.830250
vn -0.416008 0.521657 -0.744856
vn -0.186072 0.233327 -0.954429
vn -0.066408 0.290954 0.954429
vn -0.124031 0.543416 0.830250
vn -0.148472 0.650496 0.744856
vn -0.222521 0.974928 0.000000
vn -0.124031 0.543416 -0.830250
vn -0.148472 0.650496 -0.744856
vn -0.066408 0.290955 -0.954429
vn 0.066408 0.290954 0.954429
vn 0.124031 0.543416 0.830250
vn 0.148472 0.650496 0.744856
vn 0.222521 0.974928 0.000000
vn 0.124031 0.543416 -0.830250
vn 0.148472 0.650496 -0.744856
vn 0.066408 0.290955 -0.954429
vn 0.186072 0.233327 0.954429
vn 0.347528 0.435786 0.830250
vn 0.416008 0.521657 0.744856
vn 0.623490 0.781831 0.000000
vn 0.347527 0.435786 -0.830250
vn 0.416008 0.521657 -0.744856
vn 0.186072 0.233327 -0.954429
vn 0.268882 0.129487 0.954429
vn 0.502192 0.241843 0.830250
vn 0.601149 0.289498 0.744856
vn 0.900969 0.433884 0.000000
vn 0.502192 0.241843 -0.830250
vn 0.601149 0.289498 -0.744856
vn 0.268883 0.129487 -0.954429
vn 0.000000 0.000000 1.000000
vn 0.000000 0.000000 -1.000000
vn 0.000000 1.000000 0.000000
vn -0.900969 0.000000 0.433884
vn -0.623490 0.000000 0.781832
vn -0.404730 0.893423 0.194908
vn -0.301244 0.942447 0.145071
vn -0.208467 0.942447 0.261410
vn -0.280082 0.893423 0.351212
vn -0.193503 0.976664 0.093186
vn -0.133908 0.976664 0.167916
vn 1.000000 0.000000 -0.000000
vn 0.900969 0.000000 -0.433884
vn 0.449217 0.893423 -0.000000
vn 0.334355 0.942447 -0.000000
vn 0.301244 0.942447 -0.145071
vn 0.404730 0.893423 -0.194908
vn 0.214773 0.976664 0.000000
vn 0.193503 0.976664 -0.093186
vn 0.000081 1.000000 0.000000
vn 0.000000 1.000000 0.000000
vn 0.000073 1.000000 -0.000035
vn -0.000073 1.000000 0.000035
vn -0.000051 1.000000 0.000064
vn -0.222521 0.000000 0.974928
vn -0.074401 0.942447 0.325972
vn -0.099960 0.893423 0.437954
vn 0.623490 0.000000 -0.781832
vn 0.208467 0.942447 -0.261409
vn 0.280082 0.893423 -0.351212
vn 0.133909 0.976664 -0.167916
vn 0.000051 1.000000 -0.000064
vn -0.047791 0.976664 0.209388
vn -0.000018 1.000000 0.000079
vn 0.222521 0.000000 0.974928
vn 0.222521 0.000000 -0.974928
vn 0.074401 0.942447 -0.325972
vn 0.099960 0.893423 -0.437954
vn 0.047791 0.976664 -0.209388
vn 0.000018 1.000000 -0.000079
vn 0.074401 0.942447 0.325972
vn 0.099960 0.893423 0.437954
vn 0.047791 0.976664 0.209388
vn 0.000018 1.000000 0.000079
vn -0.222521 0.000000 -0.974928
vn -0.074401 0.942447 -0.325972
vn -0.099960 0.893423 -0.437954
vn -0.047791 0.976664 -0.209388
vn -0.000018 1.000000 -0.000079
vn 0.623490 0.000000 0.781832
vn 0.208467 0.942447 0.261409
vn 0.280082 0.893423 0.351212
vn 0.133908 0.976664 0.167916
vn -0.623490 0.000000 -0.781832
vn -0.208467 0.942447 -0.261409
vn -0.280082 0.893423 -0.351212
vn -0.133909 0.976664 -0.167916
vn -0.000051 1.000000 -0.000064
vn 0.000051 1.000000 0.000064
vn 0.900969 0.000000 0.433884
vn 0.301244 0.942447 0.145071
vn 0.404730 0.893423 0.194908
vn -0.900969 0.000000 -0.433884
vn -0.301244 0.942447 -0.145071
vn -0.404730 0.893423 -0.194908
vn -0.193503 0.976664 -0.093186
vn -0.000073 1.000000 -0.000035
vn 0.193503 0.976664 0.093186
vn 0.000073 1.000000 0.000035
vn -1.000000 0.000000 -0.000000
vn -0.334355 0.942447 -0.000000
vn -0.449217 0.893423 -0.000000
vn -0.214773 0.976664 -0.000000
vn -0.000081 1.000000 -0.000000
vn 0.900969 0.000000 -0.433884
vn -0.900968 0.000000 0.433885
vn -0.623489 0.000000 0.781832
vn 0.623490 0.000000 -0.781831
vn -0.222521 0.000000 0.974928
vn 0.222521 0.000000 -0.974928
vn 0.222521 0.000000 0.974928
vn -0.222521 0.000000 -0.974928
vn -0.623490 0.000000 -0.781831
vn 0.623489 0.000000 0.781832
vn -0.900969 0.000000 -0.433884
vn 0.900968 0.000000 0.433885
vn -0.311477 0.950254 0.000000
vn 0.000000 1.000000 0.000000
vn -0.311477 0.950254 0.000000
vn 0.292692 -0.956207 0.000000
vn 0.000000 -1.000000 0.000000
vn 0.701015 -0.713147 0.000000
vn 0.573377 -0.819291 0.000000
vn -0.663302 0.748352 0.000000
vn -0.548280 0.836295 0.000000
vn 0.701015 -0.713147 0.000000
vn 0.573377 -0.819291 0.000000
vn -0.663302 0.748352 0.000000
vn 0.292692 -0.956207 0.000000
vn 0.000000 -1.000000 0.000000
vn 0.311477 0.950254 0.000000
vn 0.311477 0.950254 0.000000
vn -0.292692 -0.956207 0.000000
vn -0.701015 -0.713147 0.000000
vn -0.573377 -0.819291 0.000000
vn 0.663302 0.748352 0.000000
vn 0.548280 0.836295 0.000000
vn -0.701015 -0.713147 0.000000
vn -0.573377 -0.819291 0.000000
vn 0.663302 0.748352 0.000000
vn -0.292692 -0.956207 0.000000
# 211 normals

vt 0.110897 0.621643 0.000000
vt 0.083060 0.643843 0.000000
vt 0.095449 0.653722 0.000000
vt 0.000000 1.000000 0.000000
vt 0.054268 0.666804 0.000000
vt 0.079470 0.686902 0.000000
vt 0.023531 0.691316 0.000000
vt 0.062413 0.722323 0.000000
vt 0.373788 0.423774 0.000000
vt 0.373788 0.001953 0.000000
vt 0.328849 0.001953 0.000000
vt 0.328849 0.423774 0.000000
vt 0.642776 0.564198 0.000000
vt 0.604448 0.555450 0.000000
vt 0.590462 0.584493 0.000000
vt 0.621199 0.609004 0.000000
vt 0.568545 0.547255 0.000000
vt 0.561669 0.561532 0.000000
vt 0.533832 0.539332 0.000000
vt 0.110897 0.657248 0.000000
vt 0.110897 0.694075 0.000000
vt 0.110897 0.733389 0.000000
vt 0.283910 0.001953 0.000000
vt 0.283910 0.423774 0.000000
vt 0.565259 0.604591 0.000000
vt 0.582317 0.640012 0.000000
vt 0.549281 0.571411 0.000000
vt 0.126346 0.653722 0.000000
vt 0.142324 0.686902 0.000000
vt 0.159382 0.722323 0.000000
vt 0.788187 0.423774 0.000000
vt 0.788187 0.001953 0.000000
vt 0.743248 0.001953 0.000000
vt 0.743248 0.423774 0.000000
vt 0.533832 0.611764 0.000000
vt 0.533832 0.651078 0.000000
vt 0.533832 0.574937 0.000000
vt 0.138734 0.643843 0.000000
vt 0.167527 0.666804 0.000000
vt 0.198264 0.691316 0.000000
vt 0.698309 0.001953 0.000000
vt 0.698309 0.423774 0.000000
vt 0.502405 0.604591 0.000000
vt 0.485348 0.640012 0.000000
vt 0.518384 0.571411 0.000000
vt 0.145610 0.629566 0.000000
vt 0.181513 0.637761 0.000000
vt 0.219841 0.646509 0.000000
vt 0.653370 0.001953 0.000000
vt 0.653370 0.423774 0.000000
vt 0.477203 0.584493 0.000000
vt 0.446466 0.609004 0.000000
vt 0.505995 0.561532 0.000000
vt 0.145610 0.613720 0.000000
vt 0.181513 0.605526 0.000000
vt 0.219841 0.596777 0.000000
vt 0.648396 0.423774 0.000000
vt 0.648396 0.001953 0.000000
vt 0.603457 0.001953 0.000000
vt 0.603457 0.423774 0.000000
vt 0.463216 0.555450 0.000000
vt 0.424888 0.564198 0.000000
vt 0.499120 0.547255 0.000000
vt 0.138734 0.599444 0.000000
vt 0.167527 0.576483 0.000000
vt 0.198264 0.551971 0.000000
vt 0.558518 0.001953 0.000000
vt 0.558518 0.423774 0.000000
vt 0.463216 0.523214 0.000000
vt 0.424888 0.514466 0.000000
vt 0.499120 0.531409 0.000000
vt 0.126346 0.589564 0.000000
vt 0.142324 0.556384 0.000000
vt 0.159382 0.520964 0.000000
vt 0.513579 0.001953 0.000000
vt 0.513579 0.423774 0.000000
vt 0.477203 0.494172 0.000000
vt 0.446466 0.469660 0.000000
vt 0.505995 0.517133 0.000000
vt 0.110897 0.586038 0.000000
vt 0.110897 0.549211 0.000000
vt 0.110897 0.509897 0.000000
vt 0.468640 0.001953 0.000000
vt 0.468640 0.423774 0.000000
vt 0.502405 0.474073 0.000000
vt 0.485348 0.438653 0.000000
vt 0.518384 0.507253 0.000000
vt 0.095449 0.589564 0.000000
vt 0.079470 0.556384 0.000000
vt 0.062413 0.520964 0.000000
vt 0.283910 0.427587 0.000000
vt 0.283910 0.849407 0.000000
vt 0.328849 0.849407 0.000000
vt 0.328849 0.427587 0.000000
vt 0.533832 0.466900 0.000000
vt 0.533832 0.427586 0.000000
vt 0.533832 0.503727 0.000000
vt 0.083060 0.599444 0.000000
vt 0.054268 0.576483 0.000000
vt 0.023531 0.551971 0.000000
vt 0.373788 0.849407 0.000000
vt 0.373788 0.427587 0.000000
vt 0.565259 0.474073 0.000000
vt 0.582317 0.438653 0.000000
vt 0.549281 0.507253 0.000000
vt 0.076185 0.613720 0.000000
vt 0.040281 0.605526 0.000000
vt 0.001953 0.596777 0.000000
vt 0.418727 0.849407 0.000000
vt 0.418727 0.427587 0.000000
vt 0.590462 0.494172 0.000000
vt 0.621199 0.469660 0.000000
vt 0.561669 0.517133 0.000000
vt 0.076185 0.629566 0.000000
vt 0.040281 0.637761 0.000000
vt 0.001953 0.646509 0.000000
vt 0.463666 0.423774 0.000000
vt 0.463666 0.001953 0.000000
vt 0.418727 0.001953 0.000000
vt 0.418727 0.423774 0.000000
vt 0.604448 0.523214 0.000000
vt 0.642776 0.514466 0.000000
vt 0.568545 0.531409 0.000000
vt 0.582896 0.654890 0.000000
vt 0.507531 0.654890 0.000000
vt 0.507531 0.931878 0.000000
vt 0.582896 0.931878 0.000000
vt 0.723874 0.427587 0.000000
vt 0.648509 0.427587 0.000000
vt 0.648509 0.931718 0.000000
vt 0.723874 0.931718 0.000000
vt 0.500253 0.648883 0.000000
vt 0.424888 0.648883 0.000000
vt 0.424888 0.925871 0.000000
vt 0.500253 0.925871 0.000000
vt 0.869714 0.001953 0.000000
vt 0.794349 0.001953 0.000000
vt 0.794349 0.506085 0.000000
vt 0.869714 0.506085 0.000000
vt 0.001953 0.001953 0.000000
vt 0.001953 0.506085 0.000000
vt 0.278941 0.506085 0.000000
vt 0.278941 0.001953 0.000000
vt 0.889268 0.091682 0.000000
vt 0.876991 0.091682 0.000000
vt 0.876991 0.105896 0.000000
vt 0.889268 0.105896 0.000000
vt 0.342108 0.907002 0.000000
vt 0.333114 0.899830 0.000000
vt 0.325590 0.905831 0.000000
vt 0.330581 0.916195 0.000000
vt 0.321759 0.890774 0.000000
vt 0.319288 0.892744 0.000000
vt 0.908713 0.077468 0.000000
vt 0.896436 0.077468 0.000000
vt 0.896436 0.091682 0.000000
vt 0.908713 0.091682 0.000000
vt 0.283910 0.878976 0.000000
vt 0.295125 0.881535 0.000000
vt 0.299301 0.872865 0.000000
vt 0.290307 0.865692 0.000000
vt 0.309285 0.884767 0.000000
vt 0.310656 0.881920 0.000000
vt 0.889736 0.158892 0.000000
vt 0.884064 0.163415 0.000000
vt 0.891137 0.161801 0.000000
vt 0.876991 0.165030 0.000000
vt 0.876991 0.161801 0.000000
vt 0.908713 0.109708 0.000000
vt 0.896436 0.109708 0.000000
vt 0.896436 0.123922 0.000000
vt 0.908713 0.123922 0.000000
vt 0.316207 0.907972 0.000000
vt 0.316207 0.919476 0.000000
vt 0.896436 0.105896 0.000000
vt 0.908713 0.105896 0.000000
vt 0.306825 0.866864 0.000000
vt 0.301834 0.856500 0.000000
vt 0.313127 0.879950 0.000000
vt 0.891137 0.165030 0.000000
vt 0.316207 0.893448 0.000000
vt 0.878392 0.158892 0.000000
vt 0.896436 0.138136 0.000000
vt 0.908713 0.138136 0.000000
vt 0.889268 0.109708 0.000000
vt 0.876991 0.109708 0.000000
vt 0.876991 0.123922 0.000000
vt 0.889268 0.123922 0.000000
vt 0.316207 0.864723 0.000000
vt 0.316207 0.853219 0.000000
vt 0.316207 0.879247 0.000000
vt 0.889736 0.167939 0.000000
vt 0.306825 0.905831 0.000000
vt 0.301834 0.916195 0.000000
vt 0.313127 0.892744 0.000000
vt 0.880916 0.156879 0.000000
vt 0.876991 0.138136 0.000000
vt 0.889268 0.138136 0.000000
vt 0.325590 0.866864 0.000000
vt 0.330581 0.856500 0.000000
vt 0.319288 0.879950 0.000000
vt 0.887212 0.169952 0.000000
vt 0.896436 0.152350 0.000000
vt 0.908713 0.152350 0.000000
vt 0.299301 0.899830 0.000000
vt 0.290307 0.907002 0.000000
vt 0.310656 0.890774 0.000000
vt 0.876991 0.152350 0.000000
vt 0.889268 0.152350 0.000000
vt 0.333114 0.872865 0.000000
vt 0.342108 0.865692 0.000000
vt 0.321759 0.881920 0.000000
vt 0.884064 0.170670 0.000000
vt 0.884064 0.156160 0.000000
vt 0.908713 0.049041 0.000000
vt 0.896436 0.049041 0.000000
vt 0.896436 0.063254 0.000000
vt 0.908713 0.063254 0.000000
vt 0.295125 0.891159 0.000000
vt 0.283910 0.893719 0.000000
vt 0.889268 0.049041 0.000000
vt 0.876991 0.049041 0.000000
vt 0.876991 0.063254 0.000000
vt 0.889268 0.063254 0.000000
vt 0.337290 0.881535 0.000000
vt 0.348505 0.878976 0.000000
vt 0.323130 0.884767 0.000000
vt 0.880916 0.169952 0.000000
vt 0.309285 0.887927 0.000000
vt 0.887212 0.156879 0.000000
vt 0.876991 0.077468 0.000000
vt 0.889268 0.077468 0.000000
vt 0.337290 0.891159 0.000000
vt 0.348505 0.893719 0.000000
vt 0.323130 0.887927 0.000000
vt 0.878392 0.167939 0.000000
vt 0.906159 0.162620 0.000000
vt 0.910540 0.162620 0.000000
vt 0.910540 0.159391 0.000000
vt 0.906159 0.159391 0.000000
vt 0.896436 0.159391 0.000000
vt 0.900818 0.159391 0.000000
vt 0.900818 0.156162 0.000000
vt 0.896436 0.156162 0.000000
vt 0.910540 0.156162 0.000000
vt 0.906159 0.156162 0.000000
vt 0.906159 0.182577 0.000000
vt 0.910540 0.182577 0.000000
vt 0.910540 0.179348 0.000000
vt 0.906159 0.179348 0.000000
vt 0.896436 0.182577 0.000000
vt 0.900818 0.182577 0.000000
vt 0.900818 0.179348 0.000000
vt 0.896436 0.179348 0.000000
vt 0.910540 0.176119 0.000000
vt 0.906159 0.176119 0.000000
vt 0.900818 0.176119 0.000000
vt 0.896436 0.176119 0.000000
vt 0.900818 0.172890 0.000000
vt 0.896436 0.172890 0.000000
vt 0.910540 0.172890 0.000000
vt 0.906159 0.172890 0.000000
vt 0.896436 0.169078 0.000000
vt 0.900818 0.169078 0.000000
vt 0.900818 0.165849 0.000000
vt 0.896436 0.165849 0.000000
vt 0.906159 0.169078 0.000000
vt 0.910540 0.169078 0.000000
vt 0.910540 0.165849 0.000000
vt 0.906159 0.165849 0.000000
vt 0.900818 0.162620 0.000000
vt 0.896436 0.162620 0.000000
vt 0.847015 0.732492 0.000000
vt 0.774853 0.732492 0.000000
vt 0.765181 0.754681 0.000000
vt 0.847015 0.754681 0.000000
vt 0.900489 0.509898 0.000000
vt 0.818655 0.509898 0.000000
vt 0.875824 0.553172 0.000000
vt 0.900489 0.553172 0.000000
vt 0.278240 0.700471 0.000000
vt 0.196406 0.700471 0.000000
vt 0.206078 0.722660 0.000000
vt 0.278240 0.722660 0.000000
vt 0.978321 0.362717 0.000000
vt 0.906159 0.362717 0.000000
vt 0.953655 0.405992 0.000000
vt 0.978321 0.405992 0.000000
vt 0.191067 0.925953 0.000000
vt 0.147793 0.925953 0.000000
vt 0.147793 0.948142 0.000000
vt 0.191067 0.948142 0.000000
vt 0.619341 0.618160 0.000000
vt 0.619341 0.888562 0.000000
vt 0.641530 0.888562 0.000000
vt 0.641530 0.618160 0.000000
vt 0.953655 0.676394 0.000000
vt 0.978321 0.676394 0.000000
vt 0.875824 0.823574 0.000000
vt 0.818655 0.866849 0.000000
vt 0.900489 0.866849 0.000000
vt 0.900489 0.823574 0.000000
vt 0.949434 0.723482 0.000000
vt 0.906159 0.723482 0.000000
vt 0.906159 0.745670 0.000000
vt 0.949434 0.745670 0.000000
vt 0.906159 0.719669 0.000000
vt 0.978321 0.719669 0.000000
vt 0.065150 0.759391 0.000000
vt 0.112646 0.759391 0.000000
vt 0.122319 0.737202 0.000000
vt 0.065150 0.737202 0.000000
vt 0.818655 0.823574 0.000000
vt 0.191067 0.870149 0.000000
vt 0.191067 0.839014 0.000000
vt 0.147793 0.839014 0.000000
vt 0.147793 0.870149 0.000000
vt 0.906159 0.405992 0.000000
vt 0.001953 0.924452 0.000000
vt 0.059122 0.924452 0.000000
vt 0.049449 0.902263 0.000000
vt 0.001953 0.902263 0.000000
vt 0.906159 0.676394 0.000000
vt 0.226753 0.768794 0.000000
vt 0.232880 0.799319 0.000000
vt 0.240563 0.799319 0.000000
vt 0.235653 0.766760 0.000000
vt 0.818655 0.553172 0.000000
vt 0.122319 0.759391 0.000000
vt 0.804428 0.688393 0.000000
vt 0.809337 0.655833 0.000000
vt 0.801655 0.655833 0.000000
vt 0.795527 0.686359 0.000000
vt 0.196406 0.722660 0.000000
vt 0.906159 0.801475 0.000000
vt 0.906159 0.832610 0.000000
vt 0.949434 0.832610 0.000000
vt 0.949434 0.801475 0.000000
vt 0.059122 0.902263 0.000000
vt 0.028775 0.856130 0.000000
vt 0.022647 0.825604 0.000000
vt 0.014965 0.825604 0.000000
vt 0.019874 0.858164 0.000000
vt 0.765181 0.732492 0.000000
vt 0.954772 0.055783 0.000000
vt 0.954772 0.088711 0.000000
vt 0.998047 0.088711 0.000000
vt 0.998047 0.055783 0.000000
vt 0.954772 0.179281 0.000000
vt 0.954772 0.203007 0.000000
vt 0.998047 0.203007 0.000000
vt 0.998047 0.179281 0.000000
vt 0.096014 0.776311 0.000000
vt 0.103616 0.780491 0.000000
vt 0.191067 0.897758 0.000000
vt 0.147793 0.897758 0.000000
vt 0.215108 0.743761 0.000000
vt 0.222711 0.739581 0.000000
vt 0.954772 0.001953 0.000000
vt 0.954772 0.025679 0.000000
vt 0.998047 0.025679 0.000000
vt 0.998047 0.001953 0.000000
vt 0.791485 0.715572 0.000000
vt 0.783883 0.711392 0.000000
vt 0.906159 0.773866 0.000000
vt 0.949434 0.773866 0.000000
vt 0.040419 0.881163 0.000000
vt 0.032817 0.885343 0.000000
vt 0.954772 0.233111 0.000000
vt 0.998047 0.233111 0.000000
vt 0.083071 0.803490 0.000000
vt 0.091972 0.805524 0.000000
vt 0.954772 0.266038 0.000000
vt 0.998047 0.266038 0.000000
vt 0.078162 0.836050 0.000000
vt 0.085844 0.836050 0.000000
vt 0.847015 0.579174 0.000000
vt 0.847015 0.556985 0.000000
vt 0.765181 0.556985 0.000000
vt 0.774853 0.579174 0.000000
vt 0.731151 0.509898 0.000000
vt 0.731151 0.553172 0.000000
vt 0.755817 0.553172 0.000000
vt 0.812985 0.509898 0.000000
vt 0.278240 0.898168 0.000000
vt 0.278240 0.875979 0.000000
vt 0.206078 0.875979 0.000000
vt 0.196406 0.898168 0.000000
vt 0.949153 0.358905 0.000000
vt 0.949153 0.315630 0.000000
vt 0.924487 0.315630 0.000000
vt 0.876991 0.358905 0.000000
vt 0.191067 0.752075 0.000000
vt 0.191067 0.729886 0.000000
vt 0.147793 0.729886 0.000000
vt 0.147793 0.752075 0.000000
vt 0.976961 0.723482 0.000000
vt 0.954772 0.723482 0.000000
vt 0.954772 0.993884 0.000000
vt 0.976961 0.993884 0.000000
vt 0.949153 0.045228 0.000000
vt 0.924487 0.045228 0.000000
vt 0.755817 0.823574 0.000000
vt 0.731151 0.823574 0.000000
vt 0.731151 0.866849 0.000000
vt 0.812985 0.866849 0.000000
vt 0.949434 0.941738 0.000000
vt 0.949434 0.919549 0.000000
vt 0.906159 0.919549 0.000000
vt 0.906159 0.941738 0.000000
vt 0.949153 0.001953 0.000000
vt 0.876991 0.001953 0.000000
vt 0.065150 0.912709 0.000000
vt 0.065150 0.934898 0.000000
vt 0.122319 0.934898 0.000000
vt 0.112646 0.912709 0.000000
vt 0.812985 0.823574 0.000000
vt 0.191067 0.807879 0.000000
vt 0.147793 0.807879 0.000000
vt 0.876991 0.315630 0.000000
vt 0.001953 0.726756 0.000000
vt 0.001953 0.748945 0.000000
vt 0.049449 0.748945 0.000000
vt 0.059122 0.726756 0.000000
vt 0.876991 0.045228 0.000000
vt 0.226753 0.829845 0.000000
vt 0.235653 0.831879 0.000000
vt 0.812985 0.553172 0.000000
vt 0.122319 0.912709 0.000000
vt 0.804428 0.623274 0.000000
vt 0.795527 0.625307 0.000000
vt 0.196406 0.875979 0.000000
vt 0.906159 0.863744 0.000000
vt 0.949434 0.863744 0.000000
vt 0.059122 0.748945 0.000000
vt 0.028775 0.795078 0.000000
vt 0.019874 0.793045 0.000000
vt 0.765181 0.579174 0.000000
vt 0.954772 0.121638 0.000000
vt 0.998047 0.121638 0.000000
vt 0.954772 0.352796 0.000000
vt 0.998047 0.352796 0.000000
vt 0.998047 0.329069 0.000000
vt 0.954772 0.329069 0.000000
vt 0.103616 0.891608 0.000000
vt 0.096014 0.895788 0.000000
vt 0.147793 0.780271 0.000000
vt 0.191067 0.780271 0.000000
vt 0.222711 0.859058 0.000000
vt 0.215108 0.854878 0.000000
vt 0.954772 0.175468 0.000000
vt 0.998047 0.175468 0.000000
vt 0.998047 0.151742 0.000000
vt 0.954772 0.151742 0.000000
vt 0.783883 0.600274 0.000000
vt 0.791485 0.596094 0.000000
vt 0.949434 0.891353 0.000000
vt 0.906159 0.891353 0.000000
vt 0.032817 0.765865 0.000000
vt 0.040419 0.770045 0.000000
vt 0.998047 0.298966 0.000000
vt 0.954772 0.298966 0.000000
vt 0.091972 0.866575 0.000000
vt 0.083071 0.868609 0.000000
# 464 texture coordinates

o BigFuelTankL
usemtl BigFuelTankM
f 11/3/3 3/2/2 1/1/1
f 11/3/3 12/6/5 4/5/4 3/2/2
f 12/6/5 13/8/7 5/7/6 4/5/4
f 14/12/9 15/11/9 7/10/8 6/9/8
f 16/16/13 17/15/12 9/14/11 8/13/10
f 17/15/12 18/18/15 10/17/14 9/14/11
f 18/18/15 2/19/16 10/17/14
f 19/20/17 11/3/3 1/1/1
f 19/20/17 20/21/18 12/6/5 11/3/3
f 20/21/18 21/22/19 13/8/7 12/6/5
f 22/24/20 23/23/20 15/11/9 14/12/9
f 24/26/22 25/25/21 17/15/12 16/16/13
f 25/25/21 26/27/23 18/18/15 17/15/12
f 26/27/23 2/19/16 18/18/15
f 27/28/24 19/20/17 1/1/1
f 27/28/24 28/29/25 20/21/18 19/20/17
f 28/29/25 29/30/26 21/22/19 20/21/18
f 30/34/27 31/33/27 23/32/20 22/31/20
f 32/36/29 33/35/28 25/25/21 24/26/22
f 33/35/28 34/37/30 26/27/23 25/25/21
f 34/37/30 2/19/16 26/27/23
f 35/38/31 27/28/24 1/1/1
f 35/38/31 36/39/32 28/29/25 27/28/24
f 36/39/32 37/40/33 29/30/26 28/29/25
f 38/42/34 39/41/34 31/33/27 30/34/27
f 40/44/36 41/43/35 33/35/28 32/36/29
f 41/43/35 42/45/37 34/37/30 33/35/28
f 42/45/37 2/19/16 34/37/30
f 43/46/38 35/38/31 1/1/1
f 43/46/38 44/47/39 36/39/32 35/38/31
f 44/47/39 45/48/40 37/40/33 36/39/32
f 46/50/41 47/49/41 39/41/34 38/42/34
f 48/52/43 49/51/42 41/43/35 40/44/36
f 49/51/42 50/53/44 42/45/37 41/43/35
f 50/53/44 2/19/16 42/45/37
f 51/54/45 43/46/38 1/1/1
f 51/54/45 52/55/46 44/47/39 43/46/38
f 52/55/46 53/56/47 45/48/40 44/47/39
f 54/60/48 55/59/48 47/58/41 46/57/41
f 56/62/50 57/61/49 49/51/42 48/52/43
f 57/61/49 58/63/51 50/53/44 49/51/42
f 58/63/51 2/19/16 50/53/44
f 59/64/52 51/54/45 1/1/1
f 59/64/52 60/65/53 52/55/46 51/54/45
f 60/65/53 61/66/54 53/56/47 52/55/46
f 62/68/55 63/67/55 55/59/48 54/60/48
f 64/70/57 65/69/56 57/61/49 56/62/50
f 65/69/56 66/71/58 58/63/51 57/61/49
f 66/71/58 2/19/16 58/63/51
f 67/72/59 59/64/52 1/1/1
f 67/72/59 68/73/60 60/65/53 59/64/52
f 68/73/60 69/74/61 61/66/54 60/65/53
f 70/76/62 71/75/62 63/67/55 62/68/55
f 72/78/64 73/77/63 65/69/56 64/70/57
f 73/77/63 74/79/65 66/71/58 65/69/56
f 74/79/65 2/19/16 66/71/58
f 75/80/66 67/72/59 1/1/1
f 75/80/66 76/81/67 68/73/60 67/72/59
f 76/81/67 77/82/68 69/74/61 68/73/60
f 78/84/69 79/83/69 71/75/62 70/76/62
f 80/86/71 81/85/70 73/77/63 72/78/64
f 81/85/70 82/87/72 74/79/65 73/77/63
f 82/87/72 2/19/16 74/79/65
f 83/88/73 75/80/66 1/1/1
f 83/88/73 84/89/74 76/81/67 75/80/66
f 84/89/74 85/90/75 77/82/68 76/81/67
f 86/94/76 87/93/76 79/92/69 78/91/69
f 88/96/78 89/95/77 81/85/70 80/86/71
f 89/95/77 90/97/79 82/87/72 81/85/70
f 90/97/79 2/19/16 82/87/72
f 91/98/80 83/88/73 1/1/1
f 91/98/80 92/99/81 84/89/74 83/88/73
f 92/99/81 93/100/82 85/90/75 84/89/74
f 94/102/83 95/101/83 87/93/76 86/94/76
f 96/104/85 97/103/84 89/95/77 88/96/78
f 97/103/84 98/105/86 90/97/79 89/95/77
f 98/105/86 2/19/16 90/97/79
f 99/106/87 91/98/80 1/1/1
f 99/106/87 100/107/88 92/99/81 91/98/80
f 100/107/88 101/108/89 93/100/82 92/99/81
f 102/110/90 103/109/90 95/101/83 94/102/83
f 104/112/92 105/111/91 97/103/84 96/104/85
f 105/111/91 106/113/93 98/105/86 97/103/84
f 106/113/93 2/19/16 98/105/86
f 107/114/94 99/106/87 1/1/1
f 107/114/94 108/115/95 100/107/88 99/106/87
f 108/115/95 109/116/96 101/108/89 100/107/88
f 110/120/97 111/119/97 103/118/90 102/117/90
f 112/122/99 113/121/98 105/111/91 104/112/92
f 113/121/98 114/123/100 106/113/93 105/111/91
f 114/123/100 2/19/16 106/113/93
f 3/2/2 107/114/94 1/1/1
f 3/2/2 4/5/4 108/115/95 107/114/94
f 4/5/4 5/7/6 109/116/96 108/115/95
f 6/9/8 7/10/8 111/119/97 110/120/97
f 8/13/10 9/14/11 113/121/98 112/122/99
f 9/14/11 10/17/14 114/123/100 113/121/98
f 10/17/14 2/19/16 114/123/100
f 117/127/101 118/126/101 116/125/101 115/124/101
f 119/131/8 120/130/8 118/129/8 117/128/8
f 121/135/102 122/134/102 120/133/102 119/132/102
f 115/139/55 116/138/55 122/137/55 121/136/55
f 118/143/103 120/142/103 122/141/103 116/140/103
f 200/147/105 201/146/105 193/145/104 192/144/104
f 202/151/109 203/150/108 195/149/107 194/148/106
f 203/150/108 204/153/111 196/152/110 195/149/107
f 136/157/113 137/156/113 129/155/112 128/154/112
f 138/161/117 139/160/116 131/159/115 130/158/114
f 139/160/116 140/163/119 132/162/118 131/159/115
f 210/166/122 124/165/121 208/164/120
f 220/168/124 124/165/121 219/167/123
f 123/172/125 125/171/125 201/170/105 200/169/105
f 126/174/127 133/173/126 203/150/108 202/151/109
f 144/176/128 145/175/128 137/156/113 136/157/113
f 146/178/130 147/177/129 139/160/116 138/161/117
f 147/177/129 148/179/131 140/163/119 139/160/116
f 211/180/132 124/165/121 210/166/122
f 133/173/126 134/181/133 204/153/111 203/150/108
f 209/182/134 124/165/121 220/168/124
f 142/184/135 149/183/135 125/171/125 123/172/125
f 152/188/136 153/187/136 145/186/128 144/185/128
f 154/190/138 155/189/137 147/177/129 146/178/130
f 155/189/137 156/191/139 148/179/131 147/177/129
f 212/192/140 124/165/121 211/180/132
f 150/194/142 157/193/141 133/173/126 126/174/127
f 157/193/141 158/195/143 134/181/133 133/173/126
f 213/196/144 124/165/121 209/182/134
f 160/198/145 161/197/145 153/187/136 152/188/136
f 162/200/147 163/199/146 155/189/137 154/190/138
f 163/199/146 164/201/148 156/191/139 155/189/137
f 214/202/149 124/165/121 212/192/140
f 166/204/150 173/203/150 149/183/135 142/184/135
f 174/206/152 181/205/151 157/193/141 150/194/142
f 181/205/151 182/207/153 158/195/143 157/193/141
f 168/209/154 169/208/154 161/197/145 160/198/145
f 170/211/156 171/210/155 163/199/146 162/200/147
f 171/210/155 172/212/157 164/201/148 163/199/146
f 215/213/158 124/165/121 214/202/149
f 217/214/159 124/165/121 213/196/144
f 190/218/160 197/217/160 173/216/150 166/215/150
f 198/220/162 205/219/161 181/205/151 174/206/152
f 176/224/163 177/223/163 169/222/154 168/221/154
f 178/226/165 179/225/164 171/210/155 170/211/156
f 179/225/164 180/227/166 172/212/157 171/210/155
f 216/228/167 124/165/121 215/213/158
f 205/219/161 206/229/168 182/207/153 181/205/151
f 221/230/169 124/165/121 217/214/159
f 128/154/112 129/155/112 197/217/160 190/218/160
f 184/232/170 185/231/170 177/223/163 176/224/163
f 186/234/172 187/233/171 179/225/164 178/226/165
f 187/233/171 188/235/173 180/227/166 179/225/164
f 218/236/174 124/165/121 216/228/167
f 130/158/114 131/159/115 205/219/161 198/220/162
f 131/159/115 132/162/118 206/229/168 205/219/161
f 208/164/120 124/165/121 221/230/169
f 192/144/104 193/145/104 185/231/170 184/232/170
f 194/148/106 195/149/107 187/233/171 186/234/172
f 195/149/107 196/152/110 188/235/173 187/233/171
f 219/167/123 124/165/121 218/236/174
f 140/240/175 210/239/175 208/238/8 132/237/8
f 204/244/177 220/243/177 219/242/176 196/241/176
f 148/246/178 211/245/178 210/239/175 140/240/175
f 134/250/179 209/249/179 220/248/177 204/247/177
f 156/254/180 212/253/180 211/252/178 148/251/178
f 158/256/181 213/255/181 209/249/179 134/250/179
f 164/258/182 214/257/182 212/253/180 156/254/180
f 172/260/183 215/259/183 214/257/182 164/258/182
f 182/262/184 217/261/184 213/255/181 158/256/181
f 180/266/185 216/265/185 215/264/183 172/263/183
f 206/270/186 221/269/186 217/268/184 182/267/184
f 188/272/55 218/271/55 216/265/185 180/266/185
f 132/237/8 208/238/8 221/269/186 206/270/186
f 196/241/176 219/242/176 218/271/55 188/272/55
f 224/276/101 251/275/101 242/274/101 222/273/101
f 235/280/8 234/279/8 251/278/8 224/277/8
f 228/284/102 239/283/102 246/282/102 226/281/102
f 233/288/55 232/287/55 239/286/55 228/285/55
f 248/292/103 246/291/103 247/290/103 249/289/103
f 232/296/103 236/295/103 234/294/103 230/293/103
f 233/288/55 237/298/55 236/297/55 232/287/55
f 231/302/8 226/301/8 246/300/8 230/299/8
f 235/280/8 231/302/8 230/299/8 234/279/8
f 253/306/103 250/305/103 251/304/103 252/303/103
f 237/298/55 222/308/55 242/307/55 236/297/55
f 230/312/101 248/311/101 241/310/101 232/309/101
f 246/300/8 248/313/8 230/299/8
f 264/317/187 223/316/188 225/315/188 265/314/187
f 232/287/55 241/318/55 239/286/55
f 236/322/102 245/321/102 252/320/102 234/319/102
f 242/307/55 245/323/55 236/297/55
f 262/327/102 229/326/102 223/325/102 264/324/102
f 234/279/8 252/328/8 251/278/8
f 248/311/101 249/329/101 241/310/101
f 268/333/101 240/332/101 243/331/101 266/330/101
f 239/283/102 247/334/102 246/282/102
f 269/338/189 238/337/188 240/336/188 268/335/189
f 245/321/102 253/339/102 252/320/102
f 267/343/102 244/342/102 238/341/102 269/340/102
f 251/275/101 250/344/101 242/274/101
f 266/348/190 243/347/191 244/346/191 267/345/190
f 241/352/192 255/351/193 254/350/193 239/349/192
f 249/329/101 257/354/101 255/353/101 241/310/101
f 247/290/194 256/356/195 257/355/195 249/289/194
f 239/283/102 254/358/102 256/357/102 247/334/102
f 242/362/196 258/361/197 259/360/197 245/359/196
f 250/344/101 260/364/101 258/363/101 242/274/101
f 253/306/198 261/366/195 260/365/195 250/305/198
f 245/321/102 259/368/102 261/367/102 253/339/102
f 255/351/193 263/370/199 262/369/199 254/350/193
f 257/354/101 265/372/101 263/371/101 255/353/101
f 256/356/195 264/317/187 265/314/187 257/355/195
f 254/358/102 262/327/102 264/324/102 256/357/102
f 258/361/197 266/348/190 267/345/190 259/360/197
f 260/364/101 268/333/101 266/330/101 258/363/101
f 261/366/195 269/338/189 268/335/189 260/365/195
f 259/368/102 267/343/102 269/340/102 261/367/102
f 263/370/199 227/374/200 229/373/200 262/369/199
f 265/372/101 225/376/101 227/375/101 263/371/101
f 284/380/101 291/379/101 271/378/101 270/377/101
f 291/384/55 278/383/55 279/382/55 271/381/55
f 286/388/102 282/387/102 273/386/102 272/385/102
f 282/392/8 276/391/8 277/390/8 273/389/8
f 287/396/103 286/395/103 288/394/103 289/393/103
f 278/400/103 280/399/103 276/398/103 274/397/103
f 280/402/8 281/401/8 277/390/8 276/391/8
f 286/406/55 272/405/55 275/404/55 274/403/55
f 274/403/55 275/404/55 279/382/55 278/383/55
f 291/410/103 290/409/103 293/408/103 292/407/103
f 284/412/8 270/411/8 281/401/8 280/402/8
f 283/416/101 288/415/101 274/414/101 276/413/101
f 288/417/55 286/406/55 274/403/55
f 225/315/188 223/316/188 304/419/201 305/418/201
f 283/420/8 276/391/8 282/392/8
f 292/424/102 285/423/102 280/422/102 278/421/102
f 285/425/8 284/412/8 280/402/8
f 223/325/102 229/326/102 302/427/102 304/426/102
f 292/428/55 278/383/55 291/384/55
f 289/429/101 288/415/101 283/416/101
f 243/331/101 240/332/101 308/431/101 306/430/101
f 287/432/102 282/387/102 286/388/102
f 240/336/188 238/337/188 309/434/202 308/433/202
f 293/435/102 285/423/102 292/424/102
f 238/341/102 244/342/102 307/437/102 309/436/102
f 290/438/101 291/379/101 284/380/101
f 244/346/191 243/347/191 306/440/203 307/439/203
f 294/444/205 295/443/205 283/442/204 282/441/204
f 295/446/101 297/445/101 289/429/101 283/416/101
f 297/448/207 296/447/207 287/396/206 289/393/206
f 296/450/102 294/449/102 282/387/102 287/432/102
f 299/454/209 298/453/209 284/452/208 285/451/208
f 298/456/101 300/455/101 290/438/101 284/380/101
f 300/458/207 301/457/207 293/408/210 290/409/210
f 301/460/102 299/459/102 285/423/102 293/435/102
f 302/462/211 303/461/211 295/443/205 294/444/205
f 303/464/101 305/463/101 297/445/101 295/446/101
f 305/418/201 304/419/201 296/447/207 297/448/207
f 304/426/102 302/427/102 294/449/102 296/450/102
f 307/439/203 306/440/203 298/453/209 299/454/209
f 306/430/101 308/431/101 300/455/101 298/456/101
f 308/433/202 309/434/202 301/457/207 300/458/207
f 309/436/102 307/437/102 299/459/102 301/460/102
f 229/373/200 227/374/200 303/461/211 302/462/211
f 227/375/101 225/376/101 305/463/101 303/464/101

